
Tm,#Bat,BatAge,R/G,G,PA,AB,R,H,2B,3B,HR,RBI,SB,CS,BB,SO,BA,OBP,SLG,OPS,OPS+,TB,GDP,HBP,SH,SF,IBB,LOB
ARI,51,28.3,4.51,162,6096,5421,731,1357,293,37,172,702,133,55,531,1249,.250,.322,.413,.736,99,2240,82,61,50,33,55,1064
ATL,45,28.9,3.96,162,6169,5528,641,1345,244,16,173,606,77,44,504,1260,.243,.308,.387,.695,90,2140,113,28,75,30,45,1109
BAL,50,28.4,4.37,162,6156,5585,708,1434,273,13,191,684,81,25,452,1120,.257,.316,.413,.729,97,2306,154,52,24,43,24,1069
BOS,49,30.0,5.40,162,6414,5710,875,1600,352,35,203,842,102,42,578,1108,.280,.349,.461,.810,116,2631,136,50,22,50,52,1190
CHC,42,29.2,4.04,162,6130,5549,654,1423,285,36,148,610,69,23,425,1202,.256,.314,.401,.715,95,2224,123,59,60,35,35,1141
CHW,42,29.9,4.04,162,6159,5502,654,1387,252,16,154,625,81,53,475,989,.252,.319,.388,.706,89,2133,125,84,52,46,31,1126
CIN,42,28.6,4.54,162,6329,5612,735,1438,264,19,183,697,97,50,535,1250,.256,.326,.408,.734,98,2289,98,63,78,40,52,1189
CLE,46,27.8,4.35,162,6142,5509,704,1380,290,26,154,671,89,42,494,1269,.250,.317,.396,.714,100,2184,111,65,31,43,30,1075
COL,55,28.6,4.54,162,6275,5544,735,1429,274,40,163,697,118,42,555,1201,.258,.329,.410,.739,88,2272,112,57,75,44,54,1172
DET,45,28.6,4.86,162,6231,5563,787,1540,297,34,169,750,49,20,521,1143,.277,.340,.434,.773,109,2412,142,39,50,58,47,1165
FLA,44,27.4,3.86,162,6232,5508,625,1358,274,30,149,596,95,41,542,1244,.247,.318,.388,.706,93,2139,111,51,89,42,38,1198
HOU,47,28.2,3.80,162,6150,5598,615,1442,309,28,95,579,118,33,401,1164,.258,.311,.374,.684,89,2092,111,46,66,37,34,1154
KCR,42,25.8,4.51,162,6267,5672,730,1560,325,41,129,705,153,58,442,1006,.275,.329,.415,.744,104,2354,121,39,55,57,37,1156
LAA,43,28.9,4.12,162,6088,5513,667,1394,289,34,155,629,135,52,442,1086,.253,.313,.402,.714,102,2216,126,51,50,32,33,1051
LAD,48,29.8,4.00,161,6094,5436,644,1395,237,28,117,613,126,40,498,1087,.257,.322,.375,.697,95,2039,101,45,71,43,61,1165
MIL,48,28.9,4.45,162,6113,5447,721,1422,276,31,185,693,94,31,481,1083,.261,.325,.425,.750,102,2315,114,56,85,44,53,1110
MIN,45,27.5,3.82,162,6020,5487,619,1357,259,25,103,572,92,39,440,1048,.247,.306,.360,.666,84,1975,115,37,31,25,24,1080
NYM,46,28.1,4.43,162,6335,5600,718,1477,309,39,108,676,130,35,571,1085,.264,.335,.391,.725,103,2188,112,51,65,48,56,1257
NYY,48,30.5,5.35,162,6306,5518,867,1452,267,33,222,836,147,46,627,1138,.263,.343,.444,.788,110,2451,146,74,36,51,34,1114
OAK,48,29.0,3.98,162,6104,5452,645,1330,280,29,114,612,117,43,509,1094,.244,.311,.369,.680,88,2010,119,50,34,57,20,1106
PHI,42,31.5,4.40,162,6279,5579,713,1409,258,38,153,693,96,24,539,1024,.253,.323,.395,.717,96,2202,108,56,65,38,52,1197
PIT,52,27.2,3.77,162,6064,5421,610,1325,277,35,107,580,108,52,489,1308,.244,.309,.368,.676,90,1993,123,34,75,44,31,1079
SDP,48,28.0,3.66,162,6074,5417,593,1284,247,42,91,563,170,44,501,1320,.237,.305,.349,.653,85,1888,105,48,55,47,42,1103
SEA,47,29.3,3.43,162,5972,5421,556,1263,253,22,109,534,125,40,435,1280,.233,.292,.348,.640,84,1887,82,37,38,41,33,1083
SFG,44,30.2,3.52,162,6091,5486,570,1327,282,24,121,534,85,51,448,1122,.242,.303,.368,.671,91,2020,117,52,62,43,47,1127
STL,46,29.3,4.70,162,6242,5532,762,1513,308,22,162,726,57,39,542,978,.273,.341,.425,.766,112,2351,169,44,84,40,64,1127
TBR,42,28.3,4.36,162,6152,5436,707,1324,273,37,172,674,155,62,571,1193,.244,.322,.402,.724,104,2187,101,73,37,35,31,1118
TEX,45,29.2,5.28,162,6261,5659,855,1599,310,32,210,807,143,45,475,930,.283,.340,.460,.800,110,2603,135,39,39,49,35,1126
TOR,53,28.4,4.59,162,6210,5559,743,1384,285,34,186,704,131,52,525,1184,.249,.317,.413,.730,96,2295,108,48,31,47,41,1090
WSN,44,28.4,3.88,161,6090,5441,624,1319,257,22,154,594,106,38,470,1323,.242,.309,.383,.691,89,2082,103,65,82,32,40,1114
LgAvg,43,28.7,4.28,162,6175,5524,694,1409,280,30,152,660,109,42,501,1150,.255,.321,.399,.720,97,2204,117,52,56,42,41,1129
Tm,#Bat,BatAge,R/G,G,PA,AB,R,H,2B,3B,HR,RBI,SB,CS,BB,SO,BA,OBP,SLG,OPS,OPS+,TB,GDP,HBP,SH,SF,IBB,LOB
,1295,28.7,4.28,4858,185245,165705,20808,42267,8399,898,4552,19804,3279,1261,15018,34488,.255,.321,.399,.720,97,66118,3523,1554,1667,1274,1231,33855