Rk;Tm;Lg;G;W;L;W-L%;R;RA;Rdiff;SOS;SRS;pythWL;Luck;Inter;Home;Road;ExInn;1Run;vRHP;vLHP;GtE.500;Lt.500;YEAR
;Avg;;;80 ;80 ;0.5  ;4.2;4.3;;;;81-80 ;;10-Oct;43-37;37-43;7-Jul ;23-23 ;59-58;21-22 ;38-47  ;42-33   ;2015
;Avg;;;80 ;80 ;0.5  ;4.3;4.3;;;;80-81 ;;8-Aug ;42-38;38-42;7-Jul ;25-25 ;57-58;23-22 ;33-42  ;47-38   ;2011
;Avg;;;80 ;80 ;0.5  ;4.6;4.6;;;;81-80 ;;8-Aug ;43-37;37-43;6-Jun ;22-22 ;61-60;18-20 ;31-43  ;49-36   ;2002
;Avg;;;80 ;80 ;0.5  ;4.6;4.7;;;;81-80 ;;8-Aug ;45-35;35-45;6-Jun ;22-22 ;55-56;25-24 ;41-50  ;39-30   ;2008
;Avg;;;80 ;80 ;0.5  ;4.7;4.7;;;;81-80 ;;8-Aug ;44-36;36-44;6-Jun ;21-21 ;59-58;21-22 ;43-54  ;37-26   ;2003
;Avg;;;80 ;80 ;0.5  ;4.8;4.8;;;;80-81 ;;8-Aug ;43-37;37-43;7-Jul ;21-21 ;56-57;24-23 ;37-48  ;43-32   ;2004
;Avg;;;80 ;80 ;0.5  ;4.8;4.8;;;;81-80 ;;8-Aug ;42-38;38-42;6-Jun ;21-21 ;62-60;18-20 ;37-48  ;43-32   ;2001
;Avg;;;80 ;80 ;0.5  ;4.9;4.9;;;;81-80 ;;8-Aug ;44-36;36-44;6-Jun ;22-22 ;58-56;22-24 ;33-41  ;47-39   ;2006
;Avg;;;81 ;81 ;0.5  ;4.1;4.1;;;;81-80 ;;10-Oct;42-38;38-42;7-Jul ;24-24 ;58-59;22-21 ;36-44  ;44-36   ;2014
;Avg;;;81 ;81 ;0.5  ;4.2;4.2;;;;81-80 ;;10-Oct;43-37;37-43;8-Aug ;25-25 ;57-56;23-24 ;38-48  ;43-32   ;2013
;Avg;;;81 ;81 ;0.5  ;4.3;4.3;;;;81-80 ;;8-Aug ;43-37;37-43;6-Jun ;23-23 ;55-55;25-25 ;40-50  ;40-30   ;2012
;Avg;;;81 ;81 ;0.5  ;4.4;4.4;;;;81-81 ;;8-Aug ;45-35;35-45;7-Jul ;24-24 ;56-56;24-24 ;38-47  ;42-33   ;2010
;Avg;;;81 ;81 ;0.5  ;4.6;4.6;;;;81-80 ;;8-Aug ;43-37;37-43;6-Jun ;23-23 ;58-57;22-23 ;38-47  ;42-33   ;2005
;Avg;;;81 ;81 ;0.5  ;4.6;4.6;;;;81-81 ;;8-Aug ;44-36;36-44;6-Jun ;21-21 ;56-56;24-24 ;38-47  ;42-33   ;2009
;Avg;;;81 ;81 ;0.5  ;4.8;4.8;;;;81-81 ;;8-Aug ;43-37;37-43;7-Jul ;22-22 ;56-57;24-23 ;39-47  ;41-33   ;2007
