Tm,#Fld,RA/G,DefEff,G,GS,CG,Inn,Ch,PO,A,E,DP,Fld%,Rtot,Rtot/yr,YEAR,,
ANA,37,4.51,0.7,162,1458,1127,12939,6106,4313,1690,103,142,0.983,39,4,2001,,
ARI,45,4.18,0.703,162,1458,1086,13137,6022,4379,1559,84,148,0.986,49,5,2001,,
ATL,47,3.97,0.702,162,1458,1116,13026,6081,4342,1636,103,133,0.983,61,6,2001,,
BAL,46,5.12,0.694,162,1458,1173,12891,6021,4297,1599,125,137,0.979,-13,-1,2001,,
BOS,48,4.63,0.684,161,1449,1133,13032,6015,4344,1558,113,129,0.981,-50,-5,2001,,
CHC,43,4.33,0.688,162,1458,966,12933,5913,4311,1493,109,113,0.982,-12,-1,2001,,
CHW,41,4.91,0.698,162,1458,1090,12900,6149,4300,1731,118,149,0.981,7,1,2001,,
CIN,49,5.25,0.684,162,1458,1033,12984,6199,4328,1733,138,136,0.978,-39,-4,2001,,
CLE,43,5.07,0.67,162,1458,1055,13020,6057,4340,1610,107,137,0.982,-49,-4,2001,,
COL,52,5.59,0.691,162,1458,1107,12870,6080,4290,1694,96,167,0.984,61,6,2001,,
DET,42,5.41,0.675,162,1458,1130,12864,6194,4288,1775,131,164,0.979,-35,-3,2001,,
FLA,42,4.59,0.692,162,1458,1160,12942,6083,4314,1666,103,174,0.983,13,1,2001,,
HOU,43,4.75,0.692,162,1458,1061,13092,6136,4364,1662,110,138,0.982,-3,0,2001,,
KCR,44,5.3,0.69,162,1458,1156,12960,6238,4320,1801,117,204,0.981,50,5,2001,,
LAD,41,4.59,0.696,162,1458,1108,13056,6054,4352,1586,116,138,0.981,-33,-3,2001,,
MIL,46,4.98,0.696,162,1458,1130,12927,6141,4309,1729,103,156,0.983,-7,-1,2001,,
MIN,42,4.73,0.698,162,1458,1172,12972,5974,4324,1542,108,118,0.982,30,3,2001,,
MON,46,5.01,0.682,162,1458,1145,12882,6023,4294,1621,108,139,0.982,-46,-4,2001,,
NYM,43,4.4,0.694,162,1458,1034,13011,6014,4337,1576,101,132,0.983,-1,0,2001,,
NYY,45,4.43,0.683,161,1449,1133,13062,5992,4354,1529,109,132,0.982,-57,-5,2001,,
OAK,41,3.98,0.699,162,1458,1172,13170,6271,4390,1756,125,151,0.98,19,2,2001,,
PHI,44,4.44,0.699,162,1458,1212,13008,6030,4336,1603,91,145,0.985,42,4,2001,,
PIT,49,5.3,0.687,162,1458,1035,12747,6181,4249,1799,133,168,0.978,-3,0,2001,,
SDP,48,5.01,0.686,162,1458,1058,12966,6074,4322,1607,145,127,0.976,-46,-4,2001,,
SEA,35,3.87,0.727,162,1458,1047,13185,6012,4395,1534,83,137,0.986,104,9,2001,,
SFG,41,4.62,0.692,162,1458,1019,13170,6158,4390,1650,118,170,0.981,6,1,2001,,
STL,39,4.22,0.703,162,1458,1055,12918,6080,4306,1664,110,156,0.982,60,6,2001,,
TBD,46,5.48,0.683,162,1458,1195,12813,5941,4271,1531,139,144,0.977,-28,-3,2001,,
TEX,51,5.98,0.673,162,1458,1146,12945,6067,4315,1638,114,167,0.981,-47,-4,2001,,
TOR,40,4.65,0.68,162,1458,1146,13164,6316,4388,1831,97,184,0.985,-4,0,2001,,
LgAvg,40,4.78,0.691,162,1457,1107,12986,6087,4329,1647,112,148,0.982,2,0,2001,,
,1204,4.78,0.691,4858,43722,33200,389586,182622,129862,49403,3357,4435,0.982,68,0,2001,,
Tm,#Fld,RA/G,DefEff,G,GS,CG,Inn,Ch,PO,A,E,DP,Fld%,Rtot,Rtot/yr,YEAR,,
ANA,40,3.98,0.718,162,1458,1075,13071,6019,4357,1575,87,151,0.986,98,9,2002,,
ARI,41,4.16,0.697,162,1458,1085,13020,5935,4340,1506,89,116,0.985,-4,0,2002,,
ATL,38,3.51,0.712,161,1449,1108,13206,6338,4402,1822,114,170,0.982,77,7,2002,,
BAL,46,4.77,0.701,162,1458,1165,13056,6163,4352,1720,91,173,0.985,43,4,2002,,
BOS,39,4.1,0.702,162,1458,1150,13014,6087,4338,1645,104,140,0.983,62,6,2002,,
CHC,44,4.69,0.685,162,1458,1060,12972,5938,4324,1500,114,144,0.981,-55,-5,2002,,
CHW,35,4.93,0.706,162,1458,1168,12807,5961,4269,1595,97,157,0.984,13,1,2002,,
CIN,43,4.78,0.69,162,1458,1071,13083,6254,4361,1773,120,169,0.981,1,0,2002,,
CLE,59,5.17,0.674,162,1458,1153,12822,6049,4274,1662,113,161,0.981,-49,-5,2002,,
COL,43,5.54,0.691,162,1458,1081,12840,6093,4280,1701,112,158,0.982,34,3,2002,,
DET,56,5.37,0.678,161,1449,1209,12726,6103,4242,1719,142,148,0.977,-41,-4,2002,,
FLA,41,4.71,0.689,162,1458,1135,13107,6111,4369,1636,106,163,0.983,-13,-1,2002,,
HOU,41,4.29,0.687,162,1458,1048,13005,6081,4335,1663,83,149,0.986,-44,-4,2002,,
KCR,52,5.5,0.685,162,1458,1148,12969,6155,4323,1702,130,153,0.979,-20,-2,2002,,
LAD,41,3.97,0.716,162,1458,1078,13119,6149,4373,1686,90,134,0.985,44,4,2002,,
MIL,49,5.07,0.696,162,1458,1099,12891,6033,4297,1633,103,154,0.983,-14,-1,2002,,
MIN,42,4.42,0.703,161,1449,1103,13002,5830,4334,1422,74,124,0.987,21,2,2002,,
MON,43,4.43,0.684,162,1458,1124,13077,6297,4359,1799,139,160,0.978,-13,-1,2002,,
NYM,47,4.37,0.692,161,1449,1035,12984,6100,4328,1628,144,138,0.976,-22,-2,2002,,
NYY,37,4.33,0.688,161,1449,1145,13068,6007,4356,1524,127,117,0.979,-56,-5,2002,,
OAK,41,4.04,0.704,162,1458,1080,13068,6256,4356,1798,102,144,0.984,-6,-1,2002,,
PHI,39,4.5,0.705,161,1449,1147,13047,6137,4349,1700,88,156,0.986,24,2,2002,,
PIT,37,4.53,0.693,161,1449,1016,12714,6252,4238,1899,115,177,0.982,11,1,2002,,
SDP,59,5.03,0.675,162,1458,1004,12927,6118,4309,1681,128,162,0.979,-71,-7,2002,,
SEA,38,4.31,0.703,162,1458,1079,13008,5939,4336,1515,88,134,0.985,5,0,2002,,
SFG,38,3.8,0.705,162,1458,1089,12936,6032,4312,1630,90,166,0.985,38,4,2002,,
STL,44,4,0.707,162,1458,1017,13017,6116,4339,1674,103,168,0.983,49,4,2002,,
TBD,43,5.7,0.687,161,1449,1238,12963,6014,4321,1567,126,168,0.979,-8,-1,2002,,
TEX,51,5.44,0.688,162,1458,1037,12957,6101,4319,1683,99,152,0.984,-22,-2,2002,,
TOR,45,5.11,0.69,162,1458,1188,12945,6035,4315,1613,107,159,0.982,-7,-1,2002,,
LgAvg,40,4.62,0.695,162,1456,1105,12981,6090,4327,1656,108,152,0.982,2,0,2002,,
Tm,#Fld,RA/G,DefEff,G,GS,CG,Inn,Ch,PO,A,E,DP,Fld%,Rtot,Rtot/yr,2002,,
,1212,4.62,0.695,4852,43668,33135,389421,182703,129807,49671,3225,4565,0.982,73,0,2002,,
Tm,#Fld,RA/G,DefEff,G,GS,CG,Inn,Ch,PO,A,E,DP,Fld%,Rtot,Rtot/yr,Rdrs,Rdrs/yr,YEAR
ANA,43,4.59,0.702,162,1458,1033,12882,5916,4294,1517,105,138,0.982,86,8,22,2,2003
ARI,43,4.23,0.69,162,1458,1110,13095,6165,4365,1693,107,132,0.983,25,2,-41,-4,2003
ATL,34,4.57,0.699,162,1458,1111,13107,6374,4369,1884,121,166,0.981,42,4,42,4,2003
BAL,42,5.03,0.684,163,1467,1226,13047,6137,4349,1683,105,164,0.983,-49,-4,-13,-1,2003
BOS,47,4.99,0.683,162,1458,1096,13182,6186,4394,1679,113,130,0.982,-49,-4,-23,-2,2003
CHC,42,4.22,0.692,162,1458,1103,13107,6156,4369,1681,106,157,0.983,7,1,-25,-2,2003
CHW,40,4.41,0.705,162,1458,1075,12879,5974,4293,1588,93,154,0.984,26,2,26,2,2003
CIN,57,5.47,0.685,162,1458,1100,13017,6180,4339,1700,141,152,0.977,29,3,-5,0,2003
CLE,54,4.8,0.698,162,1458,1156,13134,6284,4378,1780,126,178,0.98,31,3,27,2,2003
COL,49,5.51,0.678,162,1458,1120,12780,6161,4260,1785,116,165,0.981,9,1,6,1,2003
DET,42,5.73,0.685,162,1458,1156,12948,6267,4316,1813,138,194,0.978,-43,-4,-36,-3,2003
FLA,40,4.27,0.691,162,1458,1185,13008,6004,4336,1590,78,162,0.987,-15,-1,-22,-2,2003
HOU,43,4.18,0.705,162,1458,1113,13050,6155,4350,1710,95,149,0.985,-9,-1,71,7,2003
KCR,53,5.35,0.69,162,1458,1135,12948,6129,4316,1705,108,143,0.982,-17,-2,-48,-4,2003
LAD,42,3.43,0.702,162,1458,1058,13119,6302,4373,1810,119,164,0.981,48,4,67,6,2003
MIL,42,5.39,0.683,162,1458,1171,13068,6087,4356,1617,114,142,0.981,-15,-1,-83,-8,2003
MIN,42,4.68,0.698,162,1458,1129,13158,5954,4386,1481,87,114,0.985,-35,-3,-6,-1,2003
MON,43,4.42,0.694,162,1458,1082,12939,6147,4313,1732,102,152,0.983,9,1,7,1,2003
NYM,50,4.68,0.688,161,1449,957,12720,6013,4240,1655,118,158,0.98,-51,-5,-42,-4,2003
NYY,49,4.39,0.681,163,1467,1194,13158,6078,4386,1578,114,126,0.981,-65,-6,-37,-3,2003
OAK,41,3.97,0.711,162,1458,1133,12975,6211,4325,1779,107,145,0.983,19,2,9,1,2003
PHI,37,4.3,0.701,162,1458,1179,12993,6122,4331,1694,97,146,0.984,62,6,14,1,2003
PIT,45,4.94,0.691,162,1458,1058,12999,6300,4333,1844,123,159,0.98,-28,-3,0,0,2003
SDP,51,5.13,0.695,162,1458,1085,12882,6030,4294,1634,102,141,0.983,-26,-2,-17,-2,2003
SEA,36,3.93,0.721,162,1458,1185,12969,5838,4323,1450,65,159,0.989,75,7,41,4,2003
SFG,46,3.96,0.71,161,1449,1105,12936,6067,4312,1675,80,163,0.987,46,4,32,3,2003
STL,42,4.91,0.7,162,1458,973,13173,6112,4391,1644,77,138,0.987,32,3,-8,-1,2003
TBD,50,5.26,0.708,162,1458,1172,12930,5993,4310,1580,103,158,0.983,-12,-1,17,2,2003
TEX,52,5.98,0.674,162,1458,1091,12900,6097,4300,1703,94,168,0.985,-43,-4,67,6,2003
TOR,40,5.1,0.681,162,1458,1149,12915,6164,4305,1742,117,161,0.981,-49,-5,-48,-4,2003
LgAvg,41,4.73,0.694,162,1458,1115,13001,6120,4334,1681,106,153,0.983,1,0,,,2003
Tm,#Fld,RA/G,DefEff,G,GS,CG,Inn,Ch,PO,A,E,DP,Fld%,Rtot,Rtot/yr,Rdrs,Rdrs/yr,2003
,1221,4.73,0.694,4860,43740,33440,390018,183603,130006,50426,3171,4578,0.983,37,0,,,2003
Tm,#Fld,RA/G,DefEff,G,GS,CG,Inn,Ch,PO,A,E,DP,Fld%,Rtot,Rtot/yr,Rdrs,Rdrs/yr,YEAR
ANA,38,4.53,0.688,162,1458,1062,13089,5964,4363,1511,90,126,0.985,-10,-1,-15,-1,2004
ARI,52,5.55,0.682,162,1458,1147,12924,6163,4308,1716,139,144,0.977,-7,-1,-2,0,2004
ATL,39,4.12,0.688,162,1458,1095,13050,6257,4350,1791,116,171,0.981,49,4,43,4,2004
BAL,46,5.12,0.686,162,1458,1150,13098,6159,4366,1683,110,161,0.982,-13,-1,-42,-4,2004
BOS,49,4.74,0.693,162,1458,982,13062,6122,4354,1650,118,129,0.981,-1,0,-22,-2,2004
CHC,43,4.1,0.697,162,1458,1123,13188,6061,4396,1579,86,126,0.986,-2,0,-16,-1,2004
CHW,42,5.13,0.693,162,1458,1137,12891,6064,4297,1667,100,167,0.984,-4,0,35,3,2004
CIN,44,5.6,0.688,162,1458,1063,12993,6085,4331,1641,113,123,0.981,-13,-1,6,1,2004
CLE,51,5.29,0.684,162,1458,1158,13200,6182,4400,1676,106,152,0.983,-20,-2,-7,-1,2004
COL,47,5.7,0.677,162,1458,1081,12918,6218,4306,1823,89,161,0.986,-34,-3,-17,-2,2004
DET,39,5.21,0.681,162,1458,1125,12957,6175,4319,1712,144,160,0.977,-19,-2,-38,-4,2004
FLA,45,4.32,0.699,162,1458,1153,12951,6006,4317,1603,86,153,0.986,13,1,13,1,2004
HOU,42,4.31,0.685,162,1458,1064,12987,6050,4329,1620,101,136,0.983,8,1,28,3,2004
KCR,58,5.59,0.674,162,1458,1180,12783,6027,4261,1635,131,169,0.978,-52,-5,-24,-2,2004
LAD,43,4.22,0.711,162,1458,1112,13080,6099,4360,1666,73,145,0.988,70,6,76,7,2004
MIL,40,4.7,0.693,161,1449,1168,12978,6037,4326,1594,117,132,0.981,3,0,-18,-2,2004
MIN,42,4.41,0.684,162,1458,1120,13284,6187,4428,1658,101,158,0.984,-33,-3,-9,-1,2004
MON,46,4.75,0.694,162,1458,1122,13023,6139,4341,1699,99,172,0.984,39,4,56,5,2004
NYM,52,4.51,0.696,162,1458,1040,13041,6229,4347,1745,137,144,0.978,-23,-2,-18,-2,2004
NYY,43,4.99,0.685,162,1458,1119,12993,6001,4331,1571,99,148,0.984,-54,-5,-78,-7,2004
OAK,36,4.58,0.698,162,1458,1161,13242,6314,4414,1809,91,172,0.986,19,2,-12,-1,2004
PHI,39,4.82,0.702,162,1458,1157,13164,6098,4388,1629,81,142,0.987,39,4,8,1,2004
PIT,43,4.62,0.684,161,1449,1042,12852,6080,4284,1693,103,189,0.983,-17,-2,-6,-1,2004
SDP,46,4.35,0.693,162,1458,1099,12969,6033,4323,1602,108,146,0.982,-17,-2,-17,-2,2004
SEA,48,5.08,0.699,162,1458,1143,13134,5954,4378,1473,103,140,0.983,19,2,29,3,2004
SFG,42,4.75,0.694,162,1458,1064,13113,6209,4371,1737,101,153,0.984,20,2,-45,-4,2004
STL,37,4.07,0.71,162,1458,1037,13083,6292,4361,1834,97,154,0.985,72,7,53,5,2004
TBD,47,5.23,0.699,161,1449,1163,12753,5900,4251,1530,119,139,0.98,38,4,4,0,2004
TEX,52,4.9,0.686,162,1458,1151,12957,6040,4319,1604,117,152,0.981,-23,-2,-19,-2,2004
TOR,47,5.11,0.691,161,1449,1184,12789,5985,4263,1631,91,150,0.985,-20,-2,41,4,2004
LgAvg,41,4.81,0.691,162,1457,1113,13018,6104,4339,1659,106,150,0.983,1,0,,,2004
Tm,#Fld,RA/G,DefEff,G,GS,CG,Inn,Ch,PO,A,E,DP,Fld%,Rtot,Rtot/yr,Rdrs,Rdrs/yr,2004
,1241,4.81,0.691,4856,43704,33402,390546,183130,130182,49782,3166,4514,0.983,27,0,,,2004
Tm,#Fld,RA/G,DefEff,G,GS,CG,Inn,Ch,PO,A,E,DP,Fld%,Rtot,Rtot/yr,Rdrs,Rdrs/yr,YEAR
ARI,43,5.28,0.683,162,1458,1093,13107,6257,4369,1794,94,159,0.985,-21,-2,-16,0,2005
ATL,45,4.16,0.693,162,1458,1142,12993,6219,4331,1802,86,170,0.986,65,6,55,1,2005
BAL,46,4.94,0.692,162,1458,1111,12849,6069,4283,1679,107,154,0.982,21,2,12,0,2005
BOS,52,4.97,0.682,162,1458,1063,12861,6019,4287,1623,109,135,0.982,-72,-7,-32,-1,2005
CHC,43,4.41,0.699,162,1458,1109,12960,6079,4320,1658,101,136,0.983,2,0,-1,0,2005
CHW,37,3.98,0.711,162,1458,1183,13281,6191,4427,1670,94,166,0.985,8,1,45,1,2005
CIN,45,5.45,0.676,163,1467,1153,12897,5990,4299,1587,104,133,0.983,-43,-4,-50,-5,2005
CLE,36,3.96,0.709,162,1458,1212,13074,6110,4358,1646,106,156,0.983,69,6,32,3,2005
COL,53,5.32,0.67,162,1458,1121,12768,6080,4256,1706,118,158,0.981,-35,-3,-33,-1,2005
DET,45,4.86,0.695,162,1458,1133,12921,6208,4307,1791,110,171,0.982,18,2,34,1,2005
FLA,47,4.52,0.677,162,1458,1123,12981,6089,4327,1659,103,177,0.983,-51,-5,-75,-7,2005
HOU,36,3.74,0.705,163,1467,1068,12987,6118,4329,1700,89,146,0.985,31,3,57,1,2005
KCR,45,5.77,0.666,162,1458,1165,12720,6011,4240,1646,125,163,0.979,-87,-8,-114,-2,2005
LAA,40,3.97,0.7,162,1458,1114,13179,6001,4393,1521,87,139,0.986,14,1,30,3,2005
LAD,44,4.66,0.699,162,1458,1078,12846,6115,4282,1727,106,141,0.983,-3,0,7,0,2005
MIL,38,4.3,0.696,162,1458,1157,12942,5915,4314,1482,119,139,0.98,0,0,-16,0,2005
MIN,37,4.09,0.702,162,1458,1137,13179,6259,4393,1764,102,171,0.984,23,2,41,4,2005
NYM,42,4,0.7,162,1458,1128,12921,6070,4307,1657,106,146,0.983,-9,-1,-27,-3,2005
NYY,51,4.87,0.69,162,1458,1097,12876,6075,4292,1688,95,151,0.984,-63,-6,-117,-2,2005
OAK,41,4.06,0.715,162,1458,1188,13053,6088,4351,1649,88,166,0.986,60,6,35,1,2005
PHI,40,4.48,0.703,162,1458,1130,12915,6003,4305,1608,90,132,0.985,73,7,94,9,2005
PIT,44,4.75,0.693,162,1458,1101,12924,6228,4308,1803,117,193,0.981,-7,-1,22,2,2005
SDP,46,4.48,0.689,162,1458,1049,13098,6004,4366,1529,109,136,0.982,-41,-4,-52,-5,2005
SEA,48,4.64,0.701,162,1458,1200,12849,5944,4283,1575,86,144,0.986,-13,-1,1,0,2005
SFG,49,4.6,0.699,162,1458,1104,12999,6053,4333,1630,90,146,0.985,19,2,-12,0,2005
STL,40,3.91,0.703,162,1458,1030,13011,6388,4337,1951,100,196,0.984,85,8,75,1,2005
TBD,43,5.78,0.681,162,1458,1104,12795,5835,4265,1446,124,139,0.979,-57,-5,-14,0,2005
TEX,50,5.3,0.68,162,1458,1202,12960,6106,4320,1678,108,149,0.982,-29,-3,-44,-4,2005
TOR,36,4.35,0.701,162,1458,1109,13023,6193,4341,1757,95,154,0.985,16,1,62,6,2005
WSN,54,4.15,0.697,162,1458,1087,13122,6014,4374,1548,92,156,0.985,-5,0,-13,0,2005
LgAvg,41,4.59,0.693,162,1459,1123,12970,6091,4323,1666,102,154,0.983,0,0,,,2005
Tm,#Fld,RA/G,DefEff,G,GS,CG,Inn,Ch,PO,A,E,DP,Fld%,Rtot,Rtot/yr,Rdrs,Rdrs/yr,2005
,1225,4.59,0.693,4862,43758,33691,389091,182731,129697,49974,3060,4622,0.983,-31,0,,,2005
Tm,#Fld,RA/G,DefEff,G,GS,CG,Inn,Ch,PO,A,E,DP,Fld%,Rtot,Rtot/yr,Rdrs,Rdrs/yr,YEAR
ARI,45,4.86,0.685,162,1458,1151,13137,6259,4379,1776,104,172,0.983,7,1,3,0,2006
ATL,45,4.97,0.686,162,1458,1087,12972,6031,4324,1608,99,146,0.984,42,4,-17,-2,2006
BAL,46,5.55,0.678,162,1458,1102,12771,5966,4257,1607,102,156,0.983,-5,-1,-15,-1,2006
BOS,53,5.09,0.679,162,1458,1056,12972,6052,4324,1662,66,174,0.989,-1,0,-54,-5,2006
CHC,46,5.15,0.698,162,1458,1115,12951,5903,4317,1480,106,122,0.982,3,0,-19,-2,2006
CHW,37,4.9,0.693,162,1458,1096,13041,6092,4347,1655,90,145,0.985,-29,-3,-35,-3,2006
CIN,52,4.94,0.68,162,1458,1119,13011,6064,4337,1599,128,139,0.979,-20,-2,-49,-5,2006
CLE,45,4.83,0.675,162,1458,1208,12810,6057,4270,1669,118,165,0.981,-29,-3,-45,-4,2006
COL,50,5.01,0.683,162,1458,1158,13026,6249,4342,1816,91,190,0.985,18,2,23,2,2006
DET,38,4.17,0.701,162,1458,1124,13032,6230,4344,1780,106,162,0.983,68,6,49,5,2006
FLA,40,4.77,0.683,162,1458,995,12900,6014,4300,1588,126,166,0.979,-8,-1,-12,-1,2006
HOU,38,4.44,0.701,162,1458,1042,13218,6239,4406,1753,80,164,0.987,61,6,48,4,2006
KCR,53,5.99,0.676,162,1458,1165,12837,6035,4279,1658,98,189,0.984,-17,-2,25,2,2006
LAA,40,4.52,0.69,162,1458,1097,13074,6027,4358,1545,124,154,0.979,-2,0,-1,0,2006
LAD,50,4.64,0.681,162,1458,1049,13143,6292,4381,1796,115,174,0.982,-28,-3,-31,-3,2006
MIL,49,5.14,0.685,162,1458,1179,12831,5976,4277,1582,117,126,0.98,-31,-3,-4,0,2006
MIN,38,4.22,0.685,162,1458,1174,12954,6049,4318,1647,84,135,0.986,-21,-2,12,1,2006
NYM,49,4.51,0.701,162,1458,1173,13152,6126,4384,1638,104,131,0.983,26,2,34,3,2006
NYY,49,4.73,0.696,162,1458,1023,12993,6028,4331,1593,104,145,0.983,-22,-2,-39,-4,2006
OAK,39,4.49,0.688,162,1458,1191,13065,6065,4355,1626,84,173,0.986,3,0,2,0,2006
PHI,44,5.01,0.681,162,1458,1096,13143,6170,4381,1685,104,153,0.983,-5,0,-9,-1,2006
PIT,41,4.92,0.674,162,1458,1147,12915,6199,4305,1790,104,168,0.983,-38,-4,-32,-3,2006
SDP,43,4.19,0.71,162,1458,1081,13173,6079,4391,1596,92,138,0.985,28,3,32,3,2006
SEA,49,4.89,0.69,162,1458,1171,13020,6058,4340,1630,88,150,0.985,17,2,57,5,2006
SFG,44,4.91,0.7,161,1449,1032,12867,5961,4289,1581,91,132,0.985,13,1,28,3,2006
STL,41,4.73,0.697,161,1449,1016,12867,6169,4289,1782,98,170,0.984,38,4,54,5,2006
TBD,49,5.28,0.671,162,1458,1125,12783,5971,4261,1594,116,156,0.981,-73,-7,-35,-3,2006
TEX,51,4.84,0.678,162,1458,1199,12882,6140,4294,1748,98,174,0.984,-34,-3,10,1,2006
TOR,42,4.65,0.693,162,1458,1097,12855,6096,4285,1712,99,157,0.984,32,3,41,4,2006
WSN,57,5.38,0.689,162,1458,1118,12927,5941,4309,1501,131,123,0.978,-23,-2,-50,-5,2006
LgAvg,41,4.86,0.687,162,1457,1113,12977,6085,4326,1657,102,155,0.983,0,0,,,2006
Tm,#Fld,RA/G,DefEff,G,GS,CG,Inn,Ch,PO,A,E,DP,Fld%,Rtot,Rtot/yr,Rdrs,Rdrs/yr,2006
,1230,4.86,0.687,4858,43722,33386,389322,182538,129774,49697,3067,4649,0.983,-29,0,,,2006
Tm,#Fld,RA/G,DefEff,G,GS,CG,Inn,Ch,PO,A,E,DP,Fld%,Rtot,Rtot/yr,Rdrs,Rdrs/yr,YEAR
ARI,47,4.52,0.691,162,1458,1089,12969,6064,4323,1635,106,157,0.983,27,3,37,3,2007
ATL,50,4.52,0.696,162,1458,1118,13107,6133,4369,1657,107,141,0.983,11,1,60,5,2007
BAL,49,5.36,0.686,162,1458,1112,12948,6085,4316,1690,79,155,0.987,-16,-1,-10,-1,2007
BOS,40,4.06,0.704,162,1458,1112,12948,5935,4316,1538,81,145,0.986,73,7,-1,0,2007
CHC,47,4.26,0.704,162,1458,1035,13020,5969,4340,1535,94,134,0.984,44,4,17,2,2007
CHW,43,5.18,0.68,162,1458,1165,12966,6034,4322,1604,108,168,0.982,-53,-5,-62,-6,2007
CIN,50,5.27,0.676,162,1458,1094,13047,5961,4349,1517,95,155,0.984,-41,-4,-57,-5,2007
CLE,41,4.35,0.685,162,1458,1115,13164,6177,4388,1697,92,167,0.985,-14,-1,3,0,2007
COL,53,4.65,0.701,163,1467,1102,13248,6326,4416,1842,68,180,0.989,75,7,34,3,2007
DET,44,4.92,0.69,162,1458,1095,13026,6076,4342,1635,99,148,0.984,23,2,40,4,2007
FLA,50,5.5,0.659,162,1458,1119,12993,5978,4331,1510,137,159,0.977,-56,-5,-67,-6,2007
HOU,41,5.02,0.685,162,1458,993,13182,6186,4394,1689,103,128,0.983,-36,-3,-43,-4,2007
KCR,45,4.8,0.681,162,1458,1111,12936,5971,4312,1553,106,160,0.982,8,1,42,4,2007
LAA,42,4.51,0.678,162,1458,1131,12915,5956,4305,1550,101,154,0.983,-2,0,-10,-1,2007
LAD,45,4.49,0.682,162,1458,1046,13050,6115,4350,1651,114,160,0.981,-26,-2,-4,0,2007
MIL,40,4.79,0.675,162,1458,1115,12999,5971,4333,1529,109,144,0.982,-51,-5,-7,-1,2007
MIN,42,4.48,0.685,162,1458,1161,12930,6017,4310,1611,96,151,0.984,-23,-2,21,2,2007
NYM,49,4.63,0.698,162,1458,1168,13071,5976,4357,1518,101,124,0.983,19,2,18,2,2007
NYY,49,4.8,0.689,162,1458,1099,13056,6028,4352,1588,88,174,0.985,18,2,-12,-1,2007
OAK,52,4.68,0.691,162,1458,1174,13032,6121,4344,1687,90,153,0.985,-4,0,11,1,2007
PHI,45,5.07,0.686,162,1458,1014,13125,6187,4375,1723,89,162,0.986,29,3,45,4,2007
PIT,46,5.22,0.673,162,1458,1140,13029,6147,4343,1721,83,190,0.986,-41,-4,-24,-2,2007
SDP,46,4.09,0.699,163,1467,1165,13362,6311,4454,1763,94,147,0.985,-14,-1,-3,0,2007
SEA,43,5.02,0.672,162,1458,1120,12909,6049,4303,1656,90,167,0.985,-14,-1,-46,-4,2007
SFG,44,4.44,0.694,162,1458,1072,13083,6115,4361,1666,88,148,0.986,10,1,5,0,2007
STL,45,5.12,0.689,162,1458,1027,12921,6100,4307,1672,121,155,0.98,6,1,47,4,2007
TBD,45,5.83,0.652,162,1458,1211,12867,5954,4289,1548,117,155,0.98,-79,-7,-81,-8,2007
TEX,50,5.21,0.679,162,1458,1073,12870,6159,4290,1745,124,179,0.98,9,1,0,0,2007
TOR,45,4.31,0.703,162,1458,1131,13038,6301,4346,1853,102,160,0.984,62,6,83,8,2007
WSN,47,4.83,0.698,162,1458,1065,13020,6016,4340,1567,109,153,0.982,9,1,-12,-1,2007
LgAvg,42,4.8,0.686,162,1459,1106,13028,6081,4343,1638,100,156,0.984,-1,0,,,2007
Tm,#Fld,RA/G,DefEff,G,GS,CG,Inn,Ch,PO,A,E,DP,Fld%,Rtot,Rtot/yr,Rdrs,Rdrs/yr,2007
,1270,4.8,0.686,4862,43758,33172,390831,182418,130277,49150,2991,4673,0.984,-45,0,,,2007
Tm,#Fld,RA/G,DefEff,G,GS,CG,Inn,Ch,PO,A,E,DP,Fld%,Rtot,Rtot/yr,Rdrs,Rdrs/yr,YEAR
ARI,41,4.36,0.685,162,1458,1141,12912,5982,4304,1565,113,137,0.981,-25,-2,-31,-3,2008
ATL,48,4.8,0.692,162,1458,1147,12966,6220,4322,1791,107,149,0.983,-12,-1,27,2,2008
BAL,46,5.4,0.687,161,1449,1112,12798,6027,4266,1661,100,163,0.983,-19,-2,-19,-2,2008
BOS,46,4.28,0.698,162,1458,1092,13017,6021,4339,1597,85,149,0.986,27,2,14,1,2008
CHC,42,4.17,0.703,161,1449,1046,13056,5896,4352,1445,99,118,0.983,-11,-1,-17,-2,2008
CHW,38,4.47,0.686,163,1467,1110,13119,6211,4373,1730,108,155,0.983,-43,-4,-35,-3,2008
CIN,47,4.94,0.671,162,1458,1063,12981,6008,4327,1567,114,156,0.981,-44,-4,-24,-2,2008
CLE,48,4.7,0.685,162,1458,1156,12933,6094,4311,1689,94,182,0.985,16,1,24,2,2008
COL,49,5.07,0.677,162,1458,1123,13014,6250,4338,1816,96,176,0.985,-30,-3,-19,-2,2008
DET,46,5.29,0.683,162,1458,1081,13005,6082,4335,1634,113,172,0.981,8,1,-29,-3,2008
FLA,44,4.76,0.692,161,1449,1039,12918,5924,4306,1501,117,122,0.98,-4,0,-5,0,2008
HOU,40,4.61,0.697,161,1449,1111,12828,5939,4276,1596,67,142,0.989,-3,0,14,1,2008
KCR,43,4.82,0.688,162,1458,1076,13011,5981,4337,1548,96,159,0.984,-12,-1,-65,-6,2008
LAA,41,4.3,0.691,162,1458,1119,13062,6091,4354,1646,91,159,0.985,10,1,-6,-1,2008
LAD,46,4,0.69,162,1458,1027,13026,6238,4342,1795,101,138,0.984,15,1,-11,-1,2008
MIL,42,4.25,0.7,162,1458,1211,13101,6166,4367,1698,101,160,0.984,14,1,44,4,2008
MIN,39,4.57,0.684,163,1467,1185,13131,6167,4377,1682,108,168,0.982,-37,-3,-28,-3,2008
NYM,49,4.41,0.699,162,1458,1129,13179,6028,4393,1552,83,126,0.986,11,1,31,3,2008
NYY,51,4.49,0.682,162,1458,1095,12975,5994,4325,1586,83,141,0.986,18,2,-38,-3,2008
OAK,49,4.29,0.699,161,1449,1059,12915,5976,4305,1573,98,169,0.984,21,2,58,5,2008
PHI,38,4.2,0.695,162,1458,1055,13047,6137,4349,1698,90,142,0.985,41,4,78,7,2008
PIT,47,5.46,0.675,162,1458,1167,13095,6302,4365,1830,107,179,0.983,-38,-3,-10,-1,2008
SDP,59,4.72,0.694,162,1458,1155,13125,6086,4375,1626,85,149,0.986,-22,-2,-12,-1,2008
SEA,44,5.01,0.679,162,1458,1158,12918,6059,4306,1654,99,160,0.984,-7,-1,16,1,2008
SFG,47,4.69,0.685,162,1458,1034,12978,5815,4326,1393,96,129,0.983,-10,-1,-32,-3,2008
STL,43,4.48,0.694,162,1458,979,13086,6264,4362,1817,85,156,0.986,59,5,69,6,2008
TBR,45,4.14,0.708,162,1458,1141,13119,5958,4373,1495,90,153,0.985,54,5,15,1,2008
TEX,54,5.97,0.666,162,1458,1115,12978,6134,4326,1676,132,191,0.978,-24,-2,-53,-5,2008
TOR,40,3.77,0.703,162,1458,1154,13020,6123,4340,1699,84,137,0.986,34,3,52,5,2008
WSN,50,5.12,0.686,161,1449,1106,12906,6003,4302,1578,123,143,0.98,-26,-2,-4,0,2008
LgAvg,42,4.65,0.689,162,1457,1106,13007,6073,4336,1638,99,153,0.984,0,0,,,2008
Tm,#Fld,RA/G,DefEff,G,GS,CG,Inn,Ch,PO,A,E,DP,Fld%,Rtot,Rtot/yr,Rdrs,Rdrs/yr,2008
,1273,4.65,0.689,4856,43704,33186,390219,182176,130073,49138,2965,4580,0.984,-39,0,,,2008
Tm,#Fld,RA/G,DefEff,G,GS,CG,Inn,Ch,PO,A,E,DP,Fld%,Rtot,Rtot/yr,Rdrs,Rdrs/yr,YEAR
ARI,45,4.83,0.683,162,1458,1131,13029,6073,4343,1606,124,133,0.98,8,1,-1,0,2009
ATL,45,3.96,0.686,162,1458,1121,13164,6198,4388,1714,96,159,0.985,28,3,-5,0,2009
BAL,48,5.41,0.68,162,1458,1176,12861,6040,4287,1663,90,151,0.985,-25,-2,-10,-1,2009
BOS,52,4.54,0.678,162,1458,1126,12930,5844,4310,1452,82,121,0.986,1,0,-41,-4,2009
CHC,45,4.17,0.698,161,1449,1060,13008,6014,4336,1573,105,144,0.983,5,0,-25,-2,2009
CHW,44,4.52,0.689,162,1458,1149,12957,6101,4319,1669,113,158,0.981,-47,-4,-11,-1,2009
CIN,45,4.46,0.704,162,1458,1118,13125,6060,4375,1596,89,161,0.985,53,5,33,3,2009
CLE,51,5.34,0.681,162,1458,1189,12906,6050,4302,1651,97,170,0.984,-15,-1,-23,-2,2009
COL,45,4.41,0.688,162,1458,1065,12945,6167,4315,1765,87,146,0.986,-9,-1,13,1,2009
DET,44,4.57,0.694,163,1467,1082,13023,6045,4341,1616,88,164,0.985,34,3,31,3,2009
FLA,44,4.73,0.686,162,1458,1086,13017,5914,4339,1469,106,129,0.982,0,0,-70,-6,2009
HOU,42,4.75,0.677,162,1458,1147,12870,6087,4290,1719,78,161,0.987,-52,-5,3,0,2009
KCR,43,5.2,0.675,162,1458,1102,12834,5964,4278,1569,117,159,0.98,-66,-6,-99,-9,2009
LAA,46,4.7,0.687,162,1458,1159,13005,6043,4335,1623,85,174,0.986,0,0,71,7,2009
LAD,46,3.77,0.713,162,1458,1139,13260,6097,4420,1594,83,134,0.986,17,2,14,1,2009
MIL,45,5.05,0.689,162,1458,1165,12915,5993,4305,1590,98,149,0.984,-5,0,-7,-1,2009
MIN,41,4.69,0.689,163,1467,1106,13077,6000,4359,1565,76,135,0.987,-34,-3,-47,-4,2009
NYM,51,4.67,0.693,162,1458,1128,12834,5932,4278,1557,97,134,0.984,-19,-2,13,1,2009
NYY,44,4.65,0.698,162,1458,1024,13050,5929,4350,1493,86,131,0.985,17,2,-24,-2,2009
OAK,50,4.7,0.682,162,1458,1116,13026,6039,4342,1592,105,155,0.983,-67,-6,-31,-3,2009
PHI,41,4.38,0.693,162,1458,1196,13101,6000,4367,1557,76,132,0.987,2,0,10,1,2009
PIT,49,4.77,0.69,161,1449,1237,12765,6094,4255,1766,73,171,0.988,-24,-2,30,3,2009
SDP,54,4.75,0.692,162,1458,1161,13056,6012,4352,1566,94,146,0.984,-47,-4,-11,-1,2009
SEA,46,4.27,0.712,162,1458,1217,13074,5988,4358,1525,105,150,0.982,91,8,86,8,2009
SFG,44,3.77,0.706,162,1458,1051,13014,5937,4338,1511,88,138,0.985,60,6,15,1,2009
STL,42,3.95,0.694,162,1458,972,12966,6273,4322,1855,96,167,0.985,36,3,36,3,2009
TBR,41,4.65,0.695,162,1458,1105,12846,5891,4282,1511,98,135,0.983,54,5,31,3,2009
TEX,44,4.57,0.697,162,1458,1219,12912,6013,4304,1603,106,168,0.982,59,5,9,1,2009
TOR,44,4.76,0.681,162,1458,1206,13059,6169,4353,1740,76,168,0.988,11,1,63,6,2009
WSN,55,5.4,0.683,162,1458,1082,12819,6158,4273,1742,143,155,0.977,-34,-3,-48,-5,2009
LgAvg,42,4.61,0.69,162,1458,1128,12982,6038,4327,1615,95,150,0.984,1,0,,,2009
Tm,#Fld,RA/G,DefEff,G,GS,CG,Inn,Ch,PO,A,E,DP,Fld%,Rtot,Rtot/yr,Rdrs,Rdrs/yr,2009
,1256,4.61,0.69,4860,43740,33835,389448,181125,129816,48452,2857,4498,0.984,31,0,,,2009
Tm,#Fld,RA/G,DefEff,G,GS,CG,Inn,Ch,PO,A,E,DP,Fld%,Rtot,Rtot/yr,Rdrs,Rdrs/yr,YEAR
ARI,48,5.16,0.689,162,1458,1152,12888,5970,4296,1572,102,152,0.983,23,2,9,1,2010
ATL,43,3.88,0.69,162,1458,1057,12954,6214,4318,1770,126,166,0.98,22,2,18,2,2010
BAL,45,4.85,0.69,162,1458,1154,12927,5996,4309,1582,105,141,0.982,-13,-1,-26,-2,2010
BOS,53,4.59,0.691,162,1458,1045,13110,6069,4370,1588,111,132,0.982,23,2,12,1,2010
CHC,44,4.73,0.681,162,1458,1118,12930,5986,4310,1550,126,137,0.979,-31,-3,-46,-4,2010
CHW,39,4.35,0.679,162,1458,1183,13017,6105,4339,1663,103,158,0.983,-31,-3,-62,-6,2010
CIN,44,4.23,0.701,162,1458,1079,13077,6039,4359,1608,72,142,0.988,23,2,40,4,2010
CLE,44,4.64,0.687,162,1458,1189,12897,6223,4299,1814,110,179,0.982,19,2,-7,-1,2010
COL,43,4.43,0.682,162,1458,1075,12978,6134,4326,1707,101,182,0.984,9,1,42,4,2010
DET,41,4.59,0.688,162,1458,1069,12999,6110,4333,1668,109,171,0.982,27,2,-1,0,2010
FLA,57,4.43,0.681,162,1458,1142,12945,5940,4315,1502,123,130,0.979,-13,-1,-37,-3,2010
HOU,48,4.5,0.68,162,1458,1136,12954,6018,4318,1597,103,135,0.983,-39,-4,-28,-3,2010
KCR,46,5.22,0.679,162,1458,1230,12930,6019,4310,1588,121,138,0.98,-17,-2,-95,-9,2010
LAA,46,4.33,0.692,162,1458,1155,13044,6023,4348,1562,113,116,0.981,-28,-3,-16,-2,2010
LAD,49,4.27,0.697,162,1458,1120,12975,6012,4325,1589,98,124,0.984,-2,0,-67,-6,2010
MIL,43,4.96,0.675,162,1458,1192,12951,5934,4317,1516,101,142,0.983,-38,-4,1,0,2010
MIN,41,4.14,0.69,162,1458,1164,13074,6146,4358,1710,78,150,0.987,21,2,-14,-1,2010
NYM,47,4.02,0.691,162,1458,1143,13077,6111,4359,1665,87,159,0.986,35,3,40,4,2010
NYY,43,4.28,0.709,162,1458,1082,12981,5918,4327,1522,69,161,0.988,13,1,35,3,2010
OAK,49,3.86,0.711,162,1458,1122,12885,6098,4295,1704,99,147,0.984,34,3,76,7,2010
PHI,42,3.95,0.698,162,1458,1178,13107,6139,4369,1687,83,158,0.986,17,2,1,0,2010
PIT,52,5.35,0.671,162,1458,1170,12705,6016,4235,1654,127,120,0.979,-91,-9,-76,-7,2010
SDP,40,3.59,0.703,162,1458,1090,13107,6067,4369,1626,72,141,0.988,27,2,81,7,2010
SEA,46,4.31,0.705,162,1458,1242,12942,6081,4314,1657,110,145,0.982,41,4,12,1,2010
SFG,42,3.6,0.707,162,1458,997,13149,5941,4383,1485,73,110,0.988,25,2,26,2,2010
STL,42,3.96,0.694,162,1458,1038,13083,6332,4361,1872,99,172,0.984,6,1,49,4,2010
TBR,36,4.01,0.709,162,1458,1065,13083,5945,4361,1499,85,134,0.986,18,2,41,4,2010
TEX,48,4.24,0.704,162,1458,1130,13098,5970,4366,1499,105,133,0.982,-8,-1,-19,-2,2010
TOR,44,4.49,0.689,162,1458,1183,12966,6105,4322,1691,92,172,0.985,12,1,9,1,2010
WSN,46,4.58,0.684,162,1458,1001,12915,6089,4305,1657,127,148,0.979,-12,-1,-9,-1,2010
LgAvg,42,4.38,0.691,162,1458,1123,12992,6058,4331,1627,101,147,0.983,2,0,,,2010
Tm,#Fld,RA/G,DefEff,G,GS,CG,Inn,Ch,PO,A,E,DP,Fld%,Rtot,Rtot/yr,Rdrs,Rdrs/yr,2010
,1246,4.38,0.691,4860,43740,33701,389748,181750,129916,48804,3030,4395,0.983,69,0,,,2010
Tm,#Fld,RA/G,DefEff,G,GS,CG,Inn,Ch,PO,A,E,DP,Fld%,Rtot,Rtot/yr,Rdrs,Rdrs/yr,YEAR
ARI,51,4.09,0.701,162,1458,1202,12990,6024,4330,1604,90,131,0.985,30,3,55,5,2011
ATL,44,3.73,0.699,162,1458,1153,13317,6197,4439,1675,83,131,0.987,3,0,10,1,2011
BAL,49,5.31,0.682,162,1458,1161,13020,6105,4340,1655,110,159,0.982,-58,-5,-20,0,2011
BOS,49,4.55,0.701,162,1458,1129,13116,5990,4372,1526,92,120,0.985,10,1,18,0,2011
CHC,42,4.67,0.678,162,1458,1090,12909,5996,4303,1559,134,128,0.978,-8,-1,-43,-4,2011
CHW,42,4.36,0.685,162,1458,1159,13140,6126,4380,1667,79,129,0.987,-9,-1,-15,-1,2011
CIN,42,4.44,0.705,162,1458,1088,13209,6253,4403,1759,91,146,0.985,37,3,44,1,2011
CLE,45,4.69,0.692,162,1458,1155,13080,6159,4360,1689,110,130,0.982,8,1,-6,0,2011
COL,55,4.78,0.688,162,1458,1121,13029,6199,4343,1758,98,156,0.984,-35,-3,35,3,2011
DET,45,4.39,0.692,162,1458,1033,12960,6062,4320,1639,103,148,0.983,-21,-2,14,1,2011
FLA,44,4.33,0.694,162,1458,1111,13137,6025,4379,1553,93,126,0.985,-16,-1,-75,-7,2011
HOU,47,4.91,0.68,162,1458,1125,12915,6053,4305,1632,116,140,0.981,8,1,11,0,2011
KCR,42,4.7,0.687,162,1458,1227,13062,6149,4354,1700,95,149,0.985,-15,-1,26,0,2011
LAA,42,3.91,0.704,162,1458,1154,13185,6211,4395,1723,93,157,0.985,45,4,29,3,2011
LAD,48,3.8,0.701,161,1449,1064,12888,5892,4296,1511,85,121,0.986,2,0,13,0,2011
MIL,46,3.94,0.694,162,1458,1086,12975,6023,4325,1587,111,130,0.982,18,2,16,2,2011
MIN,44,4.96,0.677,162,1458,1182,12795,6005,4265,1621,119,153,0.98,-49,-5,-60,-6,2011
NYM,46,4.58,0.683,162,1458,1143,13032,6157,4344,1697,116,126,0.981,-67,-6,-57,-1,2011
NYY,48,4.06,0.688,162,1458,1102,13125,6046,4375,1569,102,141,0.983,11,1,-9,-1,2011
OAK,48,4.19,0.692,162,1458,1180,13029,5996,4343,1529,124,145,0.979,-28,-3,-26,-2,2011
PHI,42,3.27,0.703,162,1458,1188,13293,6125,4431,1620,74,135,0.988,33,3,-59,-1,2011
PIT,52,4.4,0.684,162,1458,1081,13044,6231,4348,1771,112,154,0.982,-11,-1,-28,-3,2011
SDP,48,3.77,0.704,162,1458,1086,13044,6136,4348,1694,94,139,0.985,5,0,47,4,2011
SEA,45,4.17,0.698,162,1458,1194,12897,6030,4299,1623,108,152,0.982,-20,-2,1,0,2011
SFG,43,3.57,0.701,162,1458,1008,13212,6165,4404,1657,104,127,0.983,14,1,4,0,2011
STL,46,4.27,0.687,162,1458,960,13158,6317,4386,1815,116,167,0.982,-17,-2,-22,-2,2011
TBR,40,3.79,0.724,162,1458,1102,13041,5939,4347,1519,73,138,0.988,47,4,85,8,2011
TEX,45,4.18,0.704,162,1458,1130,12972,5990,4324,1552,114,164,0.981,32,3,3,0,2011
TOR,53,4.7,0.693,162,1458,1162,13128,6189,4376,1703,110,148,0.982,17,2,6,1,2011
WSN,43,3.99,0.697,161,1449,1098,13044,6143,4348,1691,104,145,0.983,38,4,5,0,2011
LgAvg,43,4.28,0.694,162,1457,1122,13058,6098,4353,1643,102,141,0.983,0,0,,,2011
Tm,#Fld,RA/G,DefEff,G,GS,CG,Inn,Ch,PO,A,E,DP,Fld%,Rtot,Rtot/yr,Rdrs,Rdrs/yr,2011
,1284,4.28,0.694,4858,43722,33674,391746,182933,130582,49298,3053,4235,0.983,6,0,,,2011
Tm,#Fld,RA/G,DefEff,G,GS,CG,Inn,Ch,PO,A,E,DP,Fld%,Rtot,Rtot/yr,Rdrs,Rdrs/yr,YEAR
ARI,48,4.25,0.685,162,1458,1206,12903,6067,4301,1676,90,146,0.985,-4,0,24,2,2012
ATL,41,3.7,0.703,162,1458,1194,13008,6076,4336,1654,86,147,0.986,101,9,71,1,2012
BAL,51,4.35,0.699,162,1458,1153,13347,6235,4449,1680,106,151,0.983,22,2,-12,-1,2012
BOS,56,4.98,0.689,162,1458,1108,12987,6117,4329,1687,101,159,0.983,44,4,44,1,2012
CHC,53,4.69,0.692,162,1458,1092,12723,5929,4241,1583,105,148,0.982,-9,-1,-6,-1,2012
CHW,45,4.17,0.702,162,1458,1145,13011,5985,4337,1578,70,154,0.988,54,5,8,0,2012
CIN,38,3.63,0.699,162,1458,1153,13077,6050,4359,1602,89,113,0.985,36,3,32,3,2012
CLE,47,5.22,0.685,162,1458,1104,12978,6087,4326,1665,96,157,0.984,-20,-2,-51,-1,2012
COL,49,5.49,0.657,162,1458,1117,12798,6106,4266,1718,122,139,0.98,-58,-5,-87,-8,2012
DET,46,4.14,0.678,162,1458,1088,12876,5872,4292,1481,99,127,0.983,-70,-7,-31,-3,2012
HOU,50,4.9,0.675,162,1458,1069,12810,6117,4270,1729,118,132,0.981,-67,-6,-70,-7,2012
KCR,45,4.6,0.673,162,1458,1217,13062,6091,4354,1624,113,171,0.981,-48,-4,13,0,2012
LAA,43,4.31,0.708,162,1458,1101,12900,5976,4300,1578,98,141,0.984,44,4,58,5,2012
LAD,50,3.69,0.702,162,1458,1057,13047,6116,4349,1669,98,138,0.984,21,2,5,0,2012
MIA,44,4.47,0.685,162,1458,1154,12966,6074,4322,1649,103,154,0.983,2,0,-45,-4,2012
MIL,46,4.52,0.672,162,1458,1079,13083,5992,4361,1532,99,133,0.983,-36,-3,14,1,2012
MIN,47,5.14,0.69,162,1458,1171,12948,6207,4316,1784,107,188,0.983,-5,-1,30,0,2012
NYM,48,4.38,0.694,162,1458,1060,12906,5905,4302,1502,101,135,0.983,-3,0,-43,-1,2012
NYY,45,4.12,0.693,162,1458,1097,13008,5882,4336,1471,75,135,0.987,-34,-3,-22,-2,2012
OAK,50,3.79,0.704,162,1458,1174,13230,6089,4410,1568,111,135,0.982,25,2,14,1,2012
PHI,49,4.2,0.686,162,1458,1098,13062,6015,4354,1560,101,118,0.983,-20,-2,-7,-1,2012
PIT,49,4.16,0.697,162,1458,1072,12900,6068,4300,1656,112,126,0.982,-22,-2,-25,0,2012
SDP,53,4.38,0.697,162,1458,1079,12912,6080,4304,1655,121,97,0.98,-18,-2,-23,0,2012
SEA,37,4.02,0.707,162,1458,1201,13110,6012,4370,1570,72,155,0.988,-11,-1,17,0,2012
SFG,45,4.01,0.693,162,1458,1054,13059,6107,4353,1639,115,134,0.981,-5,0,-7,-1,2012
STL,45,4,0.686,162,1458,1045,13164,6249,4388,1754,107,149,0.983,-13,-1,13,1,2012
TBR,43,3.56,0.704,162,1458,1005,13137,6134,4379,1641,114,155,0.981,2,0,23,2,2012
TEX,39,4.36,0.694,162,1458,1106,12978,5907,4326,1496,85,136,0.986,14,1,-5,0,2012
TOR,54,4.84,0.694,162,1458,1156,12993,6169,4331,1737,101,167,0.984,68,6,60,1,2012
WSN,43,3.67,0.702,162,1458,1056,13215,6131,4405,1632,94,134,0.985,32,3,-12,-1,2012
LgAvg,43,4.32,0.691,162,1458,1114,13007,6062,4336,1626,100,142,0.983,1,0,,,2012
Tm,#Fld,RA/G,DefEff,G,GS,CG,Inn,Ch,PO,A,E,DP,Fld%,Rtot,Rtot/yr,Rdrs,Rdrs/yr,2012
,1278,4.32,0.691,4860,43740,33411,390198,181845,130066,48770,3009,4274,0.983,21,0,,,2012
Tm,#Fld,RA/G,DefEff,G,GS,CG,Inn,Ch,PO,A,E,DP,Fld%,Rtot,Rtot/yr,Rdrs,Rdrs/yr,YEAR
ARI,44,4.29,0.697,162,1458,1161,13455,6293,4485,1733,75,135,0.988,38,3,88,8,2013
ATL,43,3.38,0.7,162,1458,1091,13053,6116,4351,1680,85,141,0.986,64,6,47,4,2013
BAL,52,4.38,0.701,162,1458,1204,13077,6027,4359,1614,54,165,0.991,25,2,19,2,2013
BOS,48,4.05,0.694,162,1458,1121,13086,5958,4362,1516,80,142,0.987,18,2,11,1,2013
CHC,56,4.25,0.706,162,1458,1187,13032,6046,4344,1602,100,129,0.983,18,2,29,3,2013
CHW,47,4.46,0.687,162,1458,1110,13095,6041,4365,1555,121,155,0.98,-70,-6,-53,-5,2013
CIN,39,3.64,0.715,162,1458,1122,13263,6140,4421,1643,76,131,0.988,82,7,34,3,2013
CLE,48,4.09,0.683,162,1458,1149,12972,5925,4324,1503,98,135,0.983,-28,-3,-40,-4,2013
COL,43,4.69,0.674,162,1458,1152,12924,6253,4308,1855,90,162,0.986,-21,-2,-2,0,2013
DET,39,3.85,0.682,162,1458,1090,13164,5972,4388,1508,76,136,0.987,-55,-5,-64,-6,2013
HOU,50,5.23,0.679,162,1458,1124,12960,6080,4320,1635,125,168,0.979,-75,-7,-41,-4,2013
KCR,43,3.71,0.698,162,1458,1154,13035,5950,4345,1520,85,136,0.986,53,5,95,9,2013
LAA,49,4.55,0.683,162,1458,1135,13119,5985,4373,1500,112,135,0.981,-26,-2,-61,-6,2013
LAD,49,3.59,0.692,162,1458,1058,13053,6183,4351,1723,109,160,0.982,40,4,49,5,2013
MIA,52,3.99,0.695,162,1458,1198,13140,6156,4381,1687,88,144,0.986,21,2,-3,0,2013
MIL,40,4.24,0.697,162,1458,1137,12984,6070,4328,1628,114,153,0.981,34,3,60,6,2013
MIN,44,4.86,0.679,162,1458,1155,13053,6155,4351,1723,81,178,0.987,-45,-4,-8,-1,2013
NYM,53,4.22,0.691,162,1458,1108,13290,6165,4430,1642,93,127,0.985,-33,-3,-5,0,2013
NYY,55,4.14,0.687,162,1458,1128,13026,5955,4342,1544,69,139,0.988,-22,-2,23,2,2013
OAK,44,3.86,0.708,162,1458,1094,13068,5830,4356,1377,97,112,0.983,-7,-1,-53,-5,2013
PHI,51,4.62,0.679,162,1458,1123,12927,6020,4309,1614,97,141,0.984,-45,-4,-100,-9,2013
PIT,49,3.56,0.698,162,1458,1042,13236,6442,4412,1924,106,154,0.984,21,2,70,6,2013
SDP,47,4.32,0.696,162,1458,1006,13095,6146,4365,1698,83,140,0.986,15,1,9,1,2013
SEA,47,4.65,0.683,162,1458,1144,13185,6128,4395,1645,88,149,0.986,-46,-4,-97,-9,2013
SFG,44,4.27,0.689,162,1458,1074,13026,5986,4342,1537,107,128,0.982,38,4,6,1,2013
STL,44,3.68,0.691,162,1458,1031,13137,6172,4379,1718,75,177,0.988,5,0,-37,-3,2013
TBR,41,3.96,0.707,163,1467,1042,13176,6044,4392,1593,59,147,0.99,12,1,10,1,2013
TEX,45,3.9,0.693,163,1467,1138,13170,6025,4390,1549,86,146,0.986,68,6,41,4,2013
TOR,53,4.67,0.69,162,1458,1114,13068,6072,4356,1605,111,145,0.982,-41,-4,15,1,2013
WSN,44,3.86,0.691,162,1458,1169,13011,5993,4337,1549,107,146,0.982,0,0,-14,-1,2013
LgAvg,43,4.17,0.692,162,1459,1119,13096,6078,4365,1621,92,145,0.985,1,0,,,2013
Tm,#Fld,RA/G,DefEff,G,GS,CG,Inn,Ch,PO,A,E,DP,Fld%,Rtot,Rtot/yr,Rdrs,Rdrs/yr,2013
,1299,4.17,0.692,4862,43758,33561,392880,182328,130961,48620,2747,4356,0.985,38,0,,,2013
Tm,#Fld,RA/G,DefEff,G,GS,CG,Inn,Ch,PO,A,E,DP,Fld%,Rtot,Rtot/yr,Rdrs,Rdrs/yr,YEAR
ARI,52,4.58,0.673,162,1458,1209,12999,6079,4333,1645,101,147,0.983,-7,-1,23,2,2014
ATL,39,3.69,0.687,162,1458,1191,13095,5977,4365,1527,85,143,0.986,38,3,20,2,2014
BAL,43,3.66,0.706,162,1458,1124,13152,6075,4384,1604,87,156,0.986,50,5,50,1,2014
BOS,55,4.41,0.685,162,1458,1136,13191,6099,4397,1610,92,155,0.985,6,1,28,3,2014
CHC,48,4.36,0.68,162,1458,1120,13170,6161,4390,1668,103,137,0.983,-1,0,-21,0,2014
CHW,44,4.68,0.678,162,1458,1144,12969,6112,4323,1682,107,170,0.982,-46,-4,-55,-5,2014
CIN,45,3.78,0.712,162,1458,1145,13014,5998,4338,1588,72,120,0.988,62,6,68,6,2014
CLE,45,4.03,0.673,162,1458,1153,13215,6120,4405,1599,116,139,0.981,-50,-5,-73,-7,2014
COL,49,5.05,0.678,162,1458,1109,12879,6207,4293,1808,106,166,0.983,32,3,19,2,2014
DET,48,4.35,0.673,162,1458,1079,13086,6001,4362,1538,101,153,0.983,-81,-7,-64,-6,2014
HOU,48,4.46,0.685,162,1458,1167,12948,6126,4316,1704,106,151,0.983,-54,-5,-15,-1,2014
KCR,48,3.85,0.693,162,1458,1127,13056,5968,4352,1512,104,122,0.983,28,3,41,4,2014
LAA,54,3.89,0.703,162,1458,1061,13344,6013,4448,1482,83,127,0.986,7,1,-15,-1,2014
LAD,49,3.81,0.69,162,1458,1074,13182,6208,4394,1707,107,145,0.983,5,0,28,3,2014
MIA,44,4.16,0.675,162,1458,1168,13119,6170,4373,1700,97,154,0.984,-12,-1,-3,0,2014
MIL,40,4.06,0.696,162,1458,1110,13119,6074,4373,1602,99,130,0.984,18,2,-3,0,2014
MIN,48,4.8,0.672,162,1458,1155,12915,5981,4305,1579,97,136,0.984,-62,-6,-71,-7,2014
NYM,45,3.81,0.688,162,1458,1137,13173,6112,4391,1617,104,158,0.983,-16,-1,18,2,2014
NYY,58,4.1,0.687,162,1458,1120,13077,5925,4359,1474,92,107,0.984,-3,0,-1,0,2014
OAK,43,3.53,0.71,162,1458,1048,13170,6135,4390,1634,111,150,0.982,18,2,34,3,2014
PHI,49,4.24,0.693,162,1458,1154,13215,6161,4405,1673,83,133,0.987,-9,-1,-38,-1,2014
PIT,44,3.9,0.694,162,1458,1043,13107,6316,4369,1838,109,148,0.983,33,3,37,3,2014
SDP,51,3.56,0.695,162,1458,1039,12948,5977,4316,1560,101,124,0.983,25,2,38,4,2014
SEA,44,3.42,0.712,162,1458,1136,13068,6046,4356,1608,82,139,0.986,28,3,-9,0,2014
SFG,46,3.79,0.703,162,1458,1054,13041,6146,4347,1699,100,155,0.984,35,3,-3,0,2014
STL,45,3.72,0.701,162,1458,1094,13038,6051,4346,1617,88,145,0.985,30,3,66,6,2014
TBR,41,3.86,0.7,162,1458,1108,13173,5788,4391,1309,88,96,0.985,-20,-2,-33,-3,2014
TEX,64,4.77,0.675,162,1458,1186,12837,5798,4279,1413,106,155,0.982,-48,-4,-41,-1,2014
TOR,55,4.23,0.693,162,1458,995,12987,5944,4329,1528,87,130,0.985,-13,-1,-29,-3,2014
WSN,40,3.43,0.691,162,1458,1167,13236,6137,4412,1625,100,139,0.984,43,4,11,1,2014
LgAvg,44,4.07,0.69,162,1458,1118,13084,6064,4361,1605,97,141,0.984,1,0,,,2014
Tm,#Fld,RA/G,DefEff,G,GS,CG,Inn,Ch,PO,A,E,DP,Fld%,Rtot,Rtot/yr,Rdrs,Rdrs/yr,2014
,1313,4.07,0.69,4860,43740,33553,392523,181905,130841,48150,2914,4230,0.984,37,0,,,2014
Tm,#Fld,RA/G,DefEff,G,GS,CG,Inn,Ch,PO,A,E,DP,Fld%,Rtot,Rtot/yr,Rdrs,Rdrs/yr,YEAR
ARI,50,4.4,0.693,162,1458,1107,13200,6183,4400,1697,86,146,0.986,26,2,63,6,2015
ATL,60,4.69,0.681,162,1458,1139,12828,5959,4276,1593,90,186,0.985,-8,-1,-24,0,2015
BAL,48,4.28,0.691,162,1458,1133,12912,5978,4304,1597,77,134,0.987,-10,-1,-9,-1,2015
BOS,50,4.65,0.68,162,1458,1138,13035,6067,4345,1625,97,148,0.984,-25,-2,-2,0,2015
CHC,50,3.75,0.695,162,1458,1053,13152,6164,4384,1669,111,120,0.982,16,1,18,2,2015
CHW,40,4.33,0.673,162,1458,1151,13074,6041,4358,1582,101,159,0.983,-36,-3,-20,0,2015
CIN,49,4.65,0.689,162,1458,1173,13080,6072,4360,1622,90,131,0.985,0,0,-8,0,2015
CLE,49,3.98,0.699,161,1449,1152,12894,5905,4298,1528,79,136,0.987,49,5,17,2,2015
COL,51,5.21,0.668,162,1458,1107,12837,6192,4279,1818,95,171,0.985,-11,-1,-16,-2,2015
DET,47,4.99,0.69,161,1449,1103,13023,6048,4341,1621,86,165,0.986,-6,-1,6,1,2015
HOU,46,3.81,0.701,162,1458,1094,12969,6025,4323,1617,85,131,0.986,16,1,37,1,2015
KCR,45,3.96,0.701,162,1458,1172,13068,6055,4356,1611,88,138,0.985,20,2,51,1,2015
LAA,51,4.17,0.701,162,1458,1058,12966,5906,4322,1491,93,108,0.984,13,1,9,1,2015
LAD,55,3.67,0.692,162,1458,1084,13011,6139,4337,1727,75,133,0.988,16,2,1,0,2015
MIA,51,4.19,0.694,162,1458,1152,12843,5946,4281,1588,77,162,0.987,19,2,34,1,2015
MIL,49,4.55,0.679,162,1458,1081,12915,6099,4305,1678,116,164,0.981,-4,0,-8,0,2015
MIN,44,4.32,0.687,162,1458,1151,12987,6052,4329,1637,86,150,0.986,-18,-2,-21,0,2015
NYM,49,3.78,0.697,162,1458,1095,13164,6075,4388,1599,88,131,0.986,4,0,4,0,2015
NYY,55,4.31,0.685,162,1458,1037,13119,6060,4373,1594,93,135,0.985,-15,-1,-39,-4,2015
OAK,52,4.5,0.691,162,1458,1105,13002,6102,4334,1642,126,154,0.979,-25,-2,5,0,2015
PHI,50,4.99,0.667,162,1458,1117,12927,6011,4309,1585,117,145,0.981,-59,-5,-97,-1,2015
PIT,44,3.68,0.679,162,1458,994,13407,6459,4469,1868,122,177,0.981,-12,-1,21,2,2015
SDP,46,4.51,0.683,162,1458,1070,12963,5979,4321,1566,92,138,0.985,-26,-2,-23,-2,2015
SEA,51,4.48,0.688,162,1458,1059,13167,6168,4389,1685,94,155,0.985,-34,-3,-51,-1,2015
SFG,48,3.87,0.706,162,1458,1155,12999,6085,4333,1674,78,145,0.987,33,3,34,1,2015
STL,45,3.24,0.688,162,1458,1014,13182,6107,4394,1617,96,159,0.984,-9,-1,13,0,2015
TBR,51,3.96,0.701,162,1458,1027,13080,5863,4360,1408,95,118,0.984,4,0,7,1,2015
TEX,57,4.52,0.687,162,1458,1094,12984,6142,4328,1695,119,169,0.981,27,2,1,0,2015
TOR,52,4.14,0.708,162,1458,1117,12969,6003,4323,1592,88,145,0.985,50,5,18,2,2015
WSN,44,3.92,0.685,162,1458,1166,12912,5927,4304,1533,90,125,0.985,1,0,-7,0,2015
LgAvg,45,4.25,0.689,162,1457,1103,13022,6060,4341,1625,94,146,0.984,0,0,,,2015
Tm,#Fld,RA/G,DefEff,G,GS,CG,Inn,Ch,PO,A,E,DP,Fld%,Rtot,Rtot/yr,Rdrs,Rdrs/yr,2015
,1343,4.25,0.689,4858,43722,33098,390669,181812,130223,48759,2830,4378,0.984,-3,0,,,2015
