
Tm,#P,PAge,RA/G,W,L,W-L%,ERA,G,GS,GF,CG,tSho,cSho,SV,IP,H,R,ER,HR,BB,IBB,SO,HBP,BK,WP,BF,ERA+,FIP,WHIP,H9,HR9,BB9,SO9,SO/W,LOB
ARI,23,27.4,4.25,81,81,.500,3.93,162,162,158,4,9,2,39,1433.2,1432,688,626,155,417,18,1200,51,10,52,6063,104,3.81,1.290,9.0,1.0,2.6,7.5,2.88,1074
ATL,21,27.6,3.70,94,68,.580,3.42,162,162,157,5,16,4,47,1445.1,1310,600,549,145,464,40,1232,41,3,54,5991,117,3.74,1.227,8.2,0.9,2.9,7.7,2.66,1055
BAL,26,27.6,4.35,93,69,.574,3.90,162,162,161,1,10,1,55,1483.0,1433,705,642,184,481,36,1177,53,6,34,6278,109,4.20,1.291,8.7,1.1,2.9,7.1,2.45,1124
BOS,26,28.7,4.98,69,93,.426,4.70,162,162,156,6,4,2,35,1443.0,1449,806,754,190,529,33,1176,66,11,42,6209,90,4.41,1.371,9.0,1.2,3.3,7.3,2.22,1074
CHC,30,27.9,4.69,61,101,.377,4.51,162,162,161,1,9,0,28,1413.2,1399,759,708,175,573,36,1128,65,5,44,6140,91,4.46,1.395,8.9,1.1,3.6,7.2,1.97,1140
CHW,25,27.5,4.17,85,77,.525,4.02,162,162,156,6,11,2,37,1445.2,1365,676,646,186,503,29,1246,68,9,66,6098,106,4.23,1.292,8.5,1.2,3.1,7.8,2.48,1085
CIN,17,27.1,3.63,97,65,.599,3.34,162,162,153,9,12,2,56,1453.0,1356,588,540,152,427,33,1248,51,7,34,6056,123,3.72,1.227,8.4,0.9,2.6,7.7,2.92,1109
CLE,24,27.6,5.22,68,94,.420,4.78,162,162,160,2,6,1,43,1442.0,1503,845,766,174,543,27,1086,55,6,67,6283,82,4.40,1.419,9.4,1.1,3.4,6.8,2.00,1112
COL,27,28.2,5.49,64,98,.395,5.22,162,162,162,0,7,0,36,1422.0,1637,890,824,198,566,61,1144,47,6,94,6384,89,4.59,1.549,10.4,1.3,3.6,7.2,2.02,1228
DET,23,28.2,4.14,88,74,.543,3.75,162,162,153,9,8,3,40,1430.2,1409,670,596,151,438,35,1318,42,6,46,6045,113,3.63,1.291,8.9,0.9,2.8,8.3,3.01,1083
HOU,26,27.2,4.90,55,107,.340,4.56,162,162,159,3,11,2,31,1423.1,1493,794,721,173,540,40,1170,48,6,75,6238,89,4.27,1.428,9.4,1.1,3.4,7.4,2.17,1174
KCR,25,27.3,4.60,72,90,.444,4.30,162,162,160,2,12,1,44,1451.1,1504,746,693,163,542,44,1177,60,8,49,6251,98,4.18,1.410,9.3,1.0,3.4,7.3,2.17,1151
LAA,23,30.1,4.31,89,73,.549,4.02,162,162,156,6,16,5,38,1433.1,1339,699,640,186,483,20,1157,40,2,38,6034,95,4.26,1.271,8.4,1.2,3.0,7.3,2.40,1035
LAD,25,29.0,3.69,86,76,.531,3.34,162,162,160,2,10,2,40,1449.2,1277,597,538,122,539,62,1276,45,2,46,6068,114,3.64,1.253,7.9,0.8,3.3,7.9,2.37,1122
MIA,21,28.8,4.47,69,93,.426,4.09,162,162,157,5,7,3,38,1440.2,1448,724,655,133,495,61,1113,55,4,36,6186,100,3.90,1.349,9.0,0.8,3.1,7.0,2.25,1140
MIL,23,29.0,4.52,83,79,.512,4.22,162,162,162,0,9,0,44,1453.2,1458,733,682,169,525,20,1402,31,5,57,6245,98,3.82,1.364,9.0,1.0,3.3,8.7,2.67,1151
MIN,25,27.8,5.14,66,96,.407,4.77,162,162,159,3,6,1,35,1438.2,1536,832,762,198,465,43,943,57,2,60,6214,86,4.66,1.391,9.6,1.2,2.9,5.9,2.03,1066
NYM,28,30.3,4.38,74,88,.457,4.09,162,162,155,7,13,5,36,1434.0,1368,709,651,161,488,29,1240,40,3,40,6086,93,3.93,1.294,8.6,1.0,3.1,7.8,2.54,1075
NYY,23,30.3,4.12,95,67,.586,3.84,162,162,156,6,9,2,51,1445.1,1401,668,617,190,431,32,1318,49,9,53,6085,110,3.98,1.268,8.7,1.2,2.7,8.2,3.06,1081
OAK,25,27.9,3.79,94,68,.580,3.48,162,162,161,1,13,0,47,1470.0,1360,614,569,147,462,34,1136,46,5,40,6131,112,3.89,1.239,8.3,0.9,2.8,7.0,2.46,1107
PHI,24,29.1,4.20,81,81,.500,3.83,162,162,157,5,11,4,42,1451.1,1387,680,618,178,409,33,1385,44,3,30,6072,105,3.72,1.237,8.6,1.1,2.5,8.6,3.39,1038
PIT,25,30.2,4.16,79,83,.488,3.86,162,162,160,2,10,1,45,1433.1,1357,674,615,153,490,30,1192,45,3,45,6097,97,3.93,1.289,8.5,1.0,3.1,7.5,2.43,1123
SDP,30,28.0,4.38,76,86,.469,4.01,162,162,158,4,11,3,43,1434.2,1356,710,640,162,539,48,1205,48,8,49,6151,90,4.11,1.321,8.5,1.0,3.4,7.6,2.24,1137
SEA,18,27.9,4.02,75,87,.463,3.76,162,162,154,8,11,6,43,1456.2,1359,651,608,166,449,39,1166,49,5,61,6062,102,4.00,1.241,8.4,1.0,2.8,7.2,2.60,1041
SFG,23,30.0,4.01,94,68,.580,3.68,162,162,157,5,14,4,53,1451.0,1361,649,593,142,489,42,1237,51,4,54,6138,96,3.78,1.275,8.4,0.9,3.0,7.7,2.53,1136
STL,24,28.6,4.00,88,74,.543,3.71,162,162,158,4,10,2,42,1462.2,1420,648,603,134,436,28,1218,50,4,46,6158,103,3.62,1.269,8.7,0.8,2.7,7.5,2.79,1122
TBR,18,28.1,3.56,90,72,.556,3.19,162,162,155,7,15,4,50,1459.2,1233,577,518,139,469,35,1383,54,4,59,6000,121,3.51,1.166,7.6,0.9,2.9,8.5,2.95,1044
TEX,21,28.8,4.36,93,69,.574,3.99,162,162,155,7,10,2,43,1442.0,1378,707,639,175,446,15,1286,41,8,53,6067,109,3.90,1.265,8.6,1.1,2.8,8.0,2.88,1034
TOR,34,27.8,4.84,73,89,.451,4.64,162,162,157,5,11,4,29,1443.2,1439,784,745,204,574,20,1142,55,7,56,6216,91,4.66,1.394,9.0,1.3,3.6,7.1,1.99,1101
WSN,19,27.0,3.67,98,64,.605,3.33,162,162,159,3,9,1,51,1468.1,1296,594,543,129,497,32,1325,47,4,62,6133,120,3.54,1.221,7.9,0.8,3.0,8.1,2.67,1134
LgAvg,22,28.4,4.32,81,81,.500,4.01,162,162,158,4,,,42,1445,1402,701,643,164,490,35,1214,50,6,51,6139,101,4.01,1.309,8.7,1.0,3.1,7.6,2.48,1103
Tm,#P,PAge,RA/G,W,L,W-L%,ERA,G,GS,GF,CG,tSho,cSho,SV,IP,H,R,ER,HR,BB,IBB,SO,HBP,BK,WP,BF,ERA+,FIP,WHIP,H9,HR9,BB9,SO9,SO/W,LOB
,662,28.4,4.32,2430,2430,.500,4.01,4860,4860,4732,128,,,1261,43355.1,42063,21017,19301,4934,14709,1055,36426,1494,165,1542,184179,101,4.01,1.309,8.7,1.0,3.1,7.6,2.48,33096