
Tm,#P,PAge,RA/G,W,L,W-L%,ERA,G,GS,GF,CG,tSho,cSho,SV,IP,H,R,ER,HR,BB,IBB,SO,HBP,BK,WP,BF,ERA+,FIP,WHIP,H9,HR9,BB9,SO9,SO/W,LOB
ARI,25,28.0,4.58,64,98,.395,4.26,162,162,160,2,4,1,35,1444.1,1467,742,683,154,469,43,1278,51,5,50,6162,88,3.83,1.340,9.1,1.0,2.9,8.0,2.72,1087
ATL,20,27.3,3.69,79,83,.488,3.38,162,162,157,5,13,2,54,1455.0,1369,597,547,121,472,36,1301,37,1,75,6087,106,3.47,1.265,8.5,0.7,2.9,8.0,2.76,1125
BAL,20,27.7,3.66,96,66,.593,3.43,162,162,159,3,13,2,53,1461.1,1342,593,557,151,472,25,1174,59,2,42,6104,115,3.96,1.241,8.3,0.9,2.9,7.2,2.49,1127
BOS,25,29.9,4.41,71,91,.438,4.01,162,162,159,3,7,2,36,1465.2,1458,715,653,154,482,19,1213,47,5,51,6231,100,3.93,1.324,9.0,0.9,3.0,7.4,2.52,1119
CHC,27,28.0,4.36,73,89,.451,3.91,162,162,161,1,11,1,37,1463.1,1398,707,636,115,504,37,1311,55,3,64,6208,97,3.51,1.300,8.6,0.7,3.1,8.1,2.60,1111
CHW,26,27.4,4.68,73,89,.451,4.29,162,162,159,3,6,0,36,1441.0,1468,758,687,140,557,42,1152,69,3,75,6255,88,4.09,1.405,9.2,0.9,3.5,7.2,2.07,1174
CIN,25,28.0,3.78,76,86,.469,3.59,162,162,157,5,13,3,44,1446.0,1282,612,576,163,507,33,1290,69,5,45,6067,103,4.01,1.237,8.0,1.0,3.2,8.0,2.54,1117
CLE,22,27.2,4.03,85,77,.525,3.56,162,162,156,6,15,4,40,1468.1,1398,653,581,135,464,51,1450,58,2,56,6193,110,3.42,1.268,8.6,0.8,2.8,8.9,3.13,1135
COL,26,28.5,5.05,66,96,.407,4.84,162,162,161,1,4,1,24,1431.0,1528,818,770,173,531,32,1074,54,8,72,6248,88,4.43,1.439,9.6,1.1,3.3,6.8,2.02,1137
DET,30,28.5,4.35,90,72,.556,4.01,162,162,157,5,8,4,41,1454.0,1475,705,648,127,462,34,1244,42,9,43,6191,97,3.60,1.332,9.1,0.8,2.9,7.7,2.69,1124
HOU,28,27.9,4.46,70,92,.432,4.11,162,162,155,7,3,2,31,1438.2,1437,723,657,139,484,32,1137,52,7,57,6154,94,3.93,1.335,9.0,0.9,3.0,7.1,2.35,1115
KCR,23,28.9,3.85,89,73,.549,3.51,162,162,159,3,14,2,53,1450.2,1386,624,565,128,440,14,1168,56,6,58,6101,113,3.69,1.259,8.6,0.8,2.7,7.2,2.65,1125
LAA,31,28.4,3.89,98,64,.605,3.58,162,162,159,3,13,2,46,1482.2,1307,630,590,126,504,41,1342,63,4,74,6179,101,3.57,1.221,7.9,0.8,3.1,8.1,2.66,1101
LAD,25,29.9,3.81,94,68,.580,3.40,162,162,155,7,16,3,47,1464.2,1338,617,554,142,429,35,1373,41,4,64,6075,103,3.48,1.206,8.2,0.9,2.6,8.4,3.20,1064
MIA,25,26.4,4.16,77,85,.475,3.78,162,162,159,3,16,3,42,1457.2,1481,674,613,114,458,35,1190,49,4,56,6217,98,3.56,1.330,9.1,0.7,2.8,7.3,2.60,1170
MIL,21,29.0,4.06,82,80,.506,3.67,162,162,159,3,9,3,45,1457.2,1386,657,594,167,431,20,1246,42,2,44,6106,103,3.89,1.247,8.6,1.0,2.7,7.7,2.89,1076
MIN,23,29.2,4.80,70,92,.432,4.57,162,162,160,2,7,0,38,1435.0,1588,777,728,147,408,24,1031,45,6,50,6212,86,3.97,1.391,10.0,0.9,2.6,6.5,2.53,1130
NYM,22,28.9,3.81,79,83,.488,3.49,162,162,161,1,11,1,42,1463.2,1370,618,568,141,509,38,1303,50,1,56,6170,99,3.75,1.284,8.4,0.9,3.1,8.0,2.56,1161
NYY,33,29.3,4.10,84,78,.519,3.75,162,162,157,5,10,2,48,1453.0,1392,664,605,164,398,23,1370,65,6,49,6114,103,3.67,1.232,8.6,1.0,2.5,8.5,3.44,1091
OAK,22,28.2,3.53,88,74,.543,3.22,162,162,155,7,13,3,31,1463.1,1269,572,524,147,406,28,1244,48,1,59,5972,116,3.67,1.145,7.8,0.9,2.5,7.7,3.06,1010
PHI,26,30.1,4.24,73,89,.451,3.79,162,162,160,2,12,0,40,1468.1,1396,687,619,134,521,43,1255,69,1,49,6261,99,3.81,1.306,8.6,0.8,3.2,7.7,2.41,1169
PIT,23,28.1,3.90,88,74,.543,3.47,162,162,160,2,7,1,48,1456.1,1341,631,562,128,499,43,1228,88,3,71,6130,103,3.80,1.263,8.3,0.8,3.1,7.6,2.46,1130
SDP,24,28.8,3.56,77,85,.475,3.27,162,162,158,4,10,3,41,1438.2,1300,577,523,117,462,32,1284,46,4,57,6006,104,3.46,1.225,8.1,0.7,2.9,8.0,2.78,1113
SEA,20,29.0,3.42,87,75,.537,3.17,162,162,160,2,9,1,51,1452.0,1240,554,512,137,463,36,1317,52,8,80,5974,115,3.61,1.173,7.7,0.8,2.9,8.2,2.84,1064
SFG,21,31.7,3.79,88,74,.543,3.50,162,162,154,8,12,3,46,1449.0,1305,614,564,133,389,35,1211,57,6,49,5947,99,3.58,1.169,8.1,0.8,2.4,7.5,3.11,986
STL,24,27.2,3.72,90,72,.556,3.50,162,162,154,8,23,5,55,1448.2,1321,603,564,123,470,35,1221,61,5,44,6069,104,3.65,1.236,8.2,0.8,2.9,7.6,2.60,1120
TBR,23,28.4,3.86,77,85,.475,3.56,162,162,159,3,22,1,37,1463.2,1292,625,579,145,482,27,1437,58,3,65,6131,105,3.56,1.212,7.9,0.9,3.0,8.8,2.98,1115
TEX,40,27.9,4.77,67,95,.414,4.49,162,162,156,6,17,4,33,1426.1,1510,773,711,160,505,43,1110,61,7,61,6195,89,4.22,1.413,9.5,1.0,3.2,7.0,2.20,1143
TOR,27,29.6,4.23,83,79,.512,4.00,162,162,159,3,16,2,45,1443.0,1400,686,642,151,490,23,1199,57,5,43,6150,95,3.97,1.310,8.7,0.9,3.1,7.5,2.45,1135
WSN,18,28.3,3.43,96,66,.593,3.03,162,162,157,5,19,4,45,1470.2,1351,555,495,110,352,26,1288,51,2,37,6020,124,3.17,1.158,8.3,0.7,2.2,7.9,3.66,1053
LgAvg,23,28.5,4.07,81,81,.500,3.74,162,162,158,4,,,42,1454,1387,659,604,140,467,33,1248,55,4,57,6131,101,3.74,1.275,8.6,0.9,2.9,7.7,2.67,1111
Tm,#P,PAge,RA/G,W,L,W-L%,ERA,G,GS,GF,CG,tSho,cSho,SV,IP,H,R,ER,HR,BB,IBB,SO,HBP,BK,WP,BF,ERA+,FIP,WHIP,H9,HR9,BB9,SO9,SO/W,LOB
,692,28.5,4.07,2430,2430,.500,3.74,4860,4860,4742,118,,,1264,43613.2,41595,19761,18107,4186,14020,985,37441,1652,128,1696,183929,101,3.74,1.275,8.6,0.9,2.9,7.7,2.67,33327