
Rk,Name,Age,Tm,Lg,G,GS,CG,Inn,Ch,PO,A,E,DP,Fld%,Rtot,Rtot/yr,RF/9,RF/G,Pos Summary
1,Andy Abad,28,OAK,AL,1,0,0,1.0,2,2,0,0,1,1.000,0,0,18.00,2.00,1B
2,Jeff Abbott,28,FLA,NL,17,8,8,85.2,27,26,0,1,0,.963,0,6,2.73,1.53,OF
3,Kurt Abbott,32,ATL,NL,2,1,0,10.0,10,2,8,0,0,1.000,2,204,9.00,5.00,2B-SS
4,Paul Abbott,33,SEA,AL,28,27,1,163.0,29,16,13,0,3,1.000,,,1.60,1.04,P
5,Brent Abernathy,23,TBD,AL,79,78,76,680.2,366,150,209,7,56,.981,-1,-2,4.75,4.54,2B
6,Bobby Abreu,27,PHI,NL,162,159,154,1411.1,327,308,11,8,4,.976,1,1,2.03,1.97,OF
7,Jose Acevedo,23,CIN,NL,18,18,0,96.0,14,4,10,0,1,1.000,,,1.31,0.78,P
8,Juan Acevedo,31,TOT,NL,59,0,0,60.1,11,4,6,1,1,.909,,,1.49,0.17,P
9,Terry Adams,28,LAD,NL,43,22,0,166.1,45,13,31,1,2,.978,,,2.38,1.02,P
10,Benny Agbayani,29,NYM,NL,84,82,39,631.2,130,123,1,6,0,.954,-12,-23,1.77,1.48,OF
11,Kurt Ainsworth,22,SFG,NL,2,0,0,2.0,0,0,0,0,0,,,,0.00,0.00,P
12,Israel Alcantara,28,BOS,AL,12,9,5,76.0,30,25,3,2,1,.933,-2,-27,3.32,2.33,OF-1B
13,Cory Aldridge,22,ATL,NL,4,1,1,12.0,2,2,0,0,0,1.000,-0,-20,1.50,0.50,OF
14,Antonio Alfonseca,29,FLA,NL,58,0,0,61.2,14,6,8,0,1,1.000,,,2.04,0.24,P
15,Edgardo Alfonzo,27,NYM,NL,122,119,103,1026.1,519,211,301,7,61,.987,0,1,4.49,4.20,2B
16,Luis Alicea,35,KCR,AL,85,73,64,658.1,349,117,218,14,50,.960,-1,-1,4.58,3.94,2B-3B
17,Chad Allen,26,MIN,AL,27,26,17,228.2,62,57,3,2,0,.968,-2,-12,2.36,2.22,OF
18,Armando Almanza,28,FLA,NL,52,0,0,41.0,3,0,3,0,0,1.000,,,0.66,0.06,P
19,Carlos Almanzar,27,NYY,AL,10,0,0,10.2,3,1,2,0,0,1.000,,,2.53,0.30,P
20,Erick Almonte,23,NYY,AL,4,0,0,10.0,8,4,3,1,1,.875,-0,-36,6.30,1.75,SS
21,Roberto Alomar,33,CLE,AL,157,156,130,1324.0,696,268,423,5,88,.993,-4,-4,4.70,4.40,2B
22,Sandy Alomar,35,CHW,AL,69,63,55,545.0,390,367,19,4,5,.990,1,2,6.37,5.59,C
23,Moises Alou,34,HOU,NL,130,130,97,1116.2,217,205,10,2,3,.991,-4,-4,1.73,1.65,OF
24,Brady Anderson,37,BAL,AL,120,108,98,968.1,250,239,8,3,4,.988,2,2,2.30,2.06,OF
25,Brian Anderson,29,ARI,NL,29,22,1,133.1,43,9,32,2,2,.953,,,2.77,1.41,P
Rk,Name,Age,Tm,Lg,G,GS,CG,Inn,Ch,PO,A,E,DP,Fld%,Rtot,Rtot/yr,RF/9,RF/G,Pos Summary
26,Garret Anderson,29,ANA,AL,149,149,135,1307.2,324,313,9,2,2,.994,6,6,2.22,2.16,OF
27,Jimmy Anderson,25,PIT,NL,34,34,1,206.1,48,8,37,3,0,.938,,,1.96,1.32,P
28,Marlon Anderson,27,PHI,NL,140,138,123,1210.2,669,270,387,12,86,.982,9,9,4.88,4.69,2B
29,Matt Anderson,24,DET,AL,62,0,0,56.0,14,9,5,0,0,1.000,,,2.25,0.23,P
30,Rick Ankiel,21,STL,NL,6,6,0,24.0,3,0,3,0,0,1.000,,,1.12,0.50,P
31,Kevin Appier,33,NYM,NL,33,33,1,206.2,34,11,21,2,2,.941,,,1.39,0.97,P
32,Alex Arias,33,SDP,NL,61,31,17,316.2,198,132,61,5,13,.975,-2,-6,5.49,3.16,1B-2B-SS-3B
33,Tony Armas,23,MON,NL,34,34,0,196.2,37,14,20,3,1,.919,,,1.56,1.00,P
34,Rolando Arrojo,32,BOS,AL,41,9,0,103.1,29,12,17,0,3,1.000,,,2.53,0.71,P
35,Bronson Arroyo,24,PIT,NL,24,13,1,88.1,20,3,15,2,1,.900,,,1.83,0.75,P
36,Andy Ashby,33,LAD,NL,2,2,0,11.2,1,0,1,0,0,1.000,,,0.77,0.50,P
37,Pedro Astacio,32,TOT,NL,26,26,4,169.2,36,10,25,1,1,.972,,,1.86,1.35,P
38,Justin Atchley,27,CIN,NL,15,0,0,10.1,0,0,0,0,0,,,,0.00,0.00,P
39,Rich Aurilia,29,SFG,NL,149,146,132,1313.0,686,246,423,17,108,.975,4,4,4.59,4.49,SS
40,Brad Ausmus,32,HOU,NL,127,120,107,1056.2,1013,948,62,3,9,.997,12,14,8.60,7.95,C
41,Jeff Austin,24,KCR,AL,21,0,0,26.0,6,2,2,2,0,.667,,,1.38,0.19,P
42,Bruce Aven,29,LAD,NL,9,1,1,30.0,5,5,0,0,0,1.000,-1,-40,1.50,0.56,OF
43,Manny Aybar,29,CHC,NL,17,1,0,22.2,5,2,2,1,0,.800,,,1.59,0.24,P
44,Mike Bacsik,23,CLE,AL,3,0,0,9.0,1,0,1,0,0,1.000,,,1.00,0.33,P
45,Benito Baez,24,FLA,NL,8,0,0,9.1,1,0,1,0,0,1.000,,,0.96,0.13,P
46,Danys Baez,23,CLE,AL,43,0,0,50.1,8,4,3,1,0,.875,,,1.25,0.16,P
47,Jeff Bagwell,33,HOU,NL,160,159,149,1414.2,1446,1291,143,12,123,.992,1,1,9.12,8.96,1B
48,Cory Bailey,30,KCR,AL,53,0,0,67.1,11,4,6,1,1,.909,,,1.34,0.19,P
49,Paul Bako,29,ATL,NL,60,45,32,397.1,351,319,29,3,1,.991,0,0,7.88,5.80,C
50,James Baldwin,29,TOT,ZZ,29,28,2,175.0,38,12,25,1,4,.974,,,1.90,1.28,P
Rk,Name,Age,Tm,Lg,G,GS,CG,Inn,Ch,PO,A,E,DP,Fld%,Rtot,Rtot/yr,RF/9,RF/G,Pos Summary
51,John Bale,27,BAL,AL,14,0,0,26.2,3,1,2,0,0,1.000,,,1.01,0.21,P
52,Grant Balfour,23,MIN,AL,2,0,0,2.2,1,0,1,0,0,1.000,,,3.38,0.50,P
53,Willie Banks,32,BOS,AL,5,0,0,10.2,0,0,0,0,0,,,,0.00,0.00,P
54,Rod Barajas,25,ARI,NL,50,31,20,278.1,191,179,11,1,3,.995,-2,-9,6.14,3.80,C
55,Lorenzo Barcelo,23,CHW,AL,17,0,0,21.0,5,3,2,0,0,1.000,,,2.14,0.29,P
56,Glen Barker,30,HOU,NL,60,5,3,120.0,36,36,0,0,0,1.000,2,15,2.70,0.60,OF
57,Andy Barkett,26,PIT,NL,14,11,8,95.2,54,50,4,0,2,1.000,1,8,5.08,3.86,OF-1B
58,John Barnes,25,MIN,AL,9,6,6,58.0,19,16,1,2,0,.895,1,21,2.64,1.89,OF
59,Larry Barnes,26,ANA,AL,17,10,7,103.0,93,86,7,0,5,1.000,1,7,8.13,5.47,1B-OF
60,Michael Barrett,24,MON,NL,131,129,120,1126.0,937,880,50,7,6,.993,-13,-14,7.43,7.10,C
61,Kimera Bartee,28,COL,NL,10,3,1,39.2,9,8,0,1,0,.889,0,15,1.82,0.80,OF
62,Miguel Batista,30,ARI,NL,48,18,0,139.1,25,7,17,1,1,.960,,,1.55,0.50,P
63,Tony Batista,27,TOT,AL,121,116,113,1043.0,384,107,261,16,37,.958,12,14,3.18,3.04,3B-SS
64,Rick Bauer,24,BAL,AL,6,6,0,33.0,4,1,2,1,1,.750,,,0.82,0.50,P
65,Danny Bautista,29,ARI,NL,61,42,30,412.2,106,102,4,0,2,1.000,4,13,2.31,1.74,OF
66,Rod Beck,32,BOS,AL,68,0,0,80.2,19,3,16,0,2,1.000,,,2.12,0.28,P
67,Josh Beckett,21,FLA,NL,4,4,0,24.0,6,0,6,0,0,1.000,,,2.25,1.50,P
68,Joe Beimel,24,PIT,NL,42,15,0,115.1,22,3,17,2,0,.909,,,1.56,0.48,P
69,Kevin Beirne,27,TOR,AL,5,0,0,7.0,4,1,3,0,0,1.000,,,5.14,0.80,P
70,Todd Belitz,25,COL,NL,8,0,0,9.1,1,0,1,0,0,1.000,,,0.96,0.13,P
71,David Bell,28,SEA,AL,136,121,116,1136.0,369,98,257,14,22,.962,19,20,2.81,2.61,3B-1B
72,Derek Bell,32,PIT,NL,46,42,36,371.1,82,78,3,1,1,.988,-0,-1,1.96,1.76,OF
73,Jay Bell,35,ARI,NL,120,111,87,967.1,406,175,224,7,46,.983,-4,-4,3.71,3.33,2B-3B
74,Rob Bell,24,TOT,ZZ,27,27,0,149.2,23,8,15,0,3,1.000,,,1.38,0.85,P
75,Mark Bellhorn,26,OAK,AL,27,16,13,169.0,73,21,47,5,4,.932,-2,-14,3.62,2.52,2B-3B-SS-OF
Rk,Name,Age,Tm,Lg,G,GS,CG,Inn,Ch,PO,A,E,DP,Fld%,Rtot,Rtot/yr,RF/9,RF/G,Pos Summary
76,Ronnie Belliard,26,MIL,NL,96,93,90,826.2,508,213,290,5,66,.990,14,20,5.48,5.24,2B
77,Clay Bellinger,32,NYY,AL,50,22,9,237.2,82,45,34,3,8,.963,0,0,2.99,1.58,3B-OF-1B-SS
78,Carlos Beltran,24,KCR,AL,152,152,145,1324.0,423,404,14,5,6,.988,5,5,2.84,2.75,OF
79,Adrian Beltre,22,LAD,NL,126,122,115,1089.0,337,103,218,16,18,.953,-4,-4,2.65,2.55,3B-SS
80,Marvin Benard,30,SFG,NL,109,85,54,781.0,226,213,5,8,2,.965,-2,-3,2.51,2.00,OF
81,Alan Benes,29,STL,NL,9,1,0,14.2,1,1,0,0,0,1.000,,,0.61,0.11,P
82,Andy Benes,33,STL,NL,27,19,0,107.1,16,7,9,0,1,1.000,,,1.34,0.59,P
83,Armando Benitez,28,NYM,NL,73,0,0,76.1,8,4,4,0,0,1.000,,,0.94,0.11,P
84,Gary Bennett,29,TOT,NL,43,36,27,328.0,258,247,9,2,3,.992,-1,-4,7.02,5.95,C
85,Joaquin Benoit,23,TEX,AL,1,1,0,5.0,0,0,0,0,0,,,,0.00,0.00,P
86,Jason Bere,30,CHC,NL,32,32,2,188.0,28,12,15,1,0,.964,,,1.29,0.84,P
87,Dave Berg,30,FLA,NL,69,46,41,447.1,204,66,130,8,26,.961,-1,-3,3.94,2.84,2B-SS-3B
88,Brandon Berger,26,KCR,AL,5,5,4,41.0,7,7,0,0,0,1.000,-0,-6,1.54,1.40,OF
89,Peter Bergeron,23,MON,NL,101,97,90,846.2,227,220,6,1,1,.996,-7,-10,2.40,2.24,OF
90,Lance Berkman,25,HOU,NL,155,153,126,1368.0,318,306,6,6,1,.981,-3,-2,2.05,2.01,OF
91,Adam Bernero,24,DET,AL,5,0,0,12.1,4,3,1,0,0,1.000,,,2.92,0.80,P
92,Angel Berroa,23,KCR,AL,14,12,12,112.2,64,21,40,3,9,.953,1,11,4.87,4.36,SS
93,Wilson Betemit,19,ATL,NL,1,0,0,1.0,0,0,0,0,0,,0,0,0.00,0.00,SS
94,Dante Bichette,37,BOS,AL,53,52,32,427.2,88,80,4,4,1,.955,-3,-9,1.77,1.58,OF
95,Rocky Biddle,25,CHW,AL,30,21,0,128.2,22,6,15,1,0,.955,,,1.47,0.70,P
96,Nick Bierbrodt,23,TOT,ZZ,16,16,0,84.1,16,2,14,0,1,1.000,,,1.71,1.00,P
97,Larry Bigbie,23,BAL,AL,40,33,28,304.2,73,71,2,0,1,1.000,-1,-4,2.16,1.83,OF
98,Craig Biggio,35,HOU,NL,154,152,139,1344.2,680,280,389,11,86,.984,-11,-9,4.48,4.34,2B
99,Willie Blair,35,DET,AL,9,4,0,24.0,6,3,3,0,0,1.000,,,2.25,0.67,P
100,Casey Blake,27,TOT,AL,13,6,5,71.0,52,45,5,2,4,.962,-1,-15,6.34,3.85,1B-3B
Rk,Name,Age,Tm,Lg,G,GS,CG,Inn,Ch,PO,A,E,DP,Fld%,Rtot,Rtot/yr,RF/9,RF/G,Pos Summary
101,Henry Blanco,29,MIL,NL,102,94,81,837.1,719,645,68,6,9,.992,5,7,7.66,6.99,C
102,Matt Blank,25,MON,NL,5,4,0,22.2,8,1,7,0,0,1.000,,,3.18,1.60,P
103,Geoff Blum,28,MON,NL,150,120,98,1076.0,403,215,180,8,27,.980,-5,-5,3.30,2.63,3B-OF-2B-1B-SS
104,Hiram Bocachica,25,LAD,NL,40,24,12,216.0,86,32,47,7,8,.919,-3,-14,3.29,1.98,2B-3B-OF
105,Brian Boehringer,32,TOT,ZZ,51,0,0,69.0,3,1,2,0,0,1.000,,,0.39,0.06,P
106,Tim Bogar,34,LAD,NL,6,2,0,24.0,12,10,2,0,1,1.000,-0,-15,4.50,2.00,SS-1B-3B
107,Brian Bohanon,32,COL,NL,20,19,0,97.0,17,5,12,0,0,1.000,,,1.58,0.85,P
108,Barry Bonds,36,SFG,NL,143,141,115,1231.2,260,246,8,6,1,.977,-5,-4,1.86,1.78,OF
109,Ricky Bones,32,FLA,NL,61,0,0,64.0,21,4,16,1,3,.952,,,2.81,0.33,P
110,Bobby Bonilla,38,STL,NL,44,31,20,271.1,252,239,11,2,27,.992,-2,-11,8.29,5.68,1B-OF-P
111,Aaron Boone,28,CIN,NL,103,101,95,884.2,298,72,207,19,17,.936,-6,-7,2.84,2.71,3B
112,Bret Boone,32,SEA,AL,156,152,148,1370.0,705,286,409,10,90,.986,12,10,4.57,4.46,2B
113,Pedro Borbon,33,TOR,AL,71,0,0,53.1,9,3,6,0,0,1.000,,,1.52,0.13,P
114,Pat Borders,38,SEA,AL,5,1,1,19.0,13,10,2,1,0,.923,0,0,5.68,2.40,C
115,Mike Bordick,35,BAL,AL,58,58,56,508.2,259,107,146,6,28,.977,-4,-9,4.48,4.36,SS
116,Dave Borkowski,24,DET,AL,15,0,0,29.2,6,1,4,1,1,.833,,,1.52,0.33,P
117,Toby Borland,32,ANA,AL,2,0,0,3.1,2,1,1,0,0,1.000,,,5.40,1.00,P
118,Joe Borowski,30,CHC,NL,1,1,0,1.2,0,0,0,0,0,,,,0.00,0.00,P
119,Ricky Bottalico,31,PHI,NL,66,0,0,67.0,14,3,10,1,0,.929,,,1.75,0.20,P
120,Kent Bottenfield,32,HOU,NL,13,9,0,52.0,5,0,5,0,0,1.000,,,0.87,0.38,P
121,Brian Bowles,24,TOR,AL,2,0,0,3.2,0,0,0,0,0,,,,0.00,0.00,P
122,Chad Bradford,26,OAK,AL,35,0,0,36.2,8,0,8,0,0,1.000,,,1.96,0.23,P
123,Milton Bradley,23,TOT,ZZ,74,64,59,575.2,176,167,6,3,1,.983,4,8,2.70,2.34,OF
124,Darren Bragg,31,TOT,ZZ,19,13,9,127.2,24,23,1,0,0,1.000,-0,-3,1.69,1.26,OF
125,Jeff Branson,34,LAD,NL,9,3,3,36.2,18,7,10,1,2,.944,-0,-13,4.17,1.89,2B-SS-3B
Rk,Name,Age,Tm,Lg,G,GS,CG,Inn,Ch,PO,A,E,DP,Fld%,Rtot,Rtot/yr,RF/9,RF/G,Pos Summary
126,Jeff Brantley,37,TEX,AL,18,0,0,21.0,0,0,0,0,0,,,,0.00,0.00,P
127,Russell Branyan,25,CLE,AL,105,81,50,723.2,203,78,111,14,8,.931,-9,-14,2.35,1.80,3B-OF
128,Leslie Brea,27,BAL,AL,2,0,0,2.0,0,0,0,0,0,,,,0.00,0.00,P
129,Chris Brock,31,PHI,NL,24,0,0,32.2,7,3,3,1,0,.857,,,1.65,0.25,P
130,Rico Brogna,31,ATL,NL,67,54,45,489.1,476,431,42,3,30,.994,0,1,8.70,7.06,1B
131,Troy Brohawn,28,ARI,NL,59,0,0,49.1,10,2,8,0,1,1.000,,,1.82,0.17,P
132,Scott Brosius,34,NYY,AL,122,120,114,1080.2,342,82,238,22,21,.936,-1,-1,2.67,2.62,3B-OF
133,Jim Brower,28,CIN,NL,46,10,0,129.1,41,10,29,2,2,.951,,,2.71,0.85,P
134,Adrian Brown,27,PIT,NL,7,7,7,61.0,18,18,0,0,0,1.000,0,10,2.66,2.57,OF
135,Dee Brown,23,KCR,AL,83,79,75,701.0,164,159,3,2,1,.988,3,5,2.08,1.95,OF
136,Emil Brown,26,TOT,NL,65,30,23,323.2,93,88,4,1,1,.989,2,6,2.56,1.42,OF
137,Kevin Brown,36,LAD,NL,20,19,1,115.2,34,10,22,2,1,.941,,,2.49,1.60,P
138,Kevin Brown,28,MIL,NL,16,11,8,96.1,74,68,6,0,0,1.000,-2,-25,6.91,4.63,C
139,Roosevelt Brown,25,CHC,NL,22,14,3,128.2,21,20,0,1,0,.952,-0,-2,1.40,0.91,OF
140,Cliff Brumbaugh,27,TOT,ZZ,17,12,8,101.0,21,21,0,0,0,1.000,-2,-27,1.87,1.24,OF
141,Brian Buchanan,27,MIN,AL,46,36,18,290.0,73,70,1,2,0,.973,-2,-8,2.20,1.54,OF
142,Mike Buddie,30,MIL,NL,31,0,0,41.2,17,4,13,0,1,1.000,,,3.67,0.55,P
143,Mark Buehrle,22,CHW,AL,32,32,4,221.1,63,11,49,3,5,.952,,,2.44,1.88,P
144,Damon Buford,31,CHC,NL,34,23,16,208.1,53,53,0,0,0,1.000,0,2,2.29,1.56,OF
145,Jay Buhner,36,SEA,AL,12,10,2,73.0,15,15,0,0,0,1.000,-0,-8,1.85,1.25,OF
146,Dave Burba,34,CLE,AL,32,27,1,150.2,35,17,18,0,1,1.000,,,2.09,1.09,P
147,Jamie Burke,29,ANA,AL,9,0,0,11.1,13,12,1,0,0,1.000,0,21,10.32,1.44,C-1B
148,John Burkett,36,ATL,NL,34,34,1,219.1,41,15,26,0,1,1.000,,,1.68,1.21,P
149,Morgan Burkhart,29,BOS,AL,5,4,4,36.0,31,29,2,0,4,1.000,-1,-33,7.75,6.20,1B
150,Ellis Burks,36,CLE,AL,20,19,12,144.2,27,25,2,0,0,1.000,-3,-27,1.68,1.35,OF
Rk,Name,Age,Tm,Lg,G,GS,CG,Inn,Ch,PO,A,E,DP,Fld%,Rtot,Rtot/yr,RF/9,RF/G,Pos Summary
151,A.J. Burnett,24,FLA,NL,27,27,2,173.1,40,11,27,2,0,.950,,,1.97,1.41,P
152,Jeromy Burnitz,32,MIL,NL,153,152,144,1333.1,314,295,13,6,4,.981,5,4,2.08,2.01,OF
153,Pat Burrell,24,PHI,NL,146,143,132,1250.2,251,226,18,7,2,.972,-10,-9,1.76,1.67,OF
154,Homer Bush,28,TOR,AL,78,76,68,660.2,411,153,254,4,68,.990,2,4,5.54,5.22,2B
155,Brent Butler,23,COL,NL,42,26,20,250.2,126,53,68,5,18,.960,0,1,4.34,2.88,2B-SS-3B
156,Paul Byrd,30,TOT,ZZ,19,16,1,103.1,25,8,16,1,0,.960,,,2.09,1.26,P
157,Eric Byrnes,25,OAK,AL,12,8,2,80.0,15,14,0,1,0,.933,0,2,1.58,1.17,OF
158,Jolbert Cabrera,28,CLE,AL,152,57,37,687.0,225,130,89,6,12,.973,-1,-2,2.87,1.44,OF-3B-2B-SS
159,Jose Cabrera,29,ATL,NL,55,0,0,59.1,10,2,7,1,1,.900,,,1.37,0.16,P
160,Orlando Cabrera,26,MON,NL,162,160,154,1406.2,771,246,514,11,106,.986,13,11,4.86,4.69,SS
161,Miguel Cairo,27,TOT,NL,68,31,20,321.0,98,34,56,8,10,.918,-4,-14,2.52,1.32,3B-2B-OF-SS-1B
162,Mickey Callaway,26,TBD,AL,2,0,0,5.0,0,0,0,0,0,,,,0.00,0.00,P
163,Mike Cameron,28,SEA,AL,149,140,132,1272.1,424,410,8,6,2,.986,11,10,2.96,2.81,OF
164,Ken Caminiti,38,TOT,MLB,99,96,70,791.1,440,291,132,17,32,.961,-10,-15,4.81,4.27,3B-1B
165,Jose Canseco,36,CHW,AL,2,2,0,13.0,1,1,0,0,0,1.000,-0,-28,0.69,0.50,OF
166,Javier Cardona,25,DET,AL,44,30,21,270.1,150,132,15,3,1,.980,2,9,4.89,3.34,C
167,Chris Carpenter,26,TOR,AL,34,34,3,215.2,36,11,25,0,6,1.000,,,1.50,1.06,P
168,Giovanni Carrara,33,LAD,NL,47,3,0,85.1,15,5,10,0,1,1.000,,,1.58,0.32,P
169,Hector Carrasco,31,MIN,AL,56,0,0,73.2,6,0,5,1,0,.833,,,0.61,0.09,P
170,Raul Casanova,28,MIL,NL,56,48,41,420.2,333,305,25,3,6,.991,-4,-11,7.06,5.89,C
171,Sean Casey,26,CIN,NL,136,134,108,1127.0,1215,1146,62,7,89,.994,-4,-4,9.65,8.88,1B
172,Vinny Castilla,33,TOT,MLB,148,143,132,1266.2,402,109,276,17,23,.958,7,6,2.74,2.60,3B-SS
173,Alberto Castillo,31,TOR,AL,66,44,28,404.2,353,324,25,4,0,.989,3,9,7.76,5.29,C
174,Carlos Castillo,26,BOS,AL,2,0,0,3.0,1,1,0,0,0,1.000,,,3.00,0.50,P
175,Frank Castillo,32,BOS,AL,26,26,0,136.2,32,16,16,0,1,1.000,,,2.11,1.23,P
Rk,Name,Age,Tm,Lg,G,GS,CG,Inn,Ch,PO,A,E,DP,Fld%,Rtot,Rtot/yr,RF/9,RF/G,Pos Summary
176,Luis Castillo,25,FLA,NL,133,131,126,1157.0,660,260,387,13,99,.980,1,1,5.03,4.86,2B
177,Juan Castro,29,CIN,NL,103,57,37,580.1,267,96,163,8,27,.970,-7,-15,4.02,2.51,SS-2B-3B-1B
178,Ramon Castro,25,FLA,NL,3,1,1,15.1,11,10,1,0,0,1.000,0,0,6.46,3.67,C
179,Frank Catalanotto,27,TEX,AL,121,103,77,909.1,265,217,44,4,8,.985,5,6,2.58,2.16,OF-2B-3B-1B
180,Roger Cedeno,26,DET,AL,120,120,104,1020.2,253,236,5,12,1,.953,-23,-28,2.13,2.01,OF
181,Shawn Chacon,23,COL,NL,27,27,0,160.0,24,8,16,0,0,1.000,,,1.35,0.89,P
182,Norm Charlton,38,SEA,AL,44,0,0,47.2,12,6,6,0,0,1.000,,,2.27,0.27,P
183,Endy Chavez,23,KCR,AL,28,16,16,170.1,42,40,2,0,0,1.000,-1,-5,2.22,1.50,OF
184,Eric Chavez,23,OAK,AL,151,146,138,1302.2,433,100,321,12,27,.972,12,11,2.91,2.79,3B-SS-1B
185,Bruce Chen,24,TOT,NL,27,27,0,146.0,26,4,21,1,1,.962,,,1.54,0.93,P
186,Scott Chiasson,23,CHC,NL,6,0,0,6.2,3,1,2,0,0,1.000,,,4.05,0.50,P
187,Randy Choate,25,NYY,AL,37,0,0,48.1,13,2,11,0,1,1.000,,,2.42,0.35,P
188,Bobby Chouinard,29,COL,NL,8,0,0,7.2,2,1,1,0,0,1.000,,,2.35,0.25,P
189,McKay Christensen,25,TOT,ZZ,20,11,9,112.1,26,24,0,2,0,.923,-1,-13,1.92,1.20,OF
190,Ryan Christenson,27,TOT,ZZ,9,0,0,14.1,2,2,0,0,0,1.000,-0,-17,1.26,0.22,OF
191,Jason Christiansen,31,TOT,NL,55,0,0,36.1,6,1,5,0,0,1.000,,,1.49,0.11,P
192,Tim Christman,26,COL,NL,1,0,0,2.0,0,0,0,0,0,,,,0.00,0.00,P
193,Alex Cintron,22,ARI,NL,7,0,0,15.2,8,2,6,0,0,1.000,1,46,4.60,1.14,SS
194,Jeff Cirillo,31,COL,NL,137,137,126,1165.0,393,78,308,7,25,.982,20,21,2.98,2.82,3B
195,Stubby Clapp,28,STL,NL,8,2,0,26.2,10,4,6,0,0,1.000,1,45,3.38,1.25,OF-2B
196,Brady Clark,28,CIN,NL,43,18,14,213.1,53,52,0,1,0,.981,-3,-16,2.19,1.21,OF
197,Tony Clark,29,DET,AL,78,75,46,611.2,698,647,48,3,69,.996,-5,-11,10.23,8.91,1B
198,Royce Clayton,31,CHW,AL,133,126,117,1117.1,570,196,367,7,74,.988,6,7,4.53,4.23,SS
199,Roger Clemens,38,NYY,AL,33,33,0,220.1,46,11,33,2,3,.957,,,1.80,1.33,P
200,Matt Clement,26,FLA,NL,31,31,0,169.1,35,14,20,1,1,.971,,,1.81,1.10,P
Rk,Name,Age,Tm,Lg,G,GS,CG,Inn,Ch,PO,A,E,DP,Fld%,Rtot,Rtot/yr,RF/9,RF/G,Pos Summary
201,Pasqual Coco,23,TOR,AL,7,1,0,14.1,4,1,3,0,0,1.000,,,2.51,0.57,P
202,Tony Cogan,24,KCR,AL,39,0,0,24.2,6,3,3,0,1,1.000,,,2.19,0.15,P
203,Dave Coggin,24,PHI,NL,17,17,0,95.0,21,9,12,0,0,1.000,,,1.99,1.24,P
204,Mike Colangelo,24,SDP,NL,40,16,11,192.1,47,45,1,1,0,.979,-6,-36,2.15,1.15,OF
205,Greg Colbrunn,31,ARI,NL,24,17,5,145.0,93,73,17,3,8,.968,-2,-15,5.59,3.75,1B-3B
206,Michael Coleman,25,NYY,AL,9,7,4,61.0,8,8,0,0,0,1.000,-2,-39,1.18,0.89,OF
207,Lou Collier,27,MIL,NL,39,28,19,258.0,77,48,25,4,2,.948,-0,-1,2.55,1.87,OF-3B
208,Jesus Colome,23,TBD,AL,30,0,0,48.2,6,4,1,1,0,.833,,,0.92,0.17,P
209,Bartolo Colon,28,CLE,AL,34,34,1,222.1,40,12,27,1,4,.975,,,1.58,1.15,P
210,David Cone,38,BOS,AL,25,25,0,135.2,25,14,9,2,0,.920,,,1.53,0.92,P
211,Jeff Conine,35,BAL,AL,133,126,111,1103.2,821,746,71,4,61,.995,-2,-2,6.66,6.14,1B-OF-3B
212,Jason Conti,26,ARI,NL,1,0,0,2.0,0,0,0,0,0,,0,0,0.00,0.00,OF
213,Dennis Cook,38,TOT,NL,62,0,0,45.2,6,2,3,1,0,.833,,,0.99,0.08,P
214,Mike Coolbaugh,29,MIL,NL,30,14,9,143.2,42,13,28,1,6,.976,-1,-5,2.57,1.37,3B-SS
215,Ron Coomer,34,CHC,NL,112,86,42,714.0,300,179,114,7,30,.977,-5,-9,3.69,2.62,3B-1B
216,Brian Cooper,26,ANA,AL,7,1,0,13.2,2,2,0,0,0,1.000,,,1.32,0.29,P
217,Rocky Coppinger,27,MIL,NL,8,3,0,22.2,3,1,1,1,1,.667,,,0.79,0.25,P
218,Alex Cora,25,LAD,NL,133,120,104,1070.2,528,179,329,20,63,.962,1,2,4.27,3.82,SS-2B
219,Francisco Cordero,26,TEX,AL,3,0,0,2.1,0,0,0,0,0,,,,0.00,0.00,P
220,Wil Cordero,29,CLE,AL,73,57,44,525.1,238,225,11,2,17,.992,-3,-7,4.04,3.23,OF-1B
221,Marty Cordova,31,CLE,AL,106,97,63,843.0,210,200,8,2,1,.990,3,5,2.22,1.96,OF
222,Mark Corey,26,NYM,NL,2,0,0,1.2,0,0,0,0,0,,,,0.00,0.00,P
223,Rheal Cormier,34,PHI,NL,60,0,0,51.1,17,6,10,1,2,.941,,,2.81,0.27,P
224,Nate Cornejo,21,DET,AL,10,10,0,42.2,8,3,5,0,1,1.000,,,1.69,0.80,P
225,Humberto Cota,22,PIT,NL,3,1,1,10.0,11,11,0,0,0,1.000,0,0,9.90,3.67,C
Rk,Name,Age,Tm,Lg,G,GS,CG,Inn,Ch,PO,A,E,DP,Fld%,Rtot,Rtot/yr,RF/9,RF/G,Pos Summary
226,Craig Counsell,30,ARI,NL,153,113,87,1062.0,517,193,316,8,69,.985,10,12,4.31,3.33,SS-2B-3B-1B
227,Steve Cox,26,TBD,AL,86,79,74,703.0,630,580,49,1,64,.998,-1,-2,8.05,7.31,1B-OF
228,Tim Crabtree,31,TEX,AL,21,0,0,23.1,6,1,5,0,1,1.000,,,2.31,0.29,P
229,Paxton Crawford,23,BOS,AL,8,7,0,36.0,7,3,4,0,0,1.000,,,1.75,0.88,P
230,Joe Crede,23,CHW,AL,15,13,13,114.0,35,17,18,0,3,1.000,-2,-20,2.76,2.33,3B
231,Doug Creek,32,TBD,AL,66,0,0,62.2,10,2,5,3,1,.700,,,1.01,0.11,P
232,Cesar Crespo,22,SDP,NL,55,39,35,378.0,166,93,69,4,12,.976,-9,-28,3.86,2.95,2B-OF-3B-SS
233,Felipe Crespo,28,TOT,NL,26,14,8,149.2,145,134,7,4,14,.972,0,3,8.48,5.42,1B-OF-2B
234,Jack Cressend,26,MIN,AL,44,0,0,56.1,12,5,7,0,0,1.000,,,1.92,0.27,P
235,D.T. Cromer,30,CIN,NL,8,4,2,42.0,37,32,4,1,3,.973,-0,-11,7.71,4.50,1B
236,Deivi Cruz,28,DET,AL,116,109,101,962.2,478,162,299,17,69,.964,-14,-18,4.31,3.97,SS-3B
237,Jacob Cruz,28,TOT,ZZ,46,31,19,288.1,70,66,1,3,0,.957,-4,-15,2.09,1.46,OF
238,Jose Cruz,27,TOR,AL,143,141,129,1256.2,294,286,5,3,1,.990,-22,-21,2.08,2.03,OF
239,Juan Cruz,22,CHC,NL,8,8,0,44.2,8,3,5,0,1,1.000,,,1.61,1.00,P
240,Nelson Cruz,28,HOU,NL,66,0,0,82.1,23,8,14,1,0,.957,,,2.40,0.33,P
241,Darwin Cubillan,28,MON,NL,29,0,0,26.1,2,0,1,1,0,.500,,,0.34,0.03,P
242,Michael Cuddyer,22,MIN,AL,7,5,2,43.0,40,37,2,1,4,.975,0,14,8.16,5.57,1B-3B
243,Midre Cummings,29,ARI,NL,4,0,0,9.0,4,4,0,0,0,1.000,1,93,4.00,1.00,OF
244,Will Cunnane,27,MIL,NL,31,1,0,51.2,14,4,10,0,0,1.000,,,2.44,0.45,P
245,Chad Curtis,32,TEX,AL,33,31,22,252.2,83,80,2,1,1,.988,-1,-6,2.92,2.48,OF
246,Jack Cust,22,ARI,NL,1,0,0,2.0,0,0,0,0,0,,-0,-60,0.00,0.00,OF
247,Jeff D'Amico,25,MIL,NL,10,10,0,47.1,7,1,6,0,0,1.000,,,1.33,0.70,P
248,Omar Daal,29,PHI,NL,32,32,0,185.2,39,7,31,1,4,.974,,,1.84,1.19,P
249,Mark Dalesandro,33,CHW,AL,1,0,0,1.0,0,0,0,0,0,,0,0,0.00,0.00,C
250,Johnny Damon,27,OAK,AL,154,152,140,1350.1,352,345,4,3,1,.991,8,7,2.33,2.27,OF
Rk,Name,Age,Tm,Lg,G,GS,CG,Inn,Ch,PO,A,E,DP,Fld%,Rtot,Rtot/yr,RF/9,RF/G,Pos Summary
251,Vic Darensbourg,30,FLA,NL,58,0,0,48.2,12,1,10,1,1,.917,,,2.03,0.19,P
252,Mike Darr,25,SDP,NL,93,73,58,672.2,191,183,6,2,2,.990,5,9,2.53,2.03,OF
253,Brian Daubach,29,BOS,AL,120,113,104,1023.1,947,861,75,11,71,.988,2,2,8.23,7.80,1B-OF
254,Jeff DaVanon,27,ANA,AL,29,22,20,203.0,49,45,3,1,1,.980,-4,-21,2.13,1.66,OF
255,Joe Davenport,25,COL,NL,7,0,0,10.1,2,0,2,0,0,1.000,,,1.74,0.29,P
256,Tom Davey,27,SDP,NL,39,0,0,38.0,8,2,6,0,0,1.000,,,1.89,0.21,P
257,Ben Davis,24,SDP,NL,137,123,109,1086.2,924,854,61,9,14,.990,2,3,7.58,6.68,C-1B
258,Doug Davis,25,TEX,AL,30,30,1,186.0,32,5,25,2,2,.938,,,1.45,1.00,P
259,Eric Davis,39,SFG,NL,48,34,23,293.1,78,74,1,3,0,.962,-2,-7,2.30,1.56,OF
260,Kane Davis,26,COL,NL,57,0,0,68.1,13,1,12,0,1,1.000,,,1.71,0.23,P
261,Lance Davis,24,CIN,NL,20,20,1,106.1,30,6,23,1,2,.967,,,2.45,1.45,P
262,Russ Davis,31,SFG,NL,46,46,32,374.2,91,20,61,10,9,.890,-6,-20,1.95,1.76,3B
263,Valerio De Los Santos,28,MIL,NL,1,0,0,1.0,0,0,0,0,0,,,,0.00,0.00,P
264,Mike DeJean,30,MIL,NL,75,0,0,84.1,24,7,17,0,1,1.000,,,2.56,0.32,P
265,Carlos Delgado,29,TOR,AL,161,161,154,1438.2,1630,1518,103,9,166,.994,-10,-8,10.14,10.07,1B
266,Wilson Delgado,28,KCR,AL,11,6,5,56.0,25,4,21,0,2,1.000,0,11,4.02,2.27,SS-3B-2B
267,David Dellucci,27,ARI,NL,58,40,30,384.0,91,90,0,1,0,.989,2,6,2.11,1.55,OF
268,Ryan Dempster,24,FLA,NL,34,34,2,211.1,55,16,36,3,7,.945,,,2.21,1.53,P
269,Mark DeRosa,26,ATL,NL,55,42,37,399.2,203,59,137,7,24,.966,3,9,4.41,3.56,SS-2B-OF-3B
270,Delino DeShields,32,TOT,MLB,102,85,62,747.0,190,156,28,6,1,.968,-5,-9,2.22,1.80,OF-2B-3B-1B
271,Elmer Dessens,30,CIN,NL,34,34,1,205.0,32,6,26,0,3,1.000,,,1.40,0.94,P
272,Matt DeWitt,23,TOR,AL,16,0,0,19.0,5,2,3,0,1,1.000,,,2.37,0.31,P
273,Einar Diaz,28,CLE,AL,135,126,114,1116.2,1061,959,94,8,11,.992,9,10,8.49,7.80,C-2B
274,R.A. Dickey,26,TEX,AL,4,0,0,12.0,2,1,1,0,0,1.000,,,1.50,0.50,P
275,Mike Difelice,32,TOT,ZZ,60,53,42,446.0,385,346,32,7,5,.982,3,8,7.63,6.30,C
Rk,Name,Age,Tm,Lg,G,GS,CG,Inn,Ch,PO,A,E,DP,Fld%,Rtot,Rtot/yr,RF/9,RF/G,Pos Summary
276,Craig Dingman,27,COL,NL,7,0,0,7.1,2,0,2,0,0,1.000,,,2.45,0.29,P
277,Chris Donnels,35,LAD,NL,22,16,7,131.1,71,46,22,3,6,.958,2,14,4.66,3.09,3B-1B-P
278,Octavio Dotel,27,HOU,NL,61,4,0,105.0,25,9,14,2,3,.920,,,1.97,0.38,P
279,Sean Douglass,22,BAL,AL,4,4,0,20.1,1,0,1,0,0,1.000,,,0.44,0.25,P
280,Kelly Dransfeldt,26,TEX,AL,4,0,0,8.0,4,0,4,0,0,1.000,0,15,4.50,1.00,SS-3B
281,Darren Dreifort,29,LAD,NL,16,16,0,94.2,16,4,11,1,2,.938,,,1.43,0.94,P
282,Ryan Drese,25,CLE,AL,9,4,0,36.2,10,4,5,1,1,.900,,,2.21,1.00,P
283,J.D. Drew,25,STL,NL,107,104,85,899.2,222,209,7,6,1,.973,8,11,2.16,2.02,OF
284,Tim Drew,22,CLE,AL,8,6,0,35.0,8,3,4,1,1,.875,,,1.80,0.88,P
285,Rob Ducey,36,TOT,NL,17,12,9,101.1,29,28,1,0,0,1.000,1,7,2.58,1.71,OF
286,Justin Duchscherer,23,TEX,AL,5,2,0,14.2,1,1,0,0,0,1.000,,,0.61,0.20,P
287,Brandon Duckworth,25,PHI,NL,11,11,0,69.0,13,4,7,2,0,.846,,,1.43,1.00,P
288,Courtney Duncan,26,CHC,NL,36,0,0,42.2,7,2,2,3,0,.571,,,0.84,0.11,P
289,Adam Dunn,21,CIN,NL,63,63,50,539.0,141,136,3,2,1,.986,1,1,2.32,2.21,OF
290,Shawon Dunston,38,SFG,NL,61,34,17,312.2,87,80,4,3,2,.966,5,21,2.42,1.38,OF-1B
291,Todd Dunwoody,26,CHC,NL,26,13,7,134.1,37,35,1,1,0,.973,3,29,2.41,1.38,OF
292,Erubiel Durazo,27,ARI,NL,40,28,21,277.2,272,252,18,2,22,.993,2,7,8.75,6.75,1B-OF
293,Chad Durbin,23,KCR,AL,29,29,2,179.0,41,20,20,1,3,.976,,,2.01,1.38,P
294,Ray Durham,29,CHW,AL,150,148,142,1294.1,736,280,446,10,88,.986,6,6,5.05,4.84,2B
295,Mike Duvall,26,MIN,AL,8,0,0,4.2,0,0,0,0,0,,,,0.00,0.00,P
296,Jermaine Dye,27,TOT,AL,154,154,141,1351.0,292,274,12,6,1,.979,-2,-2,1.91,1.86,OF
297,Damion Easley,31,DET,AL,153,153,143,1329.1,789,279,496,14,113,.982,-0,-0,5.25,5.07,2B
298,Adam Eaton,23,SDP,NL,17,17,2,116.2,33,13,18,2,2,.939,,,2.39,1.82,P
299,Angel Echevarria,30,MIL,NL,33,21,13,210.0,78,74,2,2,5,.974,-5,-28,3.26,2.30,OF-1B
300,David Eckstein,26,ANA,AL,140,132,122,1167.1,583,199,366,18,75,.969,-3,-3,4.36,4.04,SS-2B
Rk,Name,Age,Tm,Lg,G,GS,CG,Inn,Ch,PO,A,E,DP,Fld%,Rtot,Rtot/yr,RF/9,RF/G,Pos Summary
301,Jim Edmonds,31,STL,NL,149,142,119,1228.2,345,325,14,6,3,.983,5,5,2.48,2.28,OF-1B
302,Joey Eischen,31,MON,NL,24,0,0,29.2,7,3,4,0,0,1.000,,,2.12,0.29,P
303,Scott Elarton,25,TOT,NL,24,24,0,132.2,32,9,21,2,2,.938,,,2.04,1.25,P
304,Cal Eldred,33,CHW,AL,2,2,0,6.0,2,0,2,0,0,1.000,,,3.00,1.00,P
305,Robert Ellis,30,ARI,NL,19,17,0,92.0,20,8,12,0,0,1.000,,,1.96,1.05,P
306,Alan Embree,31,TOT,ZZ,61,0,0,54.0,6,2,4,0,1,1.000,,,1.00,0.10,P
307,Juan Encarnacion,25,DET,AL,116,114,107,1003.1,258,247,5,6,0,.977,-10,-12,2.26,2.17,OF
308,Mario Encarnacion,25,COL,NL,20,16,15,150.1,36,35,1,0,2,1.000,3,22,2.16,1.80,OF
309,Todd Erdos,27,BOS,AL,10,0,0,16.1,2,1,1,0,1,1.000,,,1.10,0.20,P
310,Darin Erstad,27,ANA,AL,158,153,135,1340.2,480,462,17,1,11,.998,14,13,3.22,3.03,OF-1B
311,Alex Escobar,22,NYM,NL,15,13,12,117.2,31,26,3,2,1,.935,-3,-32,2.22,1.93,OF
312,Kelvim Escobar,25,TOR,AL,59,11,1,126.0,15,6,8,1,0,.933,,,1.00,0.24,P
313,Bobby Estalella,26,TOT,ZZ,31,29,23,246.2,214,199,15,0,5,1.000,1,5,7.81,6.90,C
314,Shawn Estes,28,SFG,NL,27,27,0,159.0,39,3,33,3,2,.923,,,2.04,1.33,P
315,Horacio Estrada,25,COL,NL,4,0,0,4.1,1,0,1,0,0,1.000,,,2.08,0.25,P
316,Johnny Estrada,25,PHI,NL,89,80,73,713.1,577,543,30,4,4,.993,0,0,7.23,6.44,C
317,Tony Eusebio,34,HOU,NL,48,40,32,365.1,325,300,22,3,4,.991,-2,-7,7.93,6.71,C
318,Adam Everett,24,HOU,NL,6,0,0,7.0,6,2,2,2,1,.667,-0,-69,5.14,0.67,SS
319,Carl Everett,30,BOS,AL,93,92,86,819.0,194,185,4,5,1,.974,-8,-12,2.08,2.03,OF
320,Scott Eyre,29,TOR,AL,17,0,0,15.2,2,0,2,0,0,1.000,,,1.15,0.12,P
321,Jorge Fabregas,31,ANA,AL,53,42,32,372.1,293,267,23,3,3,.990,1,3,7.01,5.47,C
322,Kyle Farnsworth,25,CHC,NL,76,0,0,82.0,7,3,4,0,0,1.000,,,0.77,0.09,P
323,Sal Fasano,29,TOT,ZZ,37,25,17,237.1,214,192,17,5,5,.977,1,5,7.93,5.65,C
324,Jeff Fassero,38,CHC,NL,82,0,0,73.2,12,3,9,0,2,1.000,,,1.47,0.15,P
325,Carlos Febles,25,KCR,AL,78,73,68,649.1,359,128,224,7,62,.981,2,4,4.88,4.51,2B
Rk,Name,Age,Tm,Lg,G,GS,CG,Inn,Ch,PO,A,E,DP,Fld%,Rtot,Rtot/yr,RF/9,RF/G,Pos Summary
326,Pedro Feliz,26,SFG,NL,86,51,41,518.0,131,40,79,12,6,.908,-10,-22,2.07,1.38,3B
327,Jared Fernandez,29,CIN,NL,5,2,0,12.1,5,1,4,0,0,1.000,,,3.65,1.00,P
328,Jose Fernandez,26,ANA,AL,3,0,0,4.0,1,0,0,1,0,.000,-1,-210,0.00,0.00,1B-3B
329,Osvaldo Fernandez,32,CIN,NL,20,14,0,79.1,23,2,20,1,2,.957,,,2.50,1.10,P
330,Tony Fernandez,39,MIL,NL,13,13,10,111.1,29,3,25,1,4,.966,-1,-13,2.26,2.15,3B
331,Mike Fetters,36,TOT,NL,54,0,0,47.1,10,1,8,1,0,.900,,,1.71,0.17,P
332,Robert Fick,27,DET,AL,112,95,68,815.0,642,596,39,7,13,.989,-3,-4,7.01,5.67,C-1B-OF
333,Luis Figueroa,27,PIT,NL,3,0,0,6.0,5,1,4,0,1,1.000,0,60,7.50,1.67,2B
334,Nelson Figueroa,27,PHI,NL,19,13,0,89.0,8,2,6,0,1,1.000,,,0.81,0.42,P
335,Jeremy Fikac,26,SDP,NL,23,0,0,26.1,4,0,4,0,0,1.000,,,1.37,0.17,P
336,Bob File,24,TOR,AL,60,0,0,74.1,19,7,11,1,1,.947,,,2.18,0.30,P
337,Chuck Finley,38,CLE,AL,22,22,1,113.2,16,2,11,3,0,.813,,,1.03,0.59,P
338,Steve Finley,36,ARI,NL,132,124,117,1111.2,308,300,6,2,3,.994,3,4,2.48,2.32,OF-P
339,Tony Fiore,29,TOT,AL,7,0,0,9.2,3,2,1,0,0,1.000,,,2.79,0.43,P
340,John Flaherty,33,TBD,AL,78,69,67,617.1,493,458,28,7,4,.986,-9,-17,7.09,6.23,C
341,Darrin Fletcher,34,TOR,AL,129,114,93,1021.0,765,720,41,4,8,.995,5,6,6.71,5.90,C
342,Bryce Florie,31,BOS,AL,7,0,0,8.2,2,1,1,0,0,1.000,,,2.08,0.29,P
343,Cliff Floyd,28,FLA,NL,142,140,123,1212.0,285,269,8,8,2,.972,12,12,2.06,1.95,OF
344,Josh Fogg,24,CHW,AL,11,0,0,13.1,2,1,1,0,0,1.000,,,1.35,0.18,P
345,P.J. Forbes,33,PHI,NL,1,1,1,9.0,4,2,2,0,0,1.000,0,27,4.00,4.00,2B
346,Brook Fordyce,31,BAL,AL,95,89,74,768.2,581,541,30,10,7,.983,-6,-9,6.69,6.01,C
347,Casey Fossum,23,BOS,AL,13,7,0,44.1,4,3,1,0,0,1.000,,,0.81,0.31,P
348,Kevin Foster,32,TEX,AL,9,0,0,17.2,0,0,0,0,0,,,,0.00,0.00,P
349,Kris Foster,26,BAL,AL,7,0,0,10.0,4,0,4,0,0,1.000,,,3.60,0.57,P
350,Keith Foulke,28,CHW,AL,72,0,0,81.0,18,7,11,0,0,1.000,,,2.00,0.25,P
Rk,Name,Age,Tm,Lg,G,GS,CG,Inn,Ch,PO,A,E,DP,Fld%,Rtot,Rtot/yr,RF/9,RF/G,Pos Summary
351,Andy Fox,30,FLA,NL,25,17,14,157.2,69,25,41,3,10,.957,0,3,3.77,2.64,SS-3B-2B-OF
352,Chad Fox,30,MIL,NL,65,0,0,66.2,11,4,6,1,0,.909,,,1.35,0.15,P
353,John Franco,40,NYM,NL,58,0,0,53.1,9,1,7,1,0,.889,,,1.35,0.14,P
354,Julio Franco,42,ATL,NL,23,22,19,188.0,198,181,16,1,20,.995,4,28,9.43,8.57,1B
355,Ryan Franklin,28,SEA,AL,38,0,0,78.1,14,8,6,0,0,1.000,,,1.61,0.37,P
356,Wayne Franklin,27,HOU,NL,11,0,0,12.0,2,0,2,0,0,1.000,,,1.50,0.18,P
357,John Frascatore,31,TOR,AL,12,0,0,16.1,6,1,5,0,0,1.000,,,3.31,0.50,P
358,Ryan Freel,25,TOR,AL,8,6,3,50.0,32,11,20,1,4,.969,0,2,5.58,3.88,2B-OF
359,Jeff Frye,34,TOR,AL,77,47,34,476.2,237,90,146,1,32,.996,-2,-6,4.46,3.06,2B-3B-SS-OF
360,Travis Fryman,32,CLE,AL,97,94,78,793.0,217,66,139,12,15,.945,-12,-18,2.33,2.11,3B-SS
361,Brian Fuentes,25,SEA,AL,10,0,0,11.2,4,1,3,0,0,1.000,,,3.09,0.40,P
362,Brad Fullmer,26,TOR,AL,1,1,1,8.0,13,12,1,0,1,1.000,0,60,14.62,13.00,1B
363,Aaron Fultz,27,SFG,NL,66,0,0,71.0,18,4,14,0,1,1.000,,,2.28,0.27,P
364,Rafael Furcal,23,ATL,NL,79,79,75,694.1,361,126,224,11,49,.970,-2,-3,4.54,4.43,SS
365,Mike Fyhrie,31,TOT,ZZ,18,0,0,20.0,6,2,4,0,1,1.000,,,2.70,0.33,P
366,Eric Gagne,25,LAD,NL,33,24,0,151.2,22,10,11,1,0,.955,,,1.25,0.64,P
367,Andres Galarraga,40,TOT,ZZ,66,61,52,542.2,518,483,29,6,64,.988,-5,-11,8.49,7.76,1B
368,Gus Gandarillas,29,MIL,NL,16,0,0,19.2,5,2,3,0,1,1.000,,,2.29,0.31,P
369,Ron Gant,36,TOT,ZZ,62,56,35,461.0,90,85,2,3,0,.967,-2,-4,1.70,1.40,OF
370,Rich Garces,30,BOS,AL,62,0,0,67.0,18,7,11,0,2,1.000,,,2.42,0.29,P
371,Freddy Garcia,24,SEA,AL,34,34,4,238.2,69,29,39,1,5,.986,,,2.56,2.00,P
372,Jesse Garcia,27,ATL,NL,6,0,0,12.1,6,3,3,0,1,1.000,0,0,4.38,1.00,2B-SS
373,Karim Garcia,25,CLE,AL,20,12,6,120.2,24,18,4,2,1,.917,-4,-39,1.64,1.10,OF-1B
374,Nomar Garciaparra,27,BOS,AL,21,21,20,184.0,93,34,56,3,13,.968,-2,-13,4.40,4.29,SS
375,Mark Gardner,39,SFG,NL,23,15,0,91.2,12,2,10,0,0,1.000,,,1.18,0.52,P
Rk,Name,Age,Tm,Lg,G,GS,CG,Inn,Ch,PO,A,E,DP,Fld%,Rtot,Rtot/yr,RF/9,RF/G,Pos Summary
376,Jon Garland,21,CHW,AL,35,16,0,117.0,26,8,17,1,4,.962,,,1.92,0.71,P
377,Chris George,21,KCR,AL,13,13,1,74.0,13,7,5,1,0,.923,,,1.46,0.92,P
378,Jason Giambi,30,OAK,AL,136,136,113,1176.1,1311,1224,76,11,107,.992,4,4,9.95,9.56,1B
379,Jeremy Giambi,26,OAK,AL,57,48,39,422.2,131,123,3,5,6,.962,-10,-30,2.68,2.21,OF-1B
380,Jay Gibbons,24,BAL,AL,35,30,20,263.0,102,98,4,0,3,1.000,2,9,3.49,2.91,OF-1B
381,Benji Gil,28,ANA,AL,84,65,43,560.0,362,177,171,14,45,.961,0,0,5.59,4.14,SS-2B-1B-OF
382,Geronimo Gil,25,BAL,AL,17,17,13,150.0,133,121,10,2,1,.985,-2,-16,7.86,7.71,C
383,Brian Giles,30,PIT,NL,159,159,120,1359.1,324,307,7,10,2,.969,-7,-6,2.08,1.97,OF
384,Marcus Giles,23,ATL,NL,62,59,52,518.0,276,104,166,6,31,.978,3,6,4.69,4.35,2B
385,Bernard Gilkey,34,ATL,NL,36,18,9,182.1,40,40,0,0,0,1.000,1,5,1.97,1.11,OF
386,Matt Ginter,23,CHW,AL,20,0,0,39.2,7,3,4,0,0,1.000,,,1.59,0.35,P
387,Charles Gipson,28,SEA,AL,81,14,7,237.1,71,51,18,2,1,.972,3,13,2.62,0.85,OF-SS-3B-2B
388,Joe Girardi,36,CHC,NL,71,61,56,552.0,537,504,33,0,2,1.000,5,11,8.76,7.56,C
389,Doug Glanville,30,PHI,NL,150,147,142,1310.2,425,413,8,4,3,.991,20,18,2.89,2.81,OF
390,Troy Glaus,24,ANA,AL,161,158,149,1395.2,409,103,287,19,21,.954,-3,-3,2.51,2.42,3B-SS
391,Tom Glavine,35,ATL,NL,35,35,1,219.1,52,12,40,0,2,1.000,,,2.13,1.49,P
392,Gary Glover,24,CHW,AL,46,11,0,100.1,25,9,15,1,0,.960,,,2.15,0.52,P
393,Ryan Glynn,26,TEX,AL,12,9,0,46.0,12,7,5,0,0,1.000,,,2.35,1.00,P
394,Wayne Gomes,28,TOT,NL,55,0,0,63.0,7,2,5,0,0,1.000,,,1.00,0.13,P
395,Chris Gomez,30,TOT,MLB,102,86,72,766.0,333,120,200,13,48,.961,-8,-12,3.76,3.14,SS-2B
396,Alex Gonzalez,28,TOR,AL,154,153,148,1374.1,768,249,509,10,120,.987,10,9,4.96,4.92,SS
397,Alex Gonzalez,24,FLA,NL,142,139,131,1220.1,642,220,396,26,101,.960,-2,-2,4.54,4.34,SS
398,Dicky Gonzalez,22,NYM,NL,16,7,0,59.0,12,4,8,0,0,1.000,,,1.83,0.75,P
399,Juan Gonzalez,31,CLE,AL,119,119,92,981.0,227,214,10,3,3,.987,-3,-4,2.06,1.88,OF
400,Luis Gonzalez,33,ARI,NL,161,161,145,1416.2,288,280,8,0,1,1.000,5,4,1.83,1.79,OF
Rk,Name,Age,Tm,Lg,G,GS,CG,Inn,Ch,PO,A,E,DP,Fld%,Rtot,Rtot/yr,RF/9,RF/G,Pos Summary
401,Raul Gonzalez,27,CIN,NL,2,2,2,17.0,4,4,0,0,0,1.000,0,28,2.12,2.00,OF
402,Wiki Gonzalez,27,SDP,NL,47,37,25,330.1,270,246,21,3,3,.989,-1,-4,7.27,5.68,C
403,Tom Goodwin,32,LAD,NL,78,69,57,610.1,155,153,1,1,0,.994,-3,-7,2.27,1.97,OF
404,Tom Gordon,33,CHC,NL,47,0,0,45.1,2,1,1,0,0,1.000,,,0.40,0.04,P
405,Mark Grace,37,ARI,NL,135,127,111,1111.0,1062,995,62,5,99,.995,5,6,8.56,7.83,1B
406,Tony Graffanino,29,CHW,AL,67,28,25,339.1,162,56,99,7,17,.957,5,18,4.11,2.31,3B-2B-SS-OF-1B
407,Danny Graves,27,CIN,NL,66,0,0,80.1,27,6,21,0,0,1.000,,,3.02,0.41,P
408,Craig Grebeck,36,BOS,AL,23,12,6,118.2,48,16,32,0,4,1.000,-0,-2,3.64,2.09,SS
409,Shawn Green,28,LAD,NL,160,160,149,1414.2,331,317,8,6,1,.982,4,4,2.07,2.03,OF-1B
410,Steve Green,23,ANA,AL,1,1,0,6.0,1,0,1,0,1,1.000,,,1.50,1.00,P
411,Todd Greene,30,NYY,AL,34,24,19,227.1,201,187,14,0,2,1.000,-5,-26,7.96,5.91,C
412,Rusty Greer,32,TEX,AL,60,59,54,503.0,131,124,2,5,0,.962,-6,-14,2.25,2.10,OF
413,Ben Grieve,25,TBD,AL,120,118,100,1012.1,248,240,4,4,0,.984,-7,-8,2.17,2.03,OF
414,Ken Griffey,31,CIN,NL,90,90,73,757.0,199,195,1,3,0,.985,-10,-16,2.33,2.18,OF
415,Jason Grilli,24,FLA,NL,6,5,0,26.2,4,1,3,0,0,1.000,,,1.35,0.67,P
416,Jason Grimsley,33,KCR,AL,73,0,0,80.1,22,6,12,4,2,.818,,,2.02,0.25,P
417,Marquis Grissom,34,LAD,NL,123,101,98,938.0,233,227,6,0,2,1.000,-5,-7,2.24,1.89,OF
418,Buddy Groom,35,BAL,AL,70,0,0,66.0,10,4,5,1,1,.900,,,1.23,0.13,P
419,Mark Grudzielanek,31,LAD,NL,133,131,121,1159.1,614,245,359,10,75,.984,-2,-2,4.69,4.54,2B
420,Eddie Guardado,30,MIN,AL,67,0,0,66.2,9,3,6,0,0,1.000,,,1.22,0.13,P
421,Vladimir Guerrero,26,MON,NL,158,158,142,1368.1,346,320,14,12,5,.965,7,6,2.20,2.11,OF
422,Wilton Guerrero,26,CIN,NL,37,26,23,242.0,114,50,59,5,14,.956,-4,-20,4.05,2.95,SS-2B-3B-OF
423,Carlos Guillen,25,SEA,AL,137,123,115,1120.0,510,187,313,10,75,.980,10,11,4.02,3.65,SS
424,Jose Guillen,25,TBD,AL,36,35,34,306.2,96,86,7,3,3,.969,5,21,2.73,2.58,OF
425,Mike Gulan,30,FLA,NL,1,1,1,9.0,4,2,2,0,0,1.000,0,13,4.00,4.00,3B
Rk,Name,Age,Tm,Lg,G,GS,CG,Inn,Ch,PO,A,E,DP,Fld%,Rtot,Rtot/yr,RF/9,RF/G,Pos Summary
426,Mark Guthrie,35,OAK,AL,54,0,0,52.1,4,0,4,0,0,1.000,,,0.69,0.07,P
427,Ricky Gutierrez,31,CHC,NL,144,140,129,1224.1,549,173,360,16,67,.971,-4,-4,3.92,3.70,SS
428,Cristian Guzman,23,MIN,AL,118,115,107,1015.0,513,165,327,21,58,.959,8,9,4.36,4.17,SS
429,Edwards Guzman,24,SFG,NL,45,19,10,214.0,149,127,19,3,4,.980,-2,-11,6.14,3.24,C-3B-1B-OF-2B
430,Geraldo Guzman,28,ARI,NL,4,0,0,9.1,0,0,0,0,0,,,,0.00,0.00,P
431,Tony Gwynn,41,SDP,NL,17,16,4,103.0,19,17,2,0,0,1.000,-2,-27,1.66,1.12,OF
432,Luther Hackman,26,STL,NL,35,0,0,35.2,6,1,5,0,0,1.000,,,1.51,0.17,P
433,Jerry Hairston,25,BAL,AL,156,154,149,1343.1,803,326,458,19,93,.976,-4,-3,5.25,5.03,2B
434,John Halama,29,SEA,AL,31,17,0,110.1,31,9,21,1,0,.968,,,2.45,0.97,P
435,Toby Hall,25,TBD,AL,46,46,45,410.0,353,328,20,5,2,.986,1,3,7.64,7.57,C
436,Roy Halladay,24,TOR,AL,17,16,1,105.1,23,7,16,0,0,1.000,,,1.97,1.35,P
437,Shane Halter,31,DET,AL,144,126,116,1113.0,575,223,326,26,68,.955,0,0,4.44,3.81,3B-SS-1B
438,Darryl Hamilton,36,NYM,NL,37,32,24,284.1,68,66,2,0,0,1.000,-1,-4,2.15,1.84,OF
439,Joey Hamilton,30,TOT,ZZ,26,26,0,139.2,33,10,21,2,3,.939,,,2.00,1.19,P
440,Jeffrey Hammonds,30,MIL,NL,46,46,43,401.2,110,106,2,2,0,.982,2,5,2.42,2.35,OF
441,Mike Hampton,28,COL,NL,32,32,2,203.0,58,12,46,0,5,1.000,,,2.57,1.81,P
442,Dave Hansen,32,LAD,NL,46,29,17,266.0,225,173,46,6,16,.973,-0,-0,7.41,4.76,1B-3B
443,Pete Harnisch,34,CIN,NL,7,7,0,35.1,4,3,1,0,0,1.000,,,1.02,0.57,P
444,Travis Harper,25,TBD,AL,2,2,0,7.0,1,0,1,0,0,1.000,,,1.29,0.50,P
445,Lenny Harris,36,NYM,NL,27,10,3,108.2,53,42,8,3,1,.943,-1,-10,4.14,1.85,1B-3B-OF-2B
446,Willie Harris,23,BAL,AL,8,7,4,56.0,17,16,1,0,1,1.000,-1,-28,2.73,2.13,OF
447,Ken Harvey,23,KCR,AL,3,3,1,17.0,12,11,1,0,1,1.000,-0,-21,6.35,4.00,1B
448,Chad Harville,24,OAK,AL,3,0,0,3.0,2,1,1,0,0,1.000,,,6.00,0.67,P
449,Shigetoshi Hasegawa,32,ANA,AL,46,0,0,55.2,10,3,6,1,1,.900,,,1.46,0.20,P
450,Bill Haselman,35,TEX,AL,47,35,27,338.0,247,234,13,0,2,1.000,1,4,6.58,5.26,C
Rk,Name,Age,Tm,Lg,G,GS,CG,Inn,Ch,PO,A,E,DP,Fld%,Rtot,Rtot/yr,RF/9,RF/G,Pos Summary
451,Scott Hatteberg,31,BOS,AL,72,65,54,581.2,524,491,29,4,3,.992,-20,-41,8.05,7.22,C
452,LaTroy Hawkins,28,MIN,AL,62,0,0,51.1,8,3,5,0,0,1.000,,,1.40,0.13,P
453,Charlie Hayes,36,HOU,NL,13,9,4,76.1,26,14,12,0,2,1.000,1,9,3.07,2.00,3B-1B
454,Jimmy Haynes,28,MIL,NL,31,29,0,172.2,36,12,24,0,1,1.000,,,1.88,1.16,P
455,Rick Helling,30,TEX,AL,34,34,2,215.2,32,15,16,1,1,.969,,,1.29,0.91,P
456,Wes Helms,25,ATL,NL,95,51,37,516.1,484,439,41,4,42,.992,0,1,8.37,5.05,1B-3B-OF
457,Todd Helton,27,COL,NL,157,157,144,1370.0,1424,1302,120,2,139,.999,7,6,9.34,9.06,1B
458,Rickey Henderson,42,SDP,NL,104,98,67,812.2,166,158,5,3,2,.982,-10,-14,1.81,1.57,OF
459,Doug Henry,37,KCR,AL,53,0,0,75.2,9,4,5,0,1,1.000,,,1.07,0.17,P
460,Pat Hentgen,32,BAL,AL,9,9,1,62.1,18,7,10,1,1,.944,,,2.45,1.89,P
461,Felix Heredia,26,CHC,NL,48,0,0,35.0,4,3,1,0,0,1.000,,,1.03,0.08,P
462,Gil Heredia,35,OAK,AL,24,18,0,109.2,35,16,17,2,0,.943,,,2.71,1.38,P
463,Matt Herges,31,LAD,NL,75,0,0,99.1,21,5,15,1,1,.952,,,1.81,0.27,P
464,Chad Hermansen,23,PIT,NL,20,12,9,120.2,31,30,1,0,1,1.000,-1,-9,2.31,1.55,OF
465,Dustin Hermanson,28,STL,NL,33,33,0,192.1,22,4,17,1,0,.955,,,0.98,0.64,P
466,Adrian Hernandez,26,NYY,AL,6,3,0,22.0,5,1,3,1,0,.800,,,1.64,0.67,P
467,Alex Hernandez,24,PIT,NL,6,2,2,23.0,8,7,1,0,1,1.000,-0,-5,3.13,1.33,OF-1B
468,Carlos Hernandez,21,HOU,NL,3,3,0,17.2,3,1,2,0,1,1.000,,,1.53,1.00,P
469,Jose Hernandez,31,MIL,NL,152,147,134,1291.0,651,206,427,18,90,.972,5,5,4.41,4.16,SS-OF
470,Livan Hernandez,26,SFG,NL,34,34,2,226.2,57,13,44,0,2,1.000,,,2.26,1.68,P
471,Orlando Hernandez,35,NYY,AL,17,16,0,94.2,17,5,12,0,0,1.000,,,1.62,1.00,P
472,Ramon Hernandez,25,OAK,AL,137,127,116,1135.2,993,911,70,12,15,.988,6,6,7.77,7.16,C-1B
473,Roberto Hernandez,36,KCR,AL,63,0,0,67.2,9,3,6,0,0,1.000,,,1.20,0.14,P
474,Junior Herndon,22,SDP,NL,12,8,0,42.2,12,2,10,0,2,1.000,,,2.53,1.00,P
475,Phil Hiatt,32,LAD,NL,23,8,7,100.2,38,29,8,1,4,.974,-2,-23,3.31,1.61,3B-1B
Rk,Name,Age,Tm,Lg,G,GS,CG,Inn,Ch,PO,A,E,DP,Fld%,Rtot,Rtot/yr,RF/9,RF/G,Pos Summary
476,Richard Hidalgo,26,HOU,NL,144,137,87,1235.0,346,332,11,3,4,.991,4,4,2.50,2.38,OF
477,Bobby Higginson,30,DET,AL,142,142,125,1215.1,339,321,10,8,1,.976,4,4,2.45,2.33,OF
478,Erik Hiljus,28,OAK,AL,16,11,0,66.0,5,1,4,0,0,1.000,,,0.68,0.31,P
479,Ken Hill,35,TBD,AL,5,0,0,7.1,5,2,2,1,0,.800,,,4.91,0.80,P
480,Shea Hillenbrand,25,BOS,AL,135,121,116,1101.0,359,138,203,18,20,.950,-2,-3,2.79,2.53,3B-1B
481,A.J. Hinch,27,KCR,AL,43,37,30,331.2,237,220,14,3,2,.987,-1,-4,6.35,5.44,C
482,Brett Hinchliffe,26,NYM,NL,1,1,0,2.0,0,0,0,0,0,,,,0.00,0.00,P
483,Sterling Hitchcock,30,TOT,ZZ,13,12,1,70.1,10,3,7,0,0,1.000,,,1.28,0.77,P
484,Denny Hocking,31,MIN,AL,97,68,56,642.1,318,163,150,5,36,.984,-4,-8,4.39,3.23,SS-OF-2B-1B-3B
485,Trevor Hoffman,33,SDP,NL,62,0,0,60.1,9,5,4,0,0,1.000,,,1.34,0.15,P
486,Todd Hollandsworth,28,COL,NL,31,28,15,248.0,54,51,2,1,0,.981,0,0,1.92,1.71,OF
487,Chris Holt,29,DET,AL,30,22,1,151.1,27,9,17,1,1,.963,,,1.55,0.87,P
488,Mike Holtz,28,ANA,AL,63,0,0,37.0,14,4,9,1,0,.929,,,3.16,0.21,P
489,Paul Hoover,25,TBD,AL,2,1,1,10.0,3,2,1,0,0,1.000,0,0,2.70,1.50,C
490,Tyler Houston,30,MIL,NL,65,57,50,503.1,151,42,99,10,11,.934,-1,-1,2.52,2.17,3B-1B
491,Bob Howry,27,CHW,AL,69,0,0,78.2,12,2,10,0,0,1.000,,,1.37,0.17,P
492,Mike Hubbard,30,TEX,AL,5,4,2,29.1,17,15,2,0,0,1.000,-1,-41,5.22,3.40,C
493,Trent Hubbard,37,KCR,AL,3,2,1,18.0,2,2,0,0,0,1.000,-1,-93,1.00,0.67,OF
494,Ken Huckaby,30,ARI,NL,1,0,0,3.0,5,5,0,0,0,1.000,0,0,15.00,5.00,C
495,Tim Hudson,25,OAK,AL,35,35,3,235.0,69,21,43,5,3,.928,,,2.45,1.83,P
496,Aubrey Huff,24,TBD,AL,92,88,80,767.0,331,170,141,20,26,.940,-6,-10,3.65,3.38,3B-1B
497,Todd Hundley,32,CHC,NL,70,67,50,558.1,576,547,25,4,3,.993,-8,-17,9.22,8.17,C
498,Brian Hunter,30,PHI,NL,41,27,17,260.1,72,69,3,0,2,1.000,5,22,2.49,1.76,OF
499,Torii Hunter,25,MIN,AL,147,147,142,1295.1,478,460,14,4,3,.992,20,18,3.29,3.22,OF
500,Chad Hutchinson,24,STL,NL,3,0,0,4.0,0,0,0,0,0,,,,0.00,0.00,P
Rk,Name,Age,Tm,Lg,G,GS,CG,Inn,Ch,PO,A,E,DP,Fld%,Rtot,Rtot/yr,RF/9,RF/G,Pos Summary
501,Adam Hyzdu,29,PIT,NL,31,12,7,135.0,44,42,2,0,0,1.000,-0,-4,2.93,1.42,OF-1B
502,Raul Ibanez,29,KCR,AL,53,37,20,337.0,130,114,11,5,11,.962,-2,-8,3.34,2.36,OF-1B-3B
503,Brandon Inge,24,DET,AL,79,60,43,537.2,374,330,40,4,3,.989,7,16,6.19,4.68,C
504,Hideki Irabu,32,MON,NL,3,3,0,16.2,5,0,5,0,0,1.000,,,2.70,1.67,P
505,Jason Isringhausen,28,OAK,AL,65,0,0,71.1,11,1,8,2,0,.818,,,1.14,0.14,P
506,Cesar Izturis,21,TOR,AL,47,40,33,357.0,197,73,121,3,28,.985,-1,-2,4.89,4.13,2B-SS
507,Damian Jackson,27,SDP,NL,123,118,108,1030.2,582,245,329,8,68,.986,-0,-0,5.01,4.67,2B-SS-OF
508,Michael Jackson,36,HOU,NL,67,0,0,69.0,11,7,4,0,0,1.000,,,1.43,0.16,P
509,Ryan Jackson,29,DET,AL,69,24,19,288.1,173,159,12,2,14,.988,-2,-7,5.34,2.48,OF-1B
510,Mike James,33,STL,NL,40,0,0,38.0,7,3,4,0,1,1.000,,,1.66,0.18,P
511,Kevin Jarvis,31,SDP,NL,32,32,1,193.1,54,20,33,1,0,.981,,,2.47,1.66,P
512,Stan Javier,37,SEA,AL,82,66,29,587.2,170,165,4,1,5,.994,10,21,2.59,2.06,OF-1B
513,Geoff Jenkins,26,MIL,NL,104,104,93,897.1,221,210,8,3,2,.986,1,2,2.19,2.10,OF
514,Jason Jennings,22,COL,NL,7,7,1,39.1,11,4,7,0,3,1.000,,,2.52,1.57,P
515,Robin Jennings,29,TOT,ZZ,43,33,24,293.1,138,122,12,4,12,.971,-4,-15,4.11,3.12,OF-1B
516,Marcus Jensen,28,TOT,AL,12,7,5,68.0,51,47,4,0,0,1.000,1,18,6.75,4.25,C
517,Ryan Jensen,25,SFG,NL,10,7,0,42.1,10,5,4,1,1,.900,,,1.91,0.90,P
518,Derek Jeter,27,NYY,AL,150,150,133,1312.1,570,212,343,15,68,.974,-17,-15,3.81,3.70,SS
519,D'Angelo Jimenez,23,SDP,NL,85,84,82,740.2,406,130,255,21,47,.948,-4,-6,4.68,4.53,SS
520,Jose Jimenez,27,COL,NL,56,0,0,55.0,14,2,12,0,0,1.000,,,2.29,0.25,P
521,Brett Jodie,24,TOT,ZZ,8,3,0,25.1,1,0,1,0,0,1.000,,,0.36,0.13,P
522,Adam Johnson,21,MIN,AL,7,4,0,25.0,4,1,3,0,0,1.000,,,1.44,0.57,P
523,Brian Johnson,33,LAD,NL,2,0,0,4.0,3,3,0,0,0,1.000,0,0,6.75,1.50,C
524,Charles Johnson,29,FLA,NL,125,120,112,1061.0,912,846,62,4,15,.996,6,7,7.70,7.26,C
525,Jason Johnson,27,BAL,AL,32,32,2,196.0,24,4,16,4,1,.833,,,0.92,0.63,P
Rk,Name,Age,Tm,Lg,G,GS,CG,Inn,Ch,PO,A,E,DP,Fld%,Rtot,Rtot/yr,RF/9,RF/G,Pos Summary
526,Jonathan Johnson,26,TEX,AL,5,0,0,10.1,0,0,0,0,0,,,,0.00,0.00,P
527,Mark Johnson,33,NYM,NL,40,23,11,212.2,119,111,7,1,10,.992,-2,-8,4.99,2.95,1B-OF
528,Mark Johnson,25,CHW,AL,61,56,48,495.1,360,326,31,3,2,.992,3,7,6.49,5.85,C
529,Mike Johnson,25,MON,NL,10,0,0,11.1,0,0,0,0,0,,,,0.00,0.00,P
530,Nick Johnson,22,NYY,AL,15,10,10,102.0,95,90,5,0,4,1.000,1,8,8.38,6.33,1B
531,Randy Johnson,37,ARI,NL,35,34,3,249.2,33,2,27,4,1,.879,,,1.05,0.83,P
532,Russ Johnson,28,TBD,AL,75,61,57,542.2,227,84,136,7,27,.969,-3,-7,3.65,2.93,2B-3B-SS
533,Andruw Jones,24,ATL,NL,161,161,160,1435.1,477,461,10,6,6,.987,27,22,2.95,2.93,OF
534,Bobby Jones,31,SDP,NL,33,33,1,195.0,35,7,28,0,0,1.000,,,1.62,1.06,P
535,Chipper Jones,29,ATL,NL,157,156,138,1362.0,342,91,233,18,12,.947,-13,-12,2.14,2.06,3B-OF
536,Jacque Jones,26,MIN,AL,140,123,109,1095.0,291,278,8,5,0,.983,2,2,2.35,2.04,OF
537,Terry Jones,30,MON,NL,22,15,12,151.0,44,41,2,1,1,.977,1,10,2.56,1.95,OF
538,Todd Jones,33,TOT,AL,69,0,0,68.0,18,7,10,1,0,.944,,,2.25,0.25,P
539,Brian Jordan,34,ATL,NL,144,141,127,1237.1,335,321,11,3,2,.991,21,20,2.41,2.31,OF
540,Kevin Jordan,31,PHI,NL,30,21,16,187.1,112,70,37,5,8,.955,-2,-10,5.14,3.57,2B-1B-3B
541,Wally Joyner,39,ANA,AL,39,31,19,267.1,289,270,18,1,27,.997,4,18,9.70,7.38,1B
542,Mike Judd,26,TOT,AL,12,3,0,29.0,4,3,1,0,0,1.000,,,1.24,0.33,P
543,Jorge Julio,22,BAL,AL,18,0,0,21.1,3,0,2,1,0,.667,,,0.84,0.11,P
544,David Justice,35,NYY,AL,25,22,13,189.1,54,49,4,1,1,.981,1,6,2.52,2.12,OF
545,Gabe Kapler,25,TEX,AL,133,130,128,1156.1,353,344,8,1,3,.997,-17,-18,2.74,2.65,OF
546,Jason Karnuth,25,STL,NL,4,0,0,5.0,0,0,0,0,0,,,,0.00,0.00,P
547,Eric Karros,33,LAD,NL,119,118,102,1018.1,1038,963,71,4,82,.996,-1,-2,9.14,8.69,1B
548,Steve Karsay,29,TOT,ZZ,74,0,0,88.0,24,7,16,1,1,.958,,,2.35,0.31,P
549,Randy Keisler,25,NYY,AL,10,10,0,50.2,10,2,6,2,0,.800,,,1.42,0.80,P
550,Jason Kendall,27,PIT,NL,160,154,129,1307.1,856,786,53,17,7,.980,-8,-7,5.78,5.24,C-OF
Rk,Name,Age,Tm,Lg,G,GS,CG,Inn,Ch,PO,A,E,DP,Fld%,Rtot,Rtot/yr,RF/9,RF/G,Pos Summary
551,Adam Kennedy,25,ANA,AL,131,123,118,1102.2,622,236,376,10,64,.984,7,8,5.00,4.67,2B
552,Joe Kennedy,22,TBD,AL,20,20,0,117.2,22,8,14,0,2,1.000,,,1.68,1.10,P
553,Jeff Kent,33,SFG,NL,170,156,135,1384.1,877,462,404,11,110,.987,3,3,5.63,5.09,2B-1B
554,Bobby Kielty,24,MIN,AL,34,28,21,260.2,68,63,2,3,1,.956,0,1,2.24,1.91,OF
555,Brooks Kieschnick,29,COL,NL,13,3,2,40.2,12,10,0,2,0,.833,-1,-35,2.21,0.77,OF-1B
556,Darryl Kile,32,STL,NL,34,34,2,227.1,42,11,29,2,2,.952,,,1.58,1.18,P
557,Byung-Hyun Kim,22,ARI,NL,78,0,0,98.0,24,4,19,1,0,.958,,,2.11,0.29,P
558,Sun-Woo Kim,23,BOS,AL,20,2,0,41.2,7,2,5,0,1,1.000,,,1.51,0.35,P
559,Ray King,27,MIL,NL,82,0,0,55.0,15,5,9,1,0,.933,,,2.29,0.17,P
560,Gene Kingsale,24,TOT,AL,10,4,3,51.0,13,13,0,0,0,1.000,1,19,2.29,1.30,OF
561,Mike Kinkade,28,BAL,AL,47,33,27,296.0,87,72,13,2,0,.977,-4,-17,2.58,1.81,OF-3B-C-1B
562,Ryan Klesko,30,SDP,NL,145,143,128,1240.0,1230,1135,84,11,92,.991,-6,-5,8.85,8.41,1B
563,Steve Kline,28,STL,NL,89,0,0,75.0,13,3,10,0,0,1.000,,,1.56,0.15,P
564,Brandon Knight,25,NYY,AL,4,0,0,10.2,1,1,0,0,0,1.000,,,0.84,0.25,P
565,Chuck Knoblauch,32,NYY,AL,108,104,86,890.0,181,171,8,2,4,.989,-2,-3,1.81,1.66,OF
566,Randy Knorr,32,MON,NL,27,24,22,216.0,175,168,5,2,0,.989,-4,-22,7.21,6.41,C
567,Eric Knott,26,ARI,NL,3,1,0,4.2,0,0,0,0,0,,,,0.00,0.00,P
568,Gary Knotts,24,FLA,NL,2,1,0,6.0,1,1,0,0,0,1.000,,,1.50,0.50,P
569,Billy Koch,26,TOR,AL,69,0,0,69.1,11,4,6,1,1,.909,,,1.30,0.14,P
570,Ryan Kohlmeier,24,BAL,AL,34,1,0,40.2,2,0,2,0,0,1.000,,,0.44,0.06,P
571,Brandon Kolb,27,MIL,NL,10,0,0,9.2,1,0,1,0,0,1.000,,,0.93,0.10,P
572,Danny Kolb,26,TEX,AL,17,0,0,15.1,0,0,0,0,0,,,,0.00,0.00,P
573,Paul Konerko,25,CHW,AL,144,144,135,1260.1,1374,1276,90,8,120,.994,-4,-4,9.75,9.49,1B
574,Mike Koplove,24,ARI,NL,9,0,0,10.0,1,0,1,0,0,1.000,,,0.90,0.11,P
575,Corey Koskie,28,MIN,AL,150,147,139,1308.0,416,95,306,15,19,.964,16,14,2.76,2.67,3B
Rk,Name,Age,Tm,Lg,G,GS,CG,Inn,Ch,PO,A,E,DP,Fld%,Rtot,Rtot/yr,RF/9,RF/G,Pos Summary
576,Mark Kotsay,25,SDP,NL,111,99,88,878.0,285,277,4,4,1,.986,8,10,2.88,2.53,OF
577,Chad Kreuter,36,LAD,NL,70,58,48,526.1,515,486,29,0,4,1.000,3,7,8.81,7.36,C
578,Tim Laker,31,CLE,AL,15,8,6,85.1,83,76,6,1,2,.988,-2,-28,8.65,5.47,C-P
579,Mike Lamb,25,TEX,AL,74,71,66,634.1,209,52,139,18,14,.914,-0,-1,2.71,2.58,3B
580,Tom Lampkin,37,SEA,AL,72,56,36,507.0,400,375,23,2,2,.995,1,2,7.07,5.53,C-OF
581,Ray Lankford,34,TOT,NL,123,109,91,948.1,210,198,6,6,1,.971,-9,-12,1.94,1.66,OF
582,Mike Lansing,33,BOS,AL,107,97,82,856.2,422,161,247,14,52,.967,-6,-9,4.29,3.81,SS-2B
583,Barry Larkin,37,CIN,NL,44,42,29,341.1,182,65,108,9,23,.951,-4,-13,4.56,3.93,SS
584,Brandon Larson,25,CIN,NL,9,8,8,77.2,33,10,21,2,2,.939,1,12,3.59,3.44,3B
585,Jason LaRue,27,CIN,NL,113,98,88,874.0,667,579,81,7,8,.990,9,12,6.80,5.84,C-3B-1B-OF
586,Chris Latham,28,TOR,AL,31,16,15,166.0,49,47,2,0,1,1.000,2,18,2.66,1.58,OF
587,Brian Lawrence,25,SDP,NL,27,15,1,114.2,32,2,26,4,0,.875,,,2.20,1.04,P
588,Matt Lawton,29,TOT,ZZ,142,136,127,1210.1,296,289,3,4,2,.986,-0,-0,2.17,2.06,OF
589,Jalal Leach,32,SFG,NL,3,1,1,13.0,1,1,0,0,0,1.000,-0,-37,0.69,0.33,OF
590,Matt LeCroy,25,MIN,AL,5,0,0,15.0,11,10,1,0,0,1.000,-0,-16,6.60,2.20,C-1B
591,Ricky Ledee,27,TEX,AL,72,62,52,563.1,141,137,1,3,0,.979,-6,-12,2.20,1.92,OF
592,Carlos Lee,25,CHW,AL,130,129,80,1048.0,258,241,9,8,0,.969,2,2,2.15,1.92,OF
593,David Lee,28,SDP,NL,41,0,0,48.2,4,2,2,0,0,1.000,,,0.74,0.10,P
594,Derrek Lee,25,FLA,NL,156,146,143,1309.2,1393,1271,114,8,142,.994,-2,-2,9.52,8.88,1B
595,Travis Lee,26,PHI,NL,156,150,149,1351.2,1413,1332,75,6,121,.996,3,2,9.37,9.02,1B
596,Al Leiter,35,NYM,NL,29,29,0,187.1,30,6,22,2,2,.933,,,1.35,0.97,P
597,Mark Leiter,38,MIL,NL,20,3,0,36.0,11,4,7,0,0,1.000,,,2.75,0.55,P
598,Curt Leskanic,33,MIL,NL,70,0,0,69.1,13,7,4,2,0,.846,,,1.43,0.16,P
599,Al Levine,33,ANA,AL,64,1,0,75.2,14,3,9,2,1,.857,,,1.43,0.19,P
600,Jesse Levis,33,MIL,NL,11,9,9,82.0,63,59,3,1,1,.984,-1,-15,6.80,5.64,C
Rk,Name,Age,Tm,Lg,G,GS,CG,Inn,Ch,PO,A,E,DP,Fld%,Rtot,Rtot/yr,RF/9,RF/G,Pos Summary
601,Allen Levrault,23,MIL,NL,32,20,1,130.2,21,8,11,2,1,.905,,,1.31,0.59,P
602,Darren Lewis,33,BOS,AL,69,41,31,417.1,106,102,4,0,2,1.000,3,8,2.29,1.54,OF
603,Mark Lewis,31,CLE,AL,7,3,1,30.0,12,4,7,1,1,.917,-0,-12,3.30,1.57,3B-2B
604,Cory Lidle,29,OAK,AL,29,29,1,188.0,45,13,30,2,0,.956,,,2.06,1.48,P
605,Jon Lieber,31,CHC,NL,34,34,5,232.1,51,16,35,0,4,1.000,,,1.98,1.50,P
606,Mike Lieberthal,29,PHI,NL,33,33,31,283.2,254,243,9,2,3,.992,1,4,8.00,7.64,C
607,Jeff Liefer,26,CHW,AL,68,58,36,506.0,196,159,30,7,14,.964,-8,-18,3.36,2.78,OF-3B-1B
608,Kerry Ligtenberg,30,ATL,NL,53,0,0,59.2,6,2,1,3,0,.500,,,0.45,0.06,P
609,Ted Lilly,25,NYY,AL,26,21,0,120.2,29,5,22,2,0,.931,,,2.01,1.04,P
610,Jose Lima,28,TOT,ZZ,32,27,2,165.2,25,3,20,2,4,.920,,,1.25,0.72,P
611,Mike Lincoln,26,PIT,NL,31,0,0,40.1,13,1,11,1,1,.923,,,2.68,0.39,P
612,Scott Linebrink,24,HOU,NL,9,0,0,10.1,0,0,0,0,0,,,,0.00,0.00,P
613,Felipe Lira,29,MON,NL,4,0,0,5.0,1,1,0,0,0,1.000,,,1.80,0.25,P
614,Mark Little,28,COL,NL,29,14,7,141.1,39,36,3,0,3,1.000,2,15,2.48,1.34,OF
615,Graeme Lloyd,34,MON,NL,84,0,0,70.1,21,7,13,1,3,.952,,,2.56,0.24,P
616,Paul Lo Duca,29,LAD,NL,137,115,95,1042.2,916,837,70,9,25,.990,4,5,7.83,6.62,C-1B-OF
617,Esteban Loaiza,29,TOR,AL,36,30,1,190.0,39,15,21,3,0,.923,,,1.71,1.00,P
618,Keith Lockhart,36,ATL,NL,51,34,27,319.1,151,66,85,0,20,1.000,1,4,4.26,2.96,2B-3B
619,Carlton Loewer,27,SDP,NL,2,2,0,4.1,0,0,0,0,0,,,,0.00,0.00,P
620,James Lofton,27,BOS,AL,7,6,5,54.0,25,9,14,2,3,.920,-2,-38,3.83,3.29,SS
621,Kenny Lofton,34,CLE,AL,130,123,108,1076.2,319,310,3,6,0,.981,1,1,2.62,2.41,OF
622,Kyle Lohse,22,MIN,AL,19,16,0,90.1,22,9,12,1,2,.955,,,2.09,1.11,P
623,Rich Loiselle,29,PIT,NL,18,0,0,18.0,5,1,4,0,0,1.000,,,2.50,0.28,P
624,Terrence Long,25,OAK,AL,162,158,151,1425.1,344,332,5,7,3,.980,1,1,2.13,2.08,OF
625,Braden Looper,26,FLA,NL,71,0,0,71.0,12,4,8,0,1,1.000,,,1.52,0.17,P
Rk,Name,Age,Tm,Lg,G,GS,CG,Inn,Ch,PO,A,E,DP,Fld%,Rtot,Rtot/yr,RF/9,RF/G,Pos Summary
626,Albie Lopez,29,TOT,ZZ,33,33,3,205.2,38,7,30,1,1,.974,,,1.62,1.12,P
627,Felipe Lopez,21,TOR,AL,50,49,45,435.2,146,32,105,9,7,.938,3,8,2.83,2.74,3B-SS
628,Javy Lopez,30,ATL,NL,127,115,100,1026.0,886,826,50,10,7,.989,1,1,7.68,6.90,C
629,Luis Lopez,30,MIL,NL,78,51,37,477.1,194,70,116,8,21,.959,-3,-7,3.51,2.38,3B-2B-SS
630,Luis Lopez,27,TOR,AL,33,28,20,246.0,89,27,57,5,4,.944,-2,-10,3.07,2.55,3B-1B
631,Mendy Lopez,27,TOT,NL,24,12,10,126.1,66,27,38,1,9,.985,0,5,4.63,2.71,2B-SS-3B
632,Mark Loretta,29,MIL,NL,101,93,73,781.1,368,142,218,8,35,.978,-3,-5,4.15,3.56,2B-3B-SS-P
633,Derek Lowe,28,BOS,AL,67,3,0,91.2,24,6,17,1,2,.958,,,2.26,0.34,P
634,Sean Lowe,30,CHW,AL,45,11,0,127.0,29,8,21,0,0,1.000,,,2.06,0.64,P
635,Mike Lowell,27,FLA,NL,144,142,135,1250.2,377,107,261,9,35,.976,6,6,2.65,2.56,3B
636,Julio Lugo,25,HOU,NL,143,125,103,1117.2,608,213,373,22,74,.964,4,4,4.72,4.10,SS-OF-2B
637,Mark Lukasiewicz,28,ANA,AL,24,0,0,22.1,1,0,1,0,0,1.000,,,0.40,0.04,P
638,Fernando Lunar,24,BAL,AL,64,46,42,429.2,303,267,32,4,3,.987,4,11,6.26,4.67,C
639,David Lundquist,28,SDP,NL,17,0,0,19.2,4,1,3,0,0,1.000,,,1.83,0.24,P
640,Brandon Lyon,21,TOR,AL,11,11,0,63.0,12,3,9,0,0,1.000,,,1.71,1.09,P
641,John Mabry,30,TOT,NL,45,30,22,258.2,59,54,3,2,1,.966,-7,-33,1.98,1.27,OF-1B-P
642,Mike MacDougal,24,KCR,AL,3,3,0,15.1,1,1,0,0,0,1.000,,,0.59,0.33,P
643,Robert Machado,28,CHC,NL,47,34,32,326.2,338,317,20,1,3,.997,1,4,9.28,7.17,C
644,Jose Macias,29,DET,AL,136,118,106,1057.0,396,165,219,12,26,.970,6,7,3.27,2.82,3B-OF-2B
645,Rob Mackowiak,25,PIT,NL,70,56,31,470.1,170,104,60,6,10,.965,2,5,3.14,2.34,OF-2B-3B-1B
646,Scott MacRae,26,CIN,NL,24,0,0,31.1,3,2,1,0,0,1.000,,,0.86,0.13,P
647,Greg Maddux,35,ATL,NL,34,34,3,233.0,74,19,54,1,3,.986,,,2.82,2.15,P
648,Calvin Maduro,26,BAL,AL,22,12,0,93.2,10,2,8,0,0,1.000,,,0.96,0.45,P
649,Dave Magadan,38,SDP,NL,33,15,10,169.0,67,39,25,3,4,.955,-3,-23,3.41,1.94,3B-1B-SS-2B
650,Wendell Magee,28,DET,AL,74,47,40,468.2,131,123,7,1,0,.992,3,9,2.50,1.76,OF
Rk,Name,Age,Tm,Lg,G,GS,CG,Inn,Ch,PO,A,E,DP,Fld%,Rtot,Rtot/yr,RF/9,RF/G,Pos Summary
651,Mike Magnante,36,OAK,AL,65,0,0,55.1,10,2,7,1,0,.900,,,1.46,0.14,P
652,Chris Magruder,24,TEX,AL,12,5,5,60.1,22,21,1,0,0,1.000,1,20,3.28,1.83,OF
653,Ron Mahay,30,CHC,NL,17,0,0,20.2,5,2,3,0,1,1.000,,,2.18,0.29,P
654,Pat Mahomes,30,TEX,AL,56,4,0,107.1,30,15,14,1,2,.967,,,2.43,0.52,P
655,Jim Mann,26,HOU,NL,4,0,0,5.1,1,0,1,0,0,1.000,,,1.69,0.25,P
656,Matt Mantei,27,ARI,NL,8,0,0,7.0,0,0,0,0,0,,,,0.00,0.00,P
657,Josias Manzanillo,33,PIT,NL,71,0,0,79.2,10,3,6,1,0,.900,,,1.02,0.13,P
658,Jason Marquis,22,ATL,NL,38,16,0,129.1,33,9,21,3,2,.909,,,2.09,0.79,P
659,Eli Marrero,27,STL,NL,86,50,43,497.2,412,382,23,7,6,.983,3,7,7.32,4.71,C-OF-1B
660,Damaso Marte,26,PIT,NL,23,0,0,36.1,3,1,2,0,0,1.000,,,0.74,0.13,P
661,Al Martin,33,SEA,AL,73,71,16,512.2,139,132,3,4,2,.971,6,13,2.37,1.85,OF
662,Tom Martin,31,NYM,NL,14,0,0,17.0,2,1,1,0,0,1.000,,,1.06,0.14,P
663,Dave Martinez,36,ATL,NL,62,41,32,400.0,128,120,8,0,7,1.000,-0,-0,2.88,2.06,OF-1B
664,Edgar Martinez,38,SEA,AL,1,1,0,5.0,8,8,0,0,0,1.000,0,48,14.40,8.00,1B
665,Felix Martinez,27,TBD,AL,77,66,55,588.0,301,118,168,15,41,.950,-6,-13,4.38,3.71,SS-2B
666,Pedro Martinez,29,BOS,AL,18,18,1,116.2,10,5,5,0,0,1.000,,,0.77,0.56,P
667,Ramon Martinez,33,PIT,NL,4,4,0,15.2,4,2,2,0,2,1.000,,,2.30,1.00,P
668,Ramon Martinez,28,SFG,NL,136,105,78,956.0,392,123,261,8,44,.980,2,2,3.62,2.82,3B-2B-SS
669,Sandy Martinez,30,MON,NL,1,0,0,1.1,2,2,0,0,0,1.000,0,0,13.50,2.00,C
670,Tino Martinez,33,NYY,AL,149,146,131,1293.1,1248,1144,99,5,105,.996,-2,-1,8.65,8.34,1B
671,Henry Mateo,24,MON,NL,2,2,2,18.0,11,3,6,2,0,.818,-0,-27,4.50,4.50,2B
672,Ruben Mateo,23,TEX,AL,39,37,37,330.1,71,70,0,1,0,.986,-8,-29,1.91,1.79,OF
673,Mike Matheny,30,STL,NL,123,117,95,1009.0,852,779,69,4,11,.995,7,9,7.56,6.89,C-1B
674,T.J. Mathews,31,TOT,ZZ,30,0,0,37.2,7,1,6,0,0,1.000,,,1.67,0.23,P
675,Luis Matos,22,BAL,AL,31,26,22,241.2,68,65,2,1,2,.985,1,4,2.50,2.16,OF
Rk,Name,Age,Tm,Lg,G,GS,CG,Inn,Ch,PO,A,E,DP,Fld%,Rtot,Rtot/yr,RF/9,RF/G,Pos Summary
676,Troy Mattes,25,MON,NL,8,8,0,45.0,8,2,5,1,0,.875,,,1.40,0.88,P
677,Gary Matthews,26,TOT,NL,144,105,92,1003.2,270,259,4,7,0,.974,-1,-1,2.36,1.83,OF
678,Mike Matthews,27,STL,NL,51,10,0,89.0,12,4,7,1,0,.917,,,1.11,0.22,P
679,Dave Maurer,26,SDP,NL,3,0,0,5.0,2,1,1,0,0,1.000,,,3.60,0.67,P
680,Jason Maxwell,29,MIN,AL,32,20,14,183.0,74,20,51,3,4,.959,-2,-10,3.49,2.22,3B-SS-2B
681,Brent Mayne,33,TOT,MLB,94,90,77,786.1,627,586,38,3,6,.995,1,2,7.14,6.64,C-1B
682,Joe Mays,25,MIN,AL,34,34,4,233.2,46,17,28,1,2,.978,,,1.73,1.32,P
683,Dave McCarty,31,KCR,AL,77,47,43,472.0,500,447,45,8,56,.984,-5,-14,9.38,6.39,1B-OF
684,Quinton McCracken,30,MIN,AL,10,6,5,63.0,13,13,0,0,0,1.000,0,4,1.86,1.30,OF
685,Allen McDill,29,BOS,AL,15,0,0,14.2,0,0,0,0,0,,,,0.00,0.00,P
686,Donzell McDonald,26,NYY,AL,3,0,0,8.0,2,2,0,0,0,1.000,0,15,2.25,0.67,OF
687,John McDonald,26,CLE,AL,15,3,2,60.2,28,10,17,1,3,.964,-0,-4,4.01,1.80,SS-3B-2B
688,Keith McDonald,28,STL,NL,2,0,0,3.0,2,1,1,0,0,1.000,0,0,6.00,1.00,C
689,Chuck McElroy,33,TOT,ZZ,49,5,0,75.0,25,4,21,0,1,1.000,,,3.00,0.51,P
690,Joe McEwing,28,NYM,NL,107,66,30,601.2,162,101,58,3,10,.981,2,3,2.38,1.49,OF-3B-SS-2B-1B
691,Fred McGriff,37,TOT,ZZ,123,123,102,1022.0,1019,924,82,13,82,.987,-1,-1,8.86,8.18,1B
692,Ryan McGuire,29,FLA,NL,13,5,5,56.0,23,23,0,0,0,1.000,2,36,3.70,1.77,OF-1B
693,Mark McGwire,37,STL,NL,90,88,66,724.2,723,686,33,4,60,.994,-2,-4,8.93,7.99,1B
694,Tony McKnight,24,TOT,NL,15,15,0,87.1,18,4,13,1,2,.944,,,1.75,1.13,P
695,Mark McLemore,36,SEA,AL,148,100,54,916.1,324,165,147,12,33,.963,3,4,3.06,2.11,OF-SS-3B-2B
696,Billy McMillon,29,TOT,AL,23,17,12,170.1,30,28,1,1,0,.967,-2,-15,1.53,1.26,OF
697,Rusty Meacham,33,TBD,AL,24,0,0,35.1,8,1,7,0,0,1.000,,,2.04,0.33,P
698,Brian Meadows,25,KCR,AL,10,10,0,50.1,12,4,8,0,1,1.000,,,2.15,1.20,P
699,Pat Meares,32,PIT,NL,85,75,62,644.0,372,149,213,10,53,.973,-3,-6,5.06,4.26,2B
700,Jim Mecir,31,OAK,AL,54,0,0,63.0,15,3,11,1,1,.933,,,2.00,0.26,P
Rk,Name,Age,Tm,Lg,G,GS,CG,Inn,Ch,PO,A,E,DP,Fld%,Rtot,Rtot/yr,RF/9,RF/G,Pos Summary
701,Adam Melhuse,29,COL,NL,24,16,14,143.0,110,105,4,1,0,.991,-3,-26,6.86,4.54,C-1B
702,Donaldo Mendez,23,SDP,NL,46,34,22,300.2,150,47,91,12,15,.920,-3,-14,4.13,3.00,SS
703,Ramiro Mendoza,29,NYY,AL,56,2,0,100.2,21,7,14,0,1,1.000,,,1.88,0.38,P
704,Frank Menechino,30,OAK,AL,140,128,121,1173.1,676,253,407,16,90,.976,7,8,5.06,4.71,2B-SS-3B
705,Hector Mercado,27,CIN,NL,56,0,0,53.0,6,0,5,1,0,.833,,,0.85,0.09,P
706,Orlando Merced,34,HOU,NL,34,20,10,183.0,41,39,1,1,0,.976,-2,-16,1.97,1.18,OF-3B-1B
707,Jose Mercedes,30,BAL,AL,33,31,2,184.0,24,15,9,0,2,1.000,,,1.17,0.73,P
708,Lou Merloni,30,BOS,AL,51,39,33,361.1,175,64,108,3,22,.983,2,8,4.28,3.37,SS-2B-3B
709,Jose Mesa,35,PHI,NL,71,0,0,69.1,13,4,9,0,0,1.000,,,1.69,0.18,P
710,Chad Meyers,25,CHC,NL,9,2,0,28.1,16,6,10,0,1,1.000,2,72,5.08,1.78,2B-OF-3B
711,Bart Miadich,25,ANA,AL,11,0,0,10.0,2,1,1,0,0,1.000,,,1.80,0.18,P
712,Dan Miceli,30,TOT,NL,51,0,0,45.0,6,2,3,1,0,.833,,,1.00,0.10,P
713,Jason Michaels,25,PHI,NL,1,0,0,2.0,0,0,0,0,0,,-0,-60,0.00,0.00,OF
714,Chris Michalak,30,TOT,AL,35,18,0,136.2,45,14,30,1,2,.978,,,2.90,1.26,P
715,Jason Middlebrook,26,SDP,NL,4,3,0,19.1,2,0,2,0,0,1.000,,,0.93,0.50,P
716,Doug Mientkiewicz,27,MIN,AL,148,143,136,1269.1,1336,1263,69,4,95,.997,-0,-0,9.44,9.00,1B
717,Kevin Millar,29,FLA,NL,111,110,58,890.2,287,266,19,2,11,.993,-4,-5,2.88,2.57,OF-1B-3B
718,Corky Miller,25,CIN,NL,17,16,14,139.0,117,104,12,1,2,.991,2,17,7.51,6.82,C
719,Damian Miller,31,ARI,NL,121,111,83,978.0,1054,966,81,7,6,.993,3,4,9.63,8.65,C
720,Matt Miller,26,DET,AL,13,0,0,9.2,6,3,3,0,0,1.000,,,5.59,0.46,P
721,Travis Miller,28,MIN,AL,45,0,0,48.2,5,1,2,2,0,.600,,,0.55,0.07,P
722,Wade Miller,24,HOU,NL,32,32,1,212.0,54,16,36,2,3,.963,,,2.21,1.63,P
723,Alan Mills,34,BAL,AL,15,0,0,14.0,0,0,0,0,0,,,,0.00,0.00,P
724,Kevin Millwood,26,ATL,NL,21,21,0,121.0,22,10,12,0,1,1.000,,,1.64,1.05,P
725,Eric Milton,25,MIN,AL,35,34,2,220.2,20,7,13,0,1,1.000,,,0.82,0.57,P
Rk,Name,Age,Tm,Lg,G,GS,CG,Inn,Ch,PO,A,E,DP,Fld%,Rtot,Rtot/yr,RF/9,RF/G,Pos Summary
726,Damon Minor,27,SFG,NL,11,11,7,89.2,91,86,4,1,4,.989,-1,-12,9.03,8.18,1B
727,Ryan Minor,27,MON,NL,27,17,14,170.1,37,15,20,2,0,.946,-4,-30,1.85,1.30,3B-OF-1B
728,Doug Mirabelli,30,TOT,AL,75,59,54,540.1,465,413,49,3,12,.994,4,9,7.70,6.16,C
729,Dave Mlicki,33,TOT,ZZ,34,29,0,167.2,27,7,20,0,3,1.000,,,1.45,0.79,P
730,Brian Moehler,29,DET,AL,1,1,0,8.0,2,0,2,0,0,1.000,,,2.25,2.00,P
731,Chad Moeller,26,ARI,NL,25,13,10,140.2,118,111,7,0,0,1.000,0,0,7.55,4.72,C
732,Mike Mohler,32,ARI,NL,13,0,0,13.2,2,0,2,0,0,1.000,,,1.32,0.15,P
733,Dustan Mohr,25,MIN,AL,19,16,11,141.0,45,45,0,0,0,1.000,3,27,2.87,2.37,OF
734,Bengie Molina,26,ANA,AL,94,89,81,781.2,568,527,36,5,4,.991,3,5,6.48,5.99,C
735,Jose Molina,26,ANA,AL,15,12,6,103.0,84,78,6,0,1,1.000,2,23,7.34,5.60,C
736,Raul Mondesi,30,TOR,AL,149,149,138,1318.2,289,263,18,8,2,.972,-4,-4,1.92,1.89,OF
737,Craig Monroe,24,TEX,AL,24,15,10,135.0,45,42,3,0,1,1.000,3,28,3.00,1.88,OF
738,Trey Moore,28,ATL,NL,2,0,0,4.0,0,0,0,0,0,,,,0.00,0.00,P
739,Melvin Mora,29,BAL,AL,132,119,105,1048.0,428,287,130,11,22,.974,4,5,3.58,3.16,OF-SS-2B
740,Mike Mordecai,33,MON,NL,81,57,46,536.2,194,74,117,3,17,.985,-8,-18,3.20,2.36,3B-2B-SS-OF-1B-C
741,Juan Moreno,26,TEX,AL,45,0,0,41.1,5,4,0,1,0,.800,,,0.87,0.09,P
742,Mike Morgan,41,ARI,NL,31,1,0,38.0,1,0,0,1,0,.000,,,0.00,0.00,P
743,Matt Morris,26,STL,NL,34,34,2,216.1,41,8,31,2,0,.951,,,1.62,1.15,P
744,Warren Morris,27,PIT,NL,30,24,12,198.0,115,41,70,4,15,.965,1,5,5.05,3.70,2B-3B
745,Damian Moss,24,ATL,NL,5,1,0,9.0,2,0,1,1,0,.500,,,1.00,0.20,P
746,Guillermo Mota,27,MON,NL,53,0,0,49.2,12,1,10,1,3,.917,,,1.99,0.21,P
747,Chad Mottola,29,FLA,NL,5,2,0,24.0,9,8,1,0,0,1.000,-0,-10,3.38,1.80,OF
748,James Mouton,32,MIL,NL,53,27,22,286.2,86,81,2,3,1,.965,-1,-5,2.61,1.57,OF
749,Lyle Mouton,32,FLA,NL,11,2,1,34.1,4,4,0,0,0,1.000,-1,-45,1.05,0.36,OF
750,Jamie Moyer,38,SEA,AL,33,33,1,209.2,44,17,27,0,0,1.000,,,1.89,1.33,P
Rk,Name,Age,Tm,Lg,G,GS,CG,Inn,Ch,PO,A,E,DP,Fld%,Rtot,Rtot/yr,RF/9,RF/G,Pos Summary
751,Bill Mueller,30,CHC,NL,65,56,51,496.2,138,33,97,8,6,.942,0,0,2.36,2.00,3B-2B
752,Mark Mulder,23,OAK,AL,34,34,6,229.1,54,12,40,2,2,.963,,,2.04,1.53,P
753,Terry Mulholland,38,TOT,NL,41,4,0,65.2,16,2,14,0,1,1.000,,,2.19,0.39,P
754,Scott Mullen,26,KCR,AL,17,0,0,10.0,2,1,1,0,1,1.000,,,1.80,0.12,P
755,Bobby Munoz,33,MON,NL,15,7,0,42.0,13,3,9,1,3,.923,,,2.57,0.80,P
756,Eric Munson,23,DET,AL,17,17,15,146.0,157,142,14,1,14,.994,-2,-12,9.62,9.18,1B
757,Calvin Murray,29,SFG,NL,104,73,67,710.0,241,232,4,5,1,.979,10,17,2.99,2.27,OF
758,Heath Murray,28,DET,AL,40,4,0,63.1,13,4,9,0,2,1.000,,,1.85,0.33,P
759,Mike Mussina,32,NYY,AL,34,34,4,228.2,44,18,25,1,4,.977,,,1.69,1.26,P
760,Greg Myers,35,TOT,AL,36,31,26,282.2,212,193,19,0,2,1.000,2,8,6.75,5.89,C
761,Mike Myers,32,COL,NL,73,0,0,40.0,14,2,12,0,1,1.000,,,3.15,0.19,P
762,Rodney Myers,32,SDP,NL,37,0,0,47.1,13,4,7,2,0,.846,,,2.09,0.30,P
763,Aaron Myette,23,TEX,AL,19,15,0,80.2,13,5,7,1,0,.923,,,1.34,0.63,P
764,Charles Nagy,34,CLE,AL,15,13,0,70.1,22,9,12,1,1,.955,,,2.69,1.40,P
765,Denny Neagle,32,COL,NL,30,30,0,170.2,27,9,17,1,1,.963,,,1.37,0.87,P
766,Blaine Neal,23,FLA,NL,4,0,0,5.1,0,0,0,0,0,,,,0.00,0.00,P
767,Jeff Nelson,34,SEA,AL,69,0,0,65.1,10,2,6,2,1,.800,,,1.10,0.12,P
768,Joe Nelson,26,ATL,NL,2,0,0,2.0,0,0,0,0,0,,,,0.00,0.00,P
769,Robb Nen,31,SFG,NL,79,0,0,77.2,8,5,3,0,0,1.000,,,0.93,0.10,P
770,Nick Neugebauer,20,MIL,NL,2,2,0,6.0,0,0,0,0,0,,,,0.00,0.00,P
771,Phil Nevin,30,SDP,NL,145,144,123,1228.2,388,96,265,27,26,.930,-8,-8,2.64,2.49,3B
772,David Newhan,27,PHI,NL,1,1,0,7.0,2,2,0,0,0,1.000,-0,-34,2.57,2.00,2B
773,Chris Nichting,35,TOT,NL,43,0,0,42.1,12,3,9,0,0,1.000,,,2.55,0.28,P
774,Doug Nickle,26,PHI,NL,2,0,0,2.0,0,0,0,0,0,,,,0.00,0.00,P
775,Jose Nieves,26,ANA,AL,24,13,10,125.0,80,33,46,1,13,.988,1,8,5.69,3.29,2B-SS-3B-1B
Rk,Name,Age,Tm,Lg,G,GS,CG,Inn,Ch,PO,A,E,DP,Fld%,Rtot,Rtot/yr,RF/9,RF/G,Pos Summary
776,C.J. Nitkowski,28,TOT,ZZ,61,0,0,51.0,10,2,8,0,0,1.000,,,1.76,0.16,P
777,Trot Nixon,27,BOS,AL,145,137,127,1248.1,295,280,7,8,4,.973,-8,-7,2.07,1.98,OF
778,Hideo Nomo,32,BOS,AL,33,33,2,198.0,36,17,18,1,2,.972,,,1.59,1.06,P
779,Greg Norton,28,COL,NL,62,39,24,343.2,125,90,31,4,8,.968,-5,-18,3.17,1.95,3B-OF-1B
780,Abraham Nunez,25,PIT,NL,98,64,57,613.2,382,144,234,4,51,.990,5,10,5.54,3.86,SS-2B-OF-3B
781,Jose Nunez,22,TOT,NL,62,0,0,59.0,8,0,6,2,0,.750,,,0.92,0.10,P
782,Vladimir Nunez,26,FLA,NL,52,3,0,92.0,18,7,11,0,1,1.000,,,1.76,0.35,P
783,Troy O'Leary,31,BOS,AL,89,83,73,750.2,167,163,3,1,0,.994,-5,-8,1.99,1.87,OF
784,Paul O'Neill,38,NYY,AL,130,127,104,1094.1,215,210,1,4,0,.981,-15,-17,1.74,1.62,OF
785,Alex Ochoa,29,TOT,NL,137,131,112,1162.1,281,266,12,3,5,.989,7,7,2.15,2.03,OF
786,Jose Offerman,32,BOS,AL,134,126,112,1122.2,760,458,288,14,70,.982,2,3,5.98,5.57,2B-1B
787,Tomo Ohka,25,TOT,ZZ,22,21,0,107.0,24,12,11,1,2,.958,,,1.93,1.05,P
788,Will Ohman,23,CHC,NL,11,0,0,11.2,1,1,0,0,0,1.000,,,0.77,0.09,P
789,Augie Ojeda,26,CHC,NL,76,32,23,371.2,159,50,103,6,17,.962,1,4,3.70,2.01,SS-3B-2B
790,John Olerud,32,SEA,AL,158,149,142,1347.2,1341,1211,121,9,116,.993,7,7,8.90,8.43,1B
791,Omar Olivares,33,PIT,NL,45,12,1,110.0,23,4,19,0,1,1.000,,,1.88,0.51,P
792,Darren Oliver,30,TEX,AL,28,28,1,154.0,33,7,26,0,1,1.000,,,1.93,1.18,P
793,Joe Oliver,35,TOT,AL,17,15,12,140.1,141,134,5,2,0,.986,-3,-26,8.91,8.18,C
794,Kevin Olsen,24,FLA,NL,4,2,0,15.0,5,3,2,0,1,1.000,,,3.00,1.25,P
795,Gregg Olson,34,LAD,NL,28,0,0,24.2,4,0,3,1,0,.750,,,1.09,0.11,P
796,Luis Ordaz,25,KCR,AL,28,16,10,154.2,96,27,66,3,17,.969,4,28,5.41,3.32,2B-SS-3B
797,Magglio Ordonez,27,CHW,AL,155,151,144,1329.1,302,286,11,5,0,.983,-13,-12,2.01,1.92,OF
798,Rey Ordonez,30,NYM,NL,148,140,119,1226.1,608,213,383,12,79,.980,4,4,4.37,4.03,SS
799,Eddie Oropesa,29,PHI,NL,30,0,0,19.0,2,0,2,0,0,1.000,,,0.95,0.07,P
800,Jesse Orosco,44,LAD,NL,35,0,0,16.0,2,1,1,0,0,1.000,,,1.12,0.06,P
Rk,Name,Age,Tm,Lg,G,GS,CG,Inn,Ch,PO,A,E,DP,Fld%,Rtot,Rtot/yr,RF/9,RF/G,Pos Summary
801,David Ortiz,25,MIN,AL,8,7,5,55.0,62,60,2,0,2,1.000,0,7,10.15,7.75,1B
802,Hector Ortiz,31,KCR,AL,55,46,40,410.0,311,280,28,3,1,.990,2,6,6.76,5.60,C
803,Jose Ortiz,24,TOT,ZZ,61,58,53,509.0,272,102,160,10,37,.963,1,3,4.63,4.30,2B
804,Ramon Ortiz,28,ANA,AL,32,32,2,208.2,44,18,20,6,1,.864,,,1.64,1.19,P
805,Russ Ortiz,27,SFG,NL,33,33,1,218.2,47,12,34,1,4,.979,,,1.89,1.39,P
806,Keith Osik,32,PIT,NL,50,32,23,296.1,231,213,17,1,4,.996,-1,-4,6.99,4.60,C-1B-3B-2B-OF
807,Jimmy Osting,24,SDP,NL,3,0,0,2.0,0,0,0,0,0,,,,0.00,0.00,P
808,Antonio Osuna,28,CHW,AL,4,0,0,4.1,0,0,0,0,0,,,,0.00,0.00,P
809,Roy Oswalt,23,HOU,NL,28,20,3,141.2,35,19,15,1,1,.971,,,2.16,1.21,P
810,Eric Owens,30,FLA,NL,106,91,80,841.1,189,180,6,3,1,.984,-1,-1,1.99,1.75,OF
811,Vicente Padilla,23,PHI,NL,23,0,0,34.0,6,4,2,0,1,1.000,,,1.59,0.26,P
812,Lance Painter,33,TOT,ZZ,23,0,0,29.0,11,5,6,0,2,1.000,,,3.41,0.48,P
813,Orlando Palmeiro,32,ANA,AL,59,36,32,363.1,90,87,2,1,1,.989,-0,-1,2.20,1.51,OF
814,Rafael Palmeiro,36,TEX,AL,113,113,108,996.1,997,906,83,8,112,.992,-3,-4,8.93,8.75,1B
815,Jose Paniagua,27,SEA,AL,60,0,0,66.0,6,2,3,1,1,.833,,,0.68,0.08,P
816,Craig Paquette,32,STL,NL,116,79,50,727.1,275,218,52,5,23,.982,-1,-2,3.34,2.33,OF-3B-1B-2B
817,Chan Ho Park,28,LAD,NL,36,35,2,234.0,54,12,40,2,2,.963,,,2.00,1.44,P
818,Christian Parker,25,NYY,AL,1,1,0,3.0,2,0,2,0,0,1.000,,,6.00,2.00,P
819,Chad Paronto,25,BAL,AL,24,0,0,27.0,8,2,6,0,0,1.000,,,2.67,0.33,P
820,Jim Parque,26,CHW,AL,5,5,1,28.0,10,2,8,0,0,1.000,,,3.21,2.00,P
821,Steve Parris,33,TOR,AL,19,19,1,105.2,15,4,11,0,0,1.000,,,1.28,0.79,P
822,John Parrish,23,BAL,AL,16,1,0,22.0,4,0,3,1,0,.750,,,1.23,0.19,P
823,Corey Patterson,21,CHC,NL,54,26,21,286.1,84,82,0,2,0,.976,1,4,2.58,1.52,OF
824,Danny Patterson,30,DET,AL,60,0,0,64.2,15,5,10,0,0,1.000,,,2.09,0.25,P
825,Jarrod Patterson,27,DET,AL,13,12,10,103.0,26,9,15,2,0,.923,-2,-29,2.10,1.85,3B
Rk,Name,Age,Tm,Lg,G,GS,CG,Inn,Ch,PO,A,E,DP,Fld%,Rtot,Rtot/yr,RF/9,RF/G,Pos Summary
826,Josh Paul,26,CHW,AL,56,43,34,392.0,296,266,24,6,3,.980,-7,-21,6.66,5.18,C
827,Carl Pavano,25,MON,NL,8,8,0,42.2,4,1,3,0,0,1.000,,,0.84,0.50,P
828,Jay Payton,28,NYM,NL,103,90,85,825.2,247,237,6,4,1,.984,1,1,2.65,2.36,OF
829,Angel Pena,26,LAD,NL,15,13,12,119.0,136,125,11,0,0,1.000,1,10,10.29,9.07,C
830,Carlos Pena,23,TEX,AL,16,16,15,142.0,155,138,15,2,13,.987,-2,-14,9.70,9.56,1B
831,Elvis Pena,24,MIL,NL,11,8,8,81.0,51,14,36,1,7,.980,1,9,5.56,4.55,2B
832,Brad Penny,23,FLA,NL,31,31,1,205.0,37,10,27,0,1,1.000,,,1.62,1.19,P
833,Troy Percival,31,ANA,AL,57,0,0,57.2,4,3,1,0,0,1.000,,,0.62,0.07,P
834,Eddie Perez,33,ATL,NL,5,2,0,21.0,11,10,1,0,0,1.000,0,0,4.71,2.20,C
835,Neifi Perez,28,TOT,MLB,137,136,128,1191.1,673,250,408,15,103,.978,13,13,4.97,4.80,SS-2B
836,Odalis Perez,23,ATL,NL,24,16,0,95.1,16,5,11,0,0,1.000,,,1.51,0.67,P
837,Robert Perez,32,TOT,ZZ,6,4,3,37.1,10,10,0,0,0,1.000,-1,-26,2.41,1.67,OF
838,Santiago Perez,25,SDP,NL,36,16,11,190.1,64,47,13,4,1,.938,-0,-0,2.84,1.67,OF-SS-2B
839,Timo Perez,26,NYM,NL,73,54,42,514.1,133,128,5,0,1,1.000,5,12,2.33,1.82,OF
840,Tomas Perez,27,PHI,NL,47,26,22,265.0,145,57,87,1,17,.993,7,30,4.89,3.06,2B-3B-SS-OF
841,Matt Perisho,26,DET,AL,30,4,0,39.1,6,1,5,0,0,1.000,,,1.37,0.20,P
842,Herbert Perry,31,CHW,AL,80,68,53,596.2,230,105,115,10,13,.957,-2,-3,3.32,2.75,3B-1B
843,Robert Person,31,PHI,NL,33,33,3,208.1,24,5,19,0,1,1.000,,,1.04,0.73,P
844,Chris Peters,29,MON,NL,13,6,0,31.0,6,0,6,0,0,1.000,,,1.74,0.46,P
845,Kyle Peterson,25,MIL,NL,3,2,0,14.2,3,1,2,0,0,1.000,,,1.84,1.00,P
846,Mark Petkovsek,35,TEX,AL,55,0,0,76.2,14,5,9,0,0,1.000,,,1.64,0.25,P
847,Ben Petrick,24,COL,NL,79,70,63,610.2,496,459,29,8,9,.984,-6,-12,7.19,6.18,C-1B
848,Andy Pettitte,29,NYY,AL,31,31,2,200.2,49,9,40,0,2,1.000,,,2.20,1.58,P
849,Adam Pettyjohn,24,DET,AL,16,9,0,65.0,11,3,8,0,1,1.000,,,1.52,0.69,P
850,Josh Phelps,23,TOR,AL,7,4,1,37.0,30,28,2,0,0,1.000,1,32,7.30,4.29,C
Rk,Name,Age,Tm,Lg,G,GS,CG,Inn,Ch,PO,A,E,DP,Fld%,Rtot,Rtot/yr,RF/9,RF/G,Pos Summary
851,Travis Phelps,23,TBD,AL,49,0,0,62.0,17,5,11,1,1,.941,,,2.32,0.33,P
852,Jason Phillips,24,NYM,NL,5,0,0,15.0,15,15,0,0,0,1.000,0,0,9.00,3.00,C
853,Adam Piatt,25,OAK,AL,32,26,18,234.1,53,48,3,2,0,.962,-1,-7,1.96,1.59,OF
854,Mike Piazza,32,NYM,NL,131,127,102,1085.1,986,919,58,9,5,.991,-11,-12,8.10,7.46,C
855,Hipolito Pichardo,31,BOS,AL,30,0,0,34.2,13,3,10,0,1,1.000,,,3.38,0.43,P
856,Calvin Pickering,24,BOS,AL,12,12,10,103.0,96,90,6,0,8,1.000,0,2,8.39,8.00,1B
857,Juan Pierre,23,COL,NL,154,140,134,1257.2,373,362,3,8,1,.979,4,4,2.61,2.37,OF
858,Chris Piersoll,23,CIN,NL,11,0,0,11.1,1,1,0,0,0,1.000,,,0.79,0.09,P
859,A.J. Pierzynski,24,MIN,AL,110,102,95,901.2,665,611,44,10,7,.985,1,1,6.54,5.95,C
860,Luis Pineda,26,DET,AL,16,0,0,18.1,2,0,2,0,0,1.000,,,0.98,0.13,P
861,Joel Pineiro,22,SEA,AL,17,11,0,75.1,8,4,4,0,0,1.000,,,0.96,0.47,P
862,Dan Plesac,39,TOR,AL,62,0,0,45.1,4,0,4,0,0,1.000,,,0.79,0.06,P
863,Scott Podsednik,25,SEA,AL,5,1,1,18.0,3,3,0,0,0,1.000,0,7,1.50,0.60,OF
864,Placido Polanco,25,STL,NL,160,132,108,1184.0,481,133,344,4,42,.992,23,24,3.63,2.98,3B-SS-2B
865,Cliff Politte,27,PHI,NL,23,0,0,26.0,10,4,4,2,0,.800,,,2.77,0.35,P
866,Sidney Ponson,24,BAL,AL,23,23,3,138.1,33,14,19,0,2,1.000,,,2.15,1.43,P
867,Bo Porter,28,TEX,AL,40,22,16,221.2,64,61,1,2,0,.969,-3,-17,2.52,1.55,OF
868,Jorge Posada,29,NYY,AL,133,127,114,1120.2,1066,1003,52,11,12,.990,-4,-4,8.47,7.93,C-1B
869,Lou Pote,29,ANA,AL,44,1,0,86.2,29,11,16,2,2,.931,,,2.80,0.61,P
870,Brian Powell,27,HOU,NL,1,1,0,3.0,0,0,0,0,0,,,,0.00,0.00,P
871,Dante Powell,27,SFG,NL,9,1,1,20.1,8,8,0,0,0,1.000,1,59,3.54,0.89,OF
872,Jay Powell,29,TOT,NL,74,0,0,75.0,19,10,8,1,2,.947,,,2.16,0.24,P
873,Todd Pratt,34,TOT,NL,66,49,41,463.0,364,348,12,4,1,.989,-5,-13,7.00,5.45,C-1B
874,Curtis Pride,32,MON,NL,23,13,10,139.2,33,32,1,0,0,1.000,1,9,2.13,1.43,OF
875,Ariel Prieto,31,TBD,AL,3,0,0,3.2,1,1,0,0,0,1.000,,,2.45,0.33,P
Rk,Name,Age,Tm,Lg,G,GS,CG,Inn,Ch,PO,A,E,DP,Fld%,Rtot,Rtot/yr,RF/9,RF/G,Pos Summary
876,Tom Prince,36,MIN,AL,64,60,52,530.2,421,380,41,0,3,1.000,5,11,7.14,6.58,C
877,Bret Prinz,24,ARI,NL,46,0,0,41.0,9,3,6,0,1,1.000,,,1.98,0.20,P
878,Luke Prokopec,23,LAD,NL,29,22,0,138.1,25,8,15,2,2,.920,,,1.50,0.79,P
879,Albert Pujols,21,STL,NL,175,154,115,1330.1,607,451,136,20,44,.967,6,5,3.97,3.35,OF-3B-1B
880,Bill Pulsipher,27,TOT,AL,37,0,0,30.0,9,2,6,1,1,.889,,,2.40,0.22,P
881,Nick Punto,23,PHI,NL,1,1,1,9.0,3,1,2,0,0,1.000,0,0,3.00,3.00,SS
882,Paul Quantrill,32,TOR,AL,80,0,0,83.0,16,2,12,2,1,.875,,,1.52,0.18,P
883,Ruben Quevedo,22,MIL,NL,10,10,0,56.2,10,6,4,0,0,1.000,,,1.59,1.00,P
884,Mark Quinn,27,KCR,AL,99,96,93,853.0,210,197,8,5,1,.976,1,2,2.16,2.07,OF
885,Scott Radinsky,33,CLE,AL,2,0,0,2.0,2,0,2,0,0,1.000,,,9.00,1.00,P
886,Brad Radke,28,MIN,AL,33,33,6,226.0,58,13,44,1,4,.983,,,2.27,1.73,P
887,Tim Raines,41,TOT,ZZ,22,19,9,157.0,30,30,0,0,0,1.000,-0,-3,1.72,1.36,OF
888,Tim Raines,21,BAL,AL,7,6,6,56.0,12,12,0,0,0,1.000,-1,-30,1.93,1.71,OF
889,Aramis Ramirez,23,PIT,NL,157,155,145,1345.1,452,92,335,25,33,.945,4,3,2.86,2.72,3B
890,Julio Ramirez,23,CHW,AL,21,12,10,118.0,46,43,2,1,1,.978,2,21,3.43,2.14,OF
891,Manny Ramirez,29,BOS,AL,55,55,53,482.0,99,98,1,0,0,1.000,0,1,1.85,1.80,OF
892,Joe Randa,31,KCR,AL,138,137,127,1199.2,383,114,256,13,32,.966,5,5,2.78,2.68,3B-2B
893,Cody Ransom,25,SFG,NL,6,0,0,9.0,4,0,4,0,0,1.000,0,53,4.00,0.67,SS
894,Pat Rapp,33,ANA,AL,31,28,1,170.0,46,19,26,1,1,.978,,,2.38,1.45,P
895,Britt Reames,27,MON,NL,41,13,0,95.0,24,1,23,0,1,1.000,,,2.27,0.59,P
896,Jeff Reboulet,37,LAD,NL,87,55,39,512.1,248,103,135,10,41,.960,-11,-25,4.18,2.74,SS-2B-3B-OF
897,Tim Redding,23,HOU,NL,13,9,0,55.2,9,4,5,0,1,1.000,,,1.46,0.69,P
898,Mark Redman,27,TOT,AL,11,11,0,58.0,11,1,10,0,1,1.000,,,1.71,1.00,P
899,Tike Redman,24,PIT,NL,35,28,28,260.1,99,92,5,2,2,.980,4,17,3.35,2.77,OF
900,Mike Redmond,30,FLA,NL,47,41,36,361.2,316,291,23,2,5,.994,2,7,7.81,6.68,C
Rk,Name,Age,Tm,Lg,G,GS,CG,Inn,Ch,PO,A,E,DP,Fld%,Rtot,Rtot/yr,RF/9,RF/G,Pos Summary
901,Rick Reed,36,TOT,ZZ,32,32,3,202.1,54,17,36,1,1,.981,,,2.36,1.66,P
902,Steve Reed,36,TOT,ZZ,70,0,0,58.1,17,6,10,1,0,.941,,,2.47,0.23,P
903,Pokey Reese,28,CIN,NL,129,116,103,1028.0,598,217,366,15,62,.975,1,1,5.10,4.52,SS-2B
904,Dan Reichert,24,KCR,AL,27,19,0,123.0,31,17,14,0,3,1.000,,,2.27,1.15,P
905,Brian Reith,23,CIN,NL,9,8,0,40.1,4,1,3,0,0,1.000,,,0.89,0.44,P
906,Chris Reitsma,23,CIN,NL,36,29,0,182.0,52,13,39,0,1,1.000,,,2.57,1.44,P
907,Bryan Rekar,29,TBD,AL,25,25,0,140.2,36,18,16,2,2,.944,,,2.18,1.36,P
908,Desi Relaford,27,NYM,NL,100,69,57,655.1,300,115,174,11,31,.963,-1,-2,3.97,2.89,2B-SS-3B-P
909,Mike Remlinger,35,ATL,NL,74,0,0,75.0,7,1,6,0,0,1.000,,,0.84,0.09,P
910,Edgar Renteria,24,STL,NL,138,133,119,1154.1,623,209,390,24,86,.961,8,8,4.67,4.34,SS-1B
911,Alberto Reyes,30,LAD,NL,19,0,0,25.2,6,3,3,0,0,1.000,,,2.10,0.32,P
912,Dennys Reyes,24,CIN,NL,35,6,0,53.0,8,0,6,2,0,.750,,,1.02,0.17,P
913,Shane Reynolds,33,HOU,NL,28,28,3,182.2,39,9,30,0,2,1.000,,,1.92,1.39,P
914,Armando Reynoso,35,ARI,NL,9,9,0,46.2,13,1,11,1,2,.923,,,2.31,1.33,P
915,Arthur Rhodes,31,SEA,AL,71,0,0,68.0,13,4,9,0,0,1.000,,,1.72,0.18,P
916,Chris Richard,27,BAL,AL,114,106,91,936.2,370,355,15,0,12,1.000,3,4,3.56,3.25,OF-1B
917,John Riedling,25,CIN,NL,29,0,0,33.2,9,3,6,0,0,1.000,,,2.41,0.31,P
918,Paul Rigdon,25,MIL,NL,15,15,0,79.1,21,10,11,0,1,1.000,,,2.38,1.40,P
919,Jerrod Riggan,27,NYM,NL,35,0,0,47.2,7,2,5,0,1,1.000,,,1.32,0.20,P
920,Adam Riggs,28,SDP,NL,12,10,5,81.1,37,13,24,0,5,1.000,1,7,4.09,3.08,2B-3B
921,Jose Rijo,36,CIN,NL,13,0,0,17.0,2,0,1,1,0,.500,,,0.53,0.08,P
922,Juan Rincon,22,MIN,AL,4,0,0,5.2,1,0,1,0,0,1.000,,,1.59,0.25,P
923,Ricardo Rincon,31,CLE,AL,67,0,0,54.0,11,5,5,1,0,.909,,,1.67,0.15,P
924,Armando Rios,29,TOT,NL,89,81,63,732.0,209,196,7,6,2,.971,6,9,2.50,2.28,OF
925,Cal Ripken,40,BAL,AL,111,111,106,981.2,320,97,209,14,23,.956,-1,-1,2.81,2.76,3B
Rk,Name,Age,Tm,Lg,G,GS,CG,Inn,Ch,PO,A,E,DP,Fld%,Rtot,Rtot/yr,RF/9,RF/G,Pos Summary
926,David Riske,24,CLE,AL,26,0,0,27.1,6,1,5,0,2,1.000,,,1.98,0.23,P
927,Todd Ritchie,29,PIT,NL,33,33,4,207.1,44,11,31,2,3,.955,,,1.82,1.27,P
928,Luis Rivas,21,MIN,AL,150,148,138,1304.1,580,230,335,15,65,.974,-14,-13,3.90,3.77,2B
929,Juan Rivera,22,NYY,AL,3,0,0,12.0,1,1,0,0,0,1.000,0,0,0.75,0.33,OF
930,Mariano Rivera,31,NYY,AL,71,0,0,80.2,33,17,15,1,0,.970,,,3.57,0.45,P
931,Mike Rivera,24,DET,AL,4,3,2,26.0,28,24,2,2,0,.929,1,46,9.00,6.50,C
932,Ruben Rivera,27,CIN,NL,99,56,50,585.1,178,171,4,3,2,.983,5,11,2.69,1.77,OF
933,Brian Roberts,23,BAL,AL,63,55,50,494.0,269,97,156,16,31,.941,-6,-14,4.61,4.02,SS-2B
934,Dave Roberts,29,CLE,AL,13,0,0,34.0,8,8,0,0,0,1.000,0,7,2.12,0.62,OF
935,Grant Roberts,23,NYM,NL,16,0,0,26.0,3,2,1,0,0,1.000,,,1.04,0.19,P
936,Willis Roberts,26,BAL,AL,46,18,1,132.0,29,6,21,2,0,.931,,,1.84,0.59,P
937,Kerry Robinson,27,STL,NL,74,31,23,357.2,105,101,2,2,0,.981,8,29,2.59,1.39,OF
938,John Rocker,26,TOT,ZZ,68,0,0,66.2,15,3,8,4,0,.733,,,1.48,0.16,P
939,Alex Rodriguez,25,TEX,AL,161,161,143,1395.1,749,279,452,18,118,.976,-9,-8,4.72,4.54,SS
940,Felix Rodriguez,28,SFG,NL,80,0,0,80.1,4,1,2,1,0,.750,,,0.34,0.04,P
941,Frankie Rodriguez,28,CIN,NL,7,0,0,8.2,3,0,3,0,0,1.000,,,3.12,0.43,P
942,Ivan Rodriguez,29,TEX,AL,106,101,83,855.1,690,631,52,7,11,.990,12,17,7.19,6.44,C
943,Rich Rodriguez,38,CLE,AL,53,0,0,39.0,10,0,10,0,1,1.000,,,2.31,0.19,P
944,Wilfredo Rodriguez,22,HOU,NL,2,0,0,3.0,0,0,0,0,0,,,,0.00,0.00,P
945,Kenny Rogers,36,TEX,AL,20,20,0,120.2,41,6,34,1,3,.976,,,2.98,2.00,P
946,Scott Rolen,26,PHI,NL,151,151,143,1329.1,441,104,325,12,22,.973,10,9,2.90,2.84,3B
947,Jimmy Rollins,22,PHI,NL,157,156,153,1388.1,656,216,426,14,99,.979,-8,-7,4.16,4.09,SS
948,Damian Rolls,23,TBD,AL,68,57,56,521.0,234,110,118,6,21,.974,-1,-3,3.94,3.35,2B-OF-3B
949,J.C. Romero,25,MIN,AL,14,11,0,65.0,22,9,11,2,0,.909,,,2.77,1.43,P
950,Brian Rose,25,TOT,ZZ,10,3,0,29.0,6,0,6,0,0,1.000,,,1.86,0.60,P
Rk,Name,Age,Tm,Lg,G,GS,CG,Inn,Ch,PO,A,E,DP,Fld%,Rtot,Rtot/yr,RF/9,RF/G,Pos Summary
951,Aaron Rowand,23,CHW,AL,61,34,17,342.0,107,103,3,1,0,.991,3,12,2.79,1.74,OF
952,Kirk Rueter,30,SFG,NL,34,34,0,195.1,61,11,50,0,11,1.000,,,2.81,1.79,P
953,Johnny Ruffin,29,FLA,NL,3,0,0,3.2,0,0,0,0,0,,,,0.00,0.00,P
954,Ryan Rupe,26,TBD,AL,28,26,0,143.1,19,5,12,2,0,.895,,,1.07,0.61,P
955,Glendon Rusch,26,NYM,NL,33,33,1,179.0,16,5,9,2,2,.875,,,0.70,0.42,P
956,B.J. Ryan,25,BAL,AL,61,0,0,53.0,6,0,4,2,0,.667,,,0.68,0.07,P
957,Rob Ryan,28,OAK,AL,5,0,0,10.0,2,2,0,0,0,1.000,0,12,1.80,0.40,OF
958,CC Sabathia,20,CLE,AL,33,33,0,180.1,25,3,21,1,1,.960,,,1.20,0.73,P
959,Erik Sabel,26,ARI,NL,42,0,0,51.1,8,3,5,0,1,1.000,,,1.40,0.19,P
960,Bret Saberhagen,37,BOS,AL,3,3,0,15.0,4,1,3,0,0,1.000,,,2.40,1.33,P
961,Donnie Sadler,26,TOT,MLB,85,50,30,478.1,243,101,137,5,29,.979,11,27,4.48,2.80,2B-OF-SS-3B
962,Olmedo Saenz,30,OAK,AL,42,25,20,262.2,241,201,35,5,16,.979,2,9,8.09,5.62,1B-3B
963,Tim Salmon,32,ANA,AL,125,124,116,1087.1,270,254,13,3,5,.989,-5,-6,2.21,2.14,OF
964,Alex Sanchez,24,MIL,NL,19,12,9,126.0,27,24,2,1,0,.963,-1,-10,1.86,1.37,OF
965,Jesus Sanchez,26,FLA,NL,16,9,0,62.2,8,2,5,1,0,.875,,,1.01,0.44,P
966,Rey Sanchez,33,TOT,ZZ,148,142,124,1242.1,702,217,479,6,130,.991,26,25,5.04,4.70,SS
967,Jared Sandberg,23,TBD,AL,39,38,37,340.2,107,33,68,6,7,.944,3,10,2.67,2.59,3B-1B
968,Anthony Sanders,27,SEA,AL,9,6,1,46.0,13,13,0,0,0,1.000,1,16,2.54,1.44,OF
969,Deion Sanders,33,CIN,NL,16,16,9,129.2,38,34,4,0,1,1.000,0,4,2.64,2.38,OF
970,Reggie Sanders,33,ARI,NL,119,117,102,1019.2,237,231,5,1,3,.996,9,11,2.08,1.98,OF
971,Johan Santana,22,MIN,AL,15,4,0,43.2,8,0,6,2,1,.750,,,1.24,0.40,P
972,Pedro Santana,24,DET,AL,1,0,0,1.0,1,1,0,0,0,1.000,0,0,9.00,1.00,2B
973,F.P. Santangelo,33,OAK,AL,29,20,13,187.0,83,43,40,0,7,1.000,2,11,3.99,2.86,2B-OF-3B
974,Benito Santiago,36,SFG,NL,132,120,107,1088.0,904,837,62,5,12,.994,-1,-1,7.44,6.81,C-1B
975,Jose Santiago,26,TOT,ZZ,73,0,0,91.2,20,8,11,1,1,.950,,,1.87,0.26,P
Rk,Name,Age,Tm,Lg,G,GS,CG,Inn,Ch,PO,A,E,DP,Fld%,Rtot,Rtot/yr,RF/9,RF/G,Pos Summary
976,Angel Santos,21,BOS,AL,6,4,3,39.0,21,7,12,2,0,.905,-1,-31,4.38,3.17,2B
977,Victor Santos,24,DET,AL,33,7,0,76.1,13,1,11,1,0,.923,,,1.41,0.36,P
978,Kazuhiro Sasaki,33,SEA,AL,69,0,0,66.2,9,6,2,1,2,.889,,,1.08,0.12,P
979,Luis Saturria,24,STL,NL,9,0,0,11.0,2,2,0,0,0,1.000,0,11,1.64,0.22,OF
980,Scott Sauerbeck,29,PIT,NL,70,0,0,62.2,7,1,5,1,0,.857,,,0.86,0.09,P
981,Bob Scanlan,34,MON,NL,18,0,0,26.1,9,4,4,1,0,.889,,,2.73,0.44,P
982,Curt Schilling,34,ARI,NL,35,35,6,256.2,37,15,21,1,4,.973,,,1.26,1.03,P
983,Jason Schmidt,28,TOT,NL,25,25,1,150.1,15,6,9,0,0,1.000,,,0.90,0.60,P
984,Brian Schneider,24,MON,NL,14,9,9,87.0,84,77,7,0,1,1.000,1,14,8.69,6.00,C
985,Scott Schoeneweis,27,ANA,AL,32,32,1,205.1,47,11,36,0,5,1.000,,,2.06,1.47,P
986,Pete Schourek,32,BOS,AL,33,0,0,30.1,10,2,7,1,3,.900,,,2.67,0.27,P
987,Rudy Seanez,32,TOT,NL,38,0,0,36.0,7,4,3,0,0,1.000,,,1.75,0.18,P
988,Bobby Seay,23,TBD,AL,12,0,0,13.0,4,1,2,1,0,.750,,,2.08,0.25,P
989,Chris Seelbach,28,ATL,NL,5,0,0,8.0,0,0,0,0,0,,,,0.00,0.00,P
990,David Segui,34,BAL,AL,65,65,57,546.2,529,487,33,9,49,.983,-4,-9,8.56,8.00,1B
991,Fernando Seguignol,26,MON,NL,20,5,2,62.1,34,28,4,2,3,.941,-0,-4,4.62,1.60,OF-1B
992,Bill Selby,31,CIN,NL,31,26,14,210.0,105,46,57,2,15,.981,-4,-22,4.41,3.32,2B-3B-1B
993,Aaron Sele,31,SEA,AL,34,33,2,215.0,33,15,17,1,1,.970,,,1.34,0.94,P
994,Wascar Serrano,23,SDP,NL,20,5,0,46.2,13,2,11,0,0,1.000,,,2.51,0.65,P
995,Scott Servais,34,HOU,NL,9,2,2,32.2,39,38,1,0,0,1.000,0,0,10.74,4.33,C
996,Richie Sexson,26,MIL,NL,158,157,147,1372.2,1493,1356,129,8,126,.995,-0,-0,9.74,9.40,1B
997,Jeff Shaw,34,LAD,NL,77,0,0,74.2,22,8,14,0,0,1.000,,,2.65,0.29,P
998,Andy Sheets,29,TBD,AL,49,47,42,406.0,203,80,121,2,29,.990,-3,-9,4.46,4.10,SS
999,Ben Sheets,22,MIL,NL,25,25,1,151.1,36,10,24,2,2,.944,,,2.02,1.36,P
1000,Gary Sheffield,32,LAD,NL,141,141,110,1202.0,218,195,17,6,0,.972,-15,-15,1.59,1.50,OF
Rk,Name,Age,Tm,Lg,G,GS,CG,Inn,Ch,PO,A,E,DP,Fld%,Rtot,Rtot/yr,RF/9,RF/G,Pos Summary
1001,Scott Sheldon,32,TEX,AL,58,31,23,313.1,134,51,77,6,4,.955,4,14,3.68,2.21,3B-SS-OF-C
1002,Scot Shields,25,ANA,AL,8,0,0,11.0,4,1,1,2,1,.500,,,1.64,0.25,P
1003,Tsuyoshi Shinjo,29,NYM,NL,119,99,76,916.2,271,256,12,3,3,.989,12,15,2.63,2.25,OF
1004,Paul Shuey,30,CLE,AL,47,0,0,54.1,9,1,4,4,1,.556,,,0.83,0.11,P
1005,Terry Shumpert,34,COL,NL,81,51,30,453.2,196,96,92,8,22,.959,0,1,3.73,2.32,2B-OF-3B-SS
1006,Ruben Sierra,35,TEX,AL,36,33,18,280.0,63,59,0,4,0,.937,-8,-36,1.90,1.64,OF
1007,Jose Silva,27,PIT,NL,26,0,0,32.0,5,1,4,0,0,1.000,,,1.41,0.19,P
1008,Brian Simmons,27,TOR,AL,37,15,14,206.0,60,59,1,0,0,1.000,3,16,2.62,1.62,OF
1009,Randall Simon,26,DET,AL,43,38,36,342.0,382,353,26,3,39,.992,-1,-4,9.97,8.81,1B
1010,Chris Singleton,28,CHW,AL,133,106,87,960.0,321,310,8,3,2,.991,11,13,2.98,2.39,OF
1011,Joe Slusarski,34,TOT,NL,12,0,0,16.0,3,2,1,0,0,1.000,,,1.69,0.25,P
1012,J.D. Smart,27,TEX,AL,15,0,0,15.1,1,0,1,0,0,1.000,,,0.59,0.07,P
1013,Bob Smith,27,TBD,AL,6,6,6,51.0,24,12,11,1,3,.958,-2,-38,4.06,3.83,2B
1014,Bud Smith,21,STL,NL,16,14,1,84.2,21,3,18,0,0,1.000,,,2.23,1.31,P
1015,Chuck Smith,31,FLA,NL,15,15,0,88.0,19,10,8,1,1,.947,,,1.84,1.20,P
1016,Jason Smith,23,CHC,NL,1,0,0,1.0,2,2,0,0,0,1.000,-0,-120,18.00,2.00,SS
1017,Mark Smith,31,MON,NL,61,49,36,432.1,102,100,2,0,1,1.000,-1,-3,2.12,1.67,OF-1B
1018,Roy Smith,25,CLE,AL,9,0,0,16.1,2,0,1,1,1,.500,,,0.55,0.11,P
1019,John Smoltz,34,ATL,NL,36,5,0,59.0,16,8,7,1,0,.938,,,2.29,0.42,P
1020,J.T. Snow,33,SFG,NL,92,80,65,695.0,706,658,47,1,76,.999,1,2,9.13,7.66,1B
1021,Scott Sobkowiak,23,ATL,NL,1,0,0,1.0,0,0,0,0,0,,,,0.00,0.00,P
1022,Luis Sojo,36,NYY,AL,37,18,15,188.0,95,51,42,2,6,.979,1,6,4.45,2.51,3B-SS-1B-2B
1023,Alfonso Soriano,25,NYY,AL,156,156,148,1384.1,703,318,366,19,93,.973,-19,-16,4.45,4.38,2B
1024,Juan Sosa,25,ARI,NL,1,0,0,1.0,1,0,1,0,0,1.000,0,240,9.00,1.00,3B
1025,Sammy Sosa,32,CHC,NL,160,160,143,1385.0,340,326,8,6,1,.982,6,6,2.17,2.09,OF
Rk,Name,Age,Tm,Lg,G,GS,CG,Inn,Ch,PO,A,E,DP,Fld%,Rtot,Rtot/yr,RF/9,RF/G,Pos Summary
1026,Steve Sparks,35,DET,AL,35,33,8,232.0,64,20,43,1,1,.984,,,2.44,1.80,P
1027,Justin Speier,27,TOT,ZZ,54,0,0,76.2,6,2,4,0,0,1.000,,,0.70,0.11,P
1028,Shane Spencer,29,NYY,AL,68,59,54,556.1,147,139,7,1,0,.993,10,21,2.36,2.15,OF
1029,Scott Spiezio,28,ANA,AL,133,101,82,911.2,925,840,83,2,65,.998,13,17,9.11,6.94,1B-OF-3B
1030,Junior Spivey,26,ARI,NL,67,39,35,393.0,203,96,104,3,27,.985,-2,-5,4.58,2.99,2B-SS
1031,Tim Spooneybarger,21,ATL,NL,4,0,0,4.0,0,0,0,0,0,,,,0.00,0.00,P
1032,Ed Sprague,33,SEA,AL,30,21,6,168.1,83,68,13,2,4,.976,1,5,4.33,2.70,1B-3B-OF-C
1033,Dennis Springer,36,LAD,NL,4,3,0,19.0,2,1,1,0,0,1.000,,,0.95,0.50,P
1034,Russ Springer,32,ARI,NL,18,0,0,17.2,5,1,3,1,0,.800,,,2.04,0.22,P
1035,Matt Stairs,33,CHC,NL,112,93,52,781.2,603,547,52,4,38,.993,2,3,6.90,5.35,1B-OF-2B
1036,Jason Standridge,22,TBD,AL,9,1,0,19.1,2,1,1,0,0,1.000,,,0.93,0.22,P
1037,Mike Stanton,34,NYY,AL,76,0,0,80.1,18,6,10,2,1,.889,,,1.79,0.21,P
1038,Denny Stark,26,SEA,AL,4,3,0,14.2,2,2,0,0,0,1.000,,,1.23,0.50,P
1039,Gene Stechschulte,27,STL,NL,67,0,0,70.0,18,7,10,1,1,.944,,,2.19,0.25,P
1040,Blake Stein,27,KCR,AL,36,15,0,131.0,14,6,8,0,0,1.000,,,0.96,0.39,P
1041,Lee Stevens,33,MON,NL,152,149,137,1304.0,1398,1287,92,19,113,.986,-10,-9,9.52,9.07,1B
1042,Scott Stewart,25,MON,NL,62,0,0,47.2,12,0,11,1,1,.917,,,2.08,0.18,P
1043,Shannon Stewart,27,TOR,AL,142,142,115,1216.1,269,257,7,5,0,.981,2,2,1.95,1.86,OF
1044,Kelly Stinnett,31,CIN,NL,59,51,41,462.2,355,322,21,12,3,.966,-5,-13,6.67,5.81,C
1045,Ricky Stone,26,HOU,NL,6,0,0,7.2,0,0,0,0,0,,,,0.00,0.00,P
1046,Scott Strickland,25,MON,NL,77,0,0,81.1,14,3,9,2,2,.857,,,1.33,0.16,P
1047,Joe Strong,38,FLA,NL,5,0,0,6.2,4,0,4,0,0,1.000,,,5.40,0.80,P
1048,Tanyon Sturtze,30,TBD,AL,39,27,0,195.1,33,12,21,0,2,1.000,,,1.52,0.85,P
1049,Chris Stynes,28,BOS,AL,92,87,71,763.0,294,109,179,6,23,.980,-1,-2,3.40,3.13,3B-2B-OF
1050,Scott Sullivan,30,CIN,NL,79,0,0,103.1,16,6,10,0,0,1.000,,,1.39,0.20,P
Rk,Name,Age,Tm,Lg,G,GS,CG,Inn,Ch,PO,A,E,DP,Fld%,Rtot,Rtot/yr,RF/9,RF/G,Pos Summary
1051,Jeff Suppan,26,KCR,AL,34,34,1,218.1,52,18,33,1,1,.981,,,2.10,1.50,P
1052,B.J. Surhoff,36,ATL,NL,129,120,103,1055.0,211,200,8,3,0,.986,4,4,1.77,1.61,OF
1053,Larry Sutton,31,STL,NL,14,3,0,45.2,44,39,5,0,3,1.000,2,47,8.67,3.14,1B-OF
1054,Ichiro Suzuki,27,SEA,AL,152,148,137,1313.2,344,335,8,1,2,.997,15,14,2.35,2.26,OF
1055,Mac Suzuki,26,TOT,ZZ,33,19,0,118.1,22,5,16,1,0,.955,,,1.60,0.64,P
1056,Mark Sweeney,31,MIL,NL,22,19,10,161.0,34,33,0,1,2,.971,-3,-25,1.84,1.50,OF-1B
1057,Mike Sweeney,27,KCR,AL,108,108,90,931.1,1045,945,88,12,124,.989,8,10,9.98,9.56,1B
1058,Greg Swindell,36,ARI,NL,64,0,0,53.2,4,1,3,0,1,1.000,,,0.67,0.06,P
1059,Jeff Tabaka,37,STL,NL,8,0,0,3.2,2,0,2,0,0,1.000,,,4.91,0.25,P
1060,Jeff Tam,30,OAK,AL,70,0,0,74.2,14,3,11,0,1,1.000,,,1.69,0.20,P
1061,Kevin Tapani,37,CHC,NL,29,29,0,168.1,36,5,30,1,1,.972,,,1.87,1.21,P
1062,Fernando Tatis,26,MON,NL,41,40,35,339.2,81,18,54,9,2,.889,-10,-36,1.91,1.76,3B
1063,Ed Taubensee,32,CLE,AL,38,28,19,247.2,218,212,3,3,0,.986,-4,-19,7.81,5.66,C
1064,Julian Tavarez,28,CHC,NL,34,28,0,161.1,48,14,31,3,6,.938,,,2.51,1.32,P
1065,Billy Taylor,39,PIT,NL,1,0,0,2.0,0,0,0,0,0,,,,0.00,0.00,P
1066,Reggie Taylor,24,PHI,NL,2,1,1,15.0,4,4,0,0,0,1.000,1,48,2.40,2.00,OF
1067,Miguel Tejada,27,OAK,AL,162,160,154,1431.1,749,256,473,20,93,.973,-1,-1,4.58,4.50,SS
1068,Amaury Telemaco,27,PHI,NL,24,14,1,89.1,18,6,11,1,2,.944,,,1.71,0.71,P
1069,Anthony Telford,35,MON,NL,8,0,0,7.0,2,1,1,0,0,1.000,,,2.57,0.25,P
1070,Brad Thomas,23,MIN,AL,5,5,0,16.1,4,0,4,0,0,1.000,,,2.20,0.80,P
1071,Frank Thomas,33,CHW,AL,3,3,2,19.2,22,20,1,1,2,.955,-0,-31,9.61,7.00,1B
1072,Jim Thome,30,CLE,AL,148,144,138,1280.2,1265,1177,78,10,105,.992,-9,-8,8.82,8.48,1B
1073,Ryan Thompson,33,FLA,NL,16,6,5,73.1,13,11,1,1,0,.923,-3,-43,1.47,0.75,OF
1074,John Thomson,27,COL,NL,14,14,1,93.2,26,17,8,1,3,.962,,,2.40,1.79,P
1075,Mike Thurman,27,MON,NL,28,26,0,147.0,29,10,18,1,1,.966,,,1.71,1.00,P
Rk,Name,Age,Tm,Lg,G,GS,CG,Inn,Ch,PO,A,E,DP,Fld%,Rtot,Rtot/yr,RF/9,RF/G,Pos Summary
1076,Mike Timlin,35,STL,NL,67,0,0,72.2,21,6,14,1,2,.952,,,2.48,0.30,P
1077,Jorge Toca,26,NYM,NL,5,1,1,20.0,17,16,1,0,1,1.000,0,24,7.65,3.40,1B-OF
1078,Kevin Tolar,30,DET,AL,9,0,0,10.2,2,0,2,0,0,1.000,,,1.69,0.22,P
1079,Brian Tollberg,28,SDP,NL,19,19,0,117.1,28,6,20,2,1,.929,,,1.99,1.37,P
1080,Brett Tomko,28,SEA,AL,11,4,0,34.2,5,2,3,0,1,1.000,,,1.30,0.45,P
1081,Steve Torrealba,23,ATL,NL,2,0,0,3.0,2,2,0,0,0,1.000,0,0,6.00,1.00,C
1082,Yorvit Torrealba,22,SFG,NL,3,1,1,12.0,8,8,0,0,0,1.000,0,0,6.00,2.67,C
1083,Josh Towers,24,BAL,AL,24,20,1,140.1,30,10,19,1,2,.967,,,1.86,1.21,P
1084,Steve Trachsel,30,NYM,NL,28,28,1,173.2,36,15,20,1,3,.972,,,1.81,1.25,P
1085,Andy Tracy,27,MON,NL,14,9,4,77.1,28,16,12,0,1,1.000,-1,-14,3.26,2.00,3B-1B
1086,Bubba Trammell,29,SDP,NL,132,124,94,1073.1,270,261,5,4,0,.985,4,5,2.23,2.02,OF
1087,Mike Trombley,34,TOT,ZZ,69,0,0,78.0,12,6,6,0,0,1.000,,,1.38,0.17,P
1088,Chris Truby,27,HOU,NL,36,33,33,301.0,79,18,55,6,4,.924,-3,-11,2.18,2.03,3B-1B
1089,Michael Tucker,30,TOT,NL,131,105,46,976.1,272,251,15,6,3,.978,4,5,2.45,2.03,OF-1B
1090,Jason Tyner,24,TBD,AL,100,89,81,810.0,232,219,8,5,1,.978,2,2,2.52,2.27,OF
1091,Ugueth Urbina,27,TOT,ZZ,64,0,0,66.2,8,1,7,0,0,1.000,,,1.08,0.13,P
1092,Juan Uribe,22,COL,NL,69,67,64,594.2,297,108,184,5,45,.983,5,11,4.42,4.23,SS
1093,Marc Valdes,29,ATL,NL,9,0,0,7.0,1,1,0,0,1,1.000,,,1.29,0.11,P
1094,Ismael Valdez,27,ANA,AL,27,27,1,163.2,41,7,34,0,2,1.000,,,2.25,1.52,P
1095,Mario Valdez,26,OAK,AL,13,5,4,59.0,26,25,1,0,3,1.000,-0,-4,3.97,2.00,OF-1B
1096,Eric Valent,24,PHI,NL,8,6,3,50.0,22,20,2,0,0,1.000,4,103,3.96,2.75,OF
1097,John Valentin,34,BOS,AL,21,16,15,152.1,68,23,43,2,9,.971,0,3,3.90,3.14,SS-3B
1098,Jose Valentin,31,CHW,AL,133,111,83,957.1,415,159,234,22,44,.947,3,4,3.69,2.95,3B-SS-OF
1099,Todd Van Poppel,29,CHC,NL,59,0,0,75.0,14,2,8,4,2,.714,,,1.20,0.17,P
1100,John Vander Wal,35,TOT,NL,128,119,60,970.0,312,301,7,4,13,.987,-6,-8,2.86,2.41,OF-1B
Rk,Name,Age,Tm,Lg,G,GS,CG,Inn,Ch,PO,A,E,DP,Fld%,Rtot,Rtot/yr,RF/9,RF/G,Pos Summary
1101,Jason Varitek,29,BOS,AL,50,47,45,426.2,459,425,32,2,2,.996,1,3,9.64,9.14,C
1102,Greg Vaughn,35,TBD,AL,57,57,45,459.0,134,127,4,3,2,.978,2,6,2.57,2.30,OF
1103,Javier Vazquez,24,MON,NL,32,32,5,223.2,56,24,32,0,10,1.000,,,2.25,1.75,P
1104,Ramon Vazquez,24,SEA,AL,18,8,6,85.0,32,14,17,1,3,.969,-1,-10,3.28,1.72,SS-2B-3B
1105,Jorge Velandia,26,NYM,NL,9,2,2,34.1,10,2,8,0,2,1.000,0,14,2.62,1.11,SS-3B
1106,Randy Velarde,38,TOT,AL,81,73,68,647.0,374,205,164,5,46,.987,3,6,5.13,4.56,2B-3B-1B-OF
1107,Mike Venafro,27,TEX,AL,70,0,0,60.0,21,4,13,4,4,.810,,,2.55,0.24,P
1108,Robin Ventura,33,NYM,NL,139,130,111,1141.1,371,91,264,16,24,.957,6,7,2.80,2.55,3B
1109,Quilvio Veras,30,ATL,NL,67,64,57,558.0,316,132,181,3,37,.991,8,17,5.05,4.67,2B
1110,Dave Veres,34,STL,NL,71,0,0,65.2,12,3,7,2,0,.833,,,1.37,0.14,P
1111,Jose Vidro,26,MON,NL,121,121,108,1035.1,528,204,315,9,63,.983,-6,-6,4.51,4.29,2B
1112,Brandon Villafuerte,25,TEX,AL,6,0,0,5.2,1,0,1,0,0,1.000,,,1.59,0.17,P
1113,Ron Villone,31,TOT,NL,53,12,0,114.2,17,4,13,0,1,1.000,,,1.33,0.32,P
1114,Fernando Vina,32,STL,NL,151,149,139,1299.1,705,313,383,9,100,.987,1,1,4.82,4.61,2B
1115,Ken Vining,26,CHW,AL,8,0,0,6.2,2,1,1,0,0,1.000,,,2.70,0.25,P
1116,Jose Vizcaino,33,HOU,NL,78,47,34,455.0,228,72,142,14,27,.939,-2,-7,4.23,2.74,SS-2B-3B
1117,Luis Vizcaino,26,OAK,AL,36,0,0,36.2,3,0,3,0,0,1.000,,,0.74,0.08,P
1118,Omar Vizquel,34,CLE,AL,154,152,140,1320.2,640,219,414,7,88,.989,-8,-7,4.31,4.11,SS
1119,Ryan Vogelsong,23,TOT,NL,15,2,0,34.2,11,4,6,1,2,.909,,,2.60,0.67,P
1120,Ed Vosberg,39,PHI,NL,18,0,0,12.2,2,1,1,0,0,1.000,,,1.42,0.11,P
1121,Brad Voyles,24,KCR,AL,7,0,0,9.1,0,0,0,0,0,,,,0.00,0.00,P
1122,Billy Wagner,29,HOU,NL,64,0,0,62.2,7,1,5,1,0,.857,,,0.86,0.09,P
1123,Tim Wakefield,34,BOS,AL,45,17,0,168.2,38,14,22,2,0,.947,,,1.92,0.80,P
1124,Chris Wakeland,27,DET,AL,10,10,9,85.0,34,32,0,2,0,.941,4,59,3.39,3.20,OF
1125,Kevin Walker,24,SDP,NL,16,0,0,12.0,1,0,1,0,0,1.000,,,0.75,0.06,P
Rk,Name,Age,Tm,Lg,G,GS,CG,Inn,Ch,PO,A,E,DP,Fld%,Rtot,Rtot/yr,RF/9,RF/G,Pos Summary
1126,Larry Walker,34,COL,NL,129,126,106,1097.0,255,243,8,4,4,.984,14,16,2.06,1.95,OF
1127,Pete Walker,32,NYM,NL,2,0,0,6.2,1,1,0,0,0,1.000,,,1.35,0.50,P
1128,Todd Walker,28,TOT,NL,143,134,117,1169.1,671,293,367,11,82,.984,-4,-4,5.08,4.62,2B-SS
1129,Donne Wall,33,NYM,NL,32,0,0,42.2,11,4,7,0,0,1.000,,,2.32,0.34,P
1130,Jeff Wallace,25,TBD,AL,29,1,0,50.1,8,0,8,0,0,1.000,,,1.43,0.28,P
1131,Daryle Ward,26,HOU,NL,51,43,17,359.2,84,81,2,1,3,.988,-4,-14,2.08,1.63,OF-1B
1132,John Wasdin,28,TOT,ZZ,44,0,0,74.0,11,5,6,0,0,1.000,,,1.34,0.25,P
1133,Jarrod Washburn,26,ANA,AL,30,30,1,193.1,34,6,26,2,0,.941,,,1.49,1.07,P
1134,David Weathers,31,TOT,NL,80,0,0,86.0,20,4,14,2,1,.900,,,1.88,0.23,P
1135,Jeff Weaver,24,DET,AL,33,33,5,229.1,49,21,28,0,4,1.000,,,1.92,1.48,P
1136,Ben Weber,31,ANA,AL,56,0,0,68.1,18,2,14,2,2,.889,,,2.11,0.29,P
1137,John Wehner,34,PIT,NL,27,10,3,98.0,71,62,8,1,5,.986,-1,-13,6.43,2.59,1B-OF-3B-2B-C
1138,Bob Wells,34,MIN,AL,65,0,0,68.2,9,1,8,0,1,1.000,,,1.18,0.14,P
1139,David Wells,38,CHW,AL,16,16,1,100.2,18,4,10,4,1,.778,,,1.25,0.88,P
1140,Kip Wells,24,CHW,AL,40,20,0,133.1,31,9,19,3,1,.903,,,1.89,0.70,P
1141,Vernon Wells,22,TOR,AL,30,23,22,222.1,65,61,2,2,0,.969,1,4,2.55,2.10,OF
1142,Turk Wendell,34,TOT,NL,70,0,0,67.0,18,11,7,0,1,1.000,,,2.42,0.26,P
1143,Don Wengert,31,PIT,NL,4,4,0,16.0,4,0,4,0,0,1.000,,,2.25,1.00,P
1144,Jake Westbrook,23,CLE,AL,23,6,0,64.2,20,4,15,1,1,.950,,,2.64,0.83,P
1145,Dan Wheeler,23,TBD,AL,13,0,0,17.2,6,3,3,0,1,1.000,,,3.06,0.46,P
1146,Devon White,38,MIL,NL,100,91,76,784.0,193,190,3,0,1,1.000,-13,-20,2.22,1.93,OF
1147,Gabe White,29,COL,NL,69,0,0,67.2,9,3,6,0,1,1.000,,,1.20,0.13,P
1148,Rick White,32,NYM,NL,55,0,0,69.2,11,3,7,1,1,.909,,,1.29,0.18,P
1149,Rondell White,29,CHC,NL,90,88,45,688.0,140,133,4,3,0,.979,-6,-10,1.79,1.52,OF
1150,Matt Whiteside,33,ATL,NL,13,0,0,16.1,5,2,1,2,0,.600,,,1.65,0.23,P
Rk,Name,Age,Tm,Lg,G,GS,CG,Inn,Ch,PO,A,E,DP,Fld%,Rtot,Rtot/yr,RF/9,RF/G,Pos Summary
1151,Bob Wickman,32,CLE,AL,70,0,0,67.2,16,8,8,0,0,1.000,,,2.13,0.23,P
1152,Brad Wilkerson,24,MON,NL,38,34,28,300.2,66,62,2,2,0,.970,-2,-6,1.92,1.68,OF
1153,Marc Wilkins,30,PIT,NL,14,0,0,17.1,4,1,3,0,0,1.000,,,2.08,0.29,P
1154,Rick Wilkins,34,SDP,NL,8,3,1,34.2,39,39,0,0,0,1.000,-1,-35,10.12,4.88,C-1B
1155,Bernie Williams,32,NYY,AL,144,143,132,1266.2,353,348,3,2,1,.994,-7,-7,2.49,2.44,OF
1156,David Williams,22,PIT,NL,22,18,0,114.0,25,6,19,0,1,1.000,,,1.97,1.14,P
1157,Gerald Williams,34,TOT,AL,85,63,61,598.2,216,208,5,3,1,.986,2,5,3.20,2.51,OF
1158,Jeff Williams,29,LAD,NL,15,1,0,24.1,9,4,5,0,1,1.000,,,3.33,0.60,P
1159,Matt Williams,35,ARI,NL,104,101,85,866.1,251,60,182,9,18,.964,3,4,2.51,2.33,3B-SS
1160,Mike Williams,32,TOT,NL,65,0,0,64.0,13,5,7,1,1,.923,,,1.69,0.18,P
1161,Todd Williams,30,NYY,AL,15,0,0,15.1,6,1,3,2,0,.667,,,2.35,0.27,P
1162,Woody Williams,34,TOT,NL,34,34,3,220.0,43,16,23,4,3,.907,,,1.60,1.15,P
1163,Scott Williamson,25,CIN,NL,2,0,0,0.2,0,0,0,0,0,,,,0.00,0.00,P
1164,Craig Wilson,24,PIT,NL,50,33,11,273.2,223,205,15,3,16,.987,-1,-5,7.24,4.40,1B-OF-C
1165,Dan Wilson,32,SEA,AL,124,105,88,943.0,747,714,32,1,1,.999,6,8,7.12,6.02,C-1B
1166,Enrique Wilson,27,TOT,ZZ,86,51,41,501.0,256,85,165,6,34,.977,2,5,4.49,2.91,SS-3B-2B
1167,Jack Wilson,23,PIT,NL,107,105,87,883.2,494,136,342,16,67,.968,9,12,4.87,4.47,SS
1168,Kris Wilson,24,KCR,AL,29,15,0,109.1,25,12,11,2,4,.920,,,1.89,0.79,P
1169,Paul Wilson,28,TBD,AL,37,24,0,151.1,18,4,13,1,2,.944,,,1.01,0.46,P
1170,Preston Wilson,26,FLA,NL,121,120,113,1049.1,301,287,12,2,4,.993,3,4,2.56,2.47,OF
1171,Tom Wilson,30,OAK,AL,9,6,5,61.0,39,35,3,1,0,.974,-2,-39,5.61,4.22,C
1172,Vance Wilson,28,NYM,NL,27,15,14,145.2,140,130,9,1,1,.993,2,16,8.59,5.15,C
1173,Scott Winchester,28,CIN,NL,12,1,0,24.0,7,3,4,0,0,1.000,,,2.62,0.58,P
1174,Randy Winn,27,TBD,AL,117,106,104,963.0,262,245,12,5,0,.981,-8,-9,2.40,2.20,OF
1175,Matt Wise,25,ANA,AL,11,9,0,49.1,3,1,2,0,0,1.000,,,0.55,0.27,P
Rk,Name,Age,Tm,Lg,G,GS,CG,Inn,Ch,PO,A,E,DP,Fld%,Rtot,Rtot/yr,RF/9,RF/G,Pos Summary
1176,Jay Witasick,28,TOT,ZZ,63,0,0,79.0,13,1,8,4,1,.692,,,1.03,0.14,P
1177,Bobby Witt,37,ARI,NL,14,7,0,43.1,7,1,6,0,0,1.000,,,1.45,0.50,P
1178,Kevin Witt,25,SDP,NL,9,6,6,59.0,72,69,3,0,4,1.000,0,0,10.98,8.00,1B
1179,Mark Wohlers,31,TOT,ZZ,61,0,0,67.2,14,1,10,3,0,.786,,,1.46,0.18,P
1180,Randy Wolf,24,PHI,NL,28,25,4,163.0,24,4,19,1,2,.958,,,1.27,0.82,P
1181,Tony Womack,31,ARI,NL,119,114,101,1014.2,485,152,311,22,74,.955,9,11,4.11,3.89,SS-OF
1182,Kerry Wood,24,CHC,NL,28,28,1,174.1,34,11,22,1,1,.971,,,1.70,1.18,P
1183,Steve Woodard,26,CLE,AL,29,10,0,97.0,23,7,14,2,3,.913,,,1.95,0.72,P
1184,Chris Woodward,25,TOR,AL,33,19,13,187.2,119,34,77,8,17,.933,1,7,5.32,3.36,2B-3B-SS-1B
1185,Shawn Wooten,28,ANA,AL,47,36,14,294.1,255,231,22,2,19,.992,3,12,7.74,5.38,C-1B-3B
1186,Tim Worrell,33,SFG,NL,73,0,0,78.1,16,4,10,2,1,.875,,,1.61,0.19,P
1187,Dan Wright,23,CHW,AL,13,12,0,66.1,17,4,11,2,1,.882,,,2.04,1.15,P
1188,Jamey Wright,26,MIL,NL,33,33,1,194.2,49,17,31,1,4,.980,,,2.22,1.45,P
1189,Jaret Wright,25,CLE,AL,7,7,0,29.0,6,1,5,0,0,1.000,,,1.86,0.86,P
1190,Kelly Wunsch,28,CHW,AL,33,0,0,22.1,5,0,5,0,0,1.000,,,2.01,0.15,P
1191,Esteban Yan,26,TBD,AL,54,0,0,62.1,15,9,6,0,0,1.000,,,2.17,0.28,P
1192,Masato Yoshii,36,MON,NL,42,11,0,113.0,26,5,18,3,1,.885,,,1.83,0.55,P
1193,Dmitri Young,27,CIN,NL,161,135,93,1155.2,481,381,84,16,26,.967,-8,-8,3.62,2.89,OF-3B-1B
1194,Eric Young,34,CHC,NL,147,145,123,1244.2,641,263,366,12,67,.981,-2,-2,4.55,4.28,2B
1195,Kevin Young,32,PIT,NL,137,125,108,1079.0,1231,1154,70,7,118,.994,5,5,10.21,8.93,1B
1196,Michael Young,24,TEX,AL,104,102,101,915.1,504,212,284,8,79,.984,-4,-5,4.88,4.77,2B
1197,Carlos Zambrano,20,CHC,NL,6,1,0,7.2,2,0,2,0,1,1.000,,,2.35,0.33,P
1198,Victor Zambrano,25,TBD,AL,36,0,0,51.1,13,8,5,0,0,1.000,,,2.28,0.36,P
1199,Gregg Zaun,30,KCR,AL,35,31,29,277.0,197,181,11,5,4,.975,0,0,6.24,5.49,C
1200,Todd Zeile,35,NYM,NL,149,145,131,1273.1,1307,1184,112,11,105,.992,1,1,9.16,8.70,1B
Rk,Name,Age,Tm,Lg,G,GS,CG,Inn,Ch,PO,A,E,DP,Fld%,Rtot,Rtot/yr,RF/9,RF/G,Pos Summary
1201,Chad Zerbe,29,SFG,NL,27,1,0,39.0,8,1,6,1,2,.875,,,1.62,0.26,P
1202,Jeff Zimmerman,28,TEX,AL,66,0,0,71.1,9,5,4,0,1,1.000,,,1.14,0.14,P
1203,Barry Zito,23,OAK,AL,35,35,3,214.1,36,9,25,2,3,.944,,,1.43,0.97,P
1204,Julio Zuleta,26,CHC,NL,35,23,17,219.0,222,213,7,2,11,.991,-1,-7,9.04,6.29,1B
,LgAvg,,,,208,149,114,1325,628,447,169,11,41,.982,0,0,4.19,2.97,