
Tm,#P,PAge,RA/G,W,L,W-L%,ERA,G,GS,GF,CG,tSho,cSho,SV,IP,H,R,ER,HR,BB,IBB,SO,HBP,BK,WP,BF,ERA+,FIP,WHIP,H9,HR9,BB9,SO9,SO/W,LOB
ARI,27,27.1,4.40,79,83,.488,4.04,162,162,161,1,12,1,44,1466.2,1450,713,659,182,500,45,1215,48,3,51,6257,103,4.21,1.330,8.9,1.1,3.1,7.5,2.43,1144
ATL,37,26.6,4.69,67,95,.414,4.41,162,162,159,3,10,2,44,1425.1,1462,760,698,170,550,45,1148,53,9,53,6156,87,4.34,1.412,9.2,1.1,3.5,7.2,2.09,1120
BAL,22,28.3,4.28,81,81,.500,4.05,162,162,162,0,10,0,43,1434.2,1406,693,646,174,483,27,1233,54,0,46,6085,102,4.11,1.317,8.8,1.1,3.0,7.7,2.55,1088
BOS,26,28.6,4.65,78,84,.481,4.31,162,162,159,3,10,1,40,1448.1,1486,753,694,178,478,17,1218,62,10,79,6225,100,4.17,1.356,9.2,1.1,3.0,7.6,2.55,1127
CHC,29,29.3,3.75,97,65,.599,3.36,162,162,156,6,21,4,48,1461.1,1276,608,546,134,407,38,1431,46,3,66,5997,116,3.30,1.152,7.9,0.8,2.5,8.8,3.52,1005
CHW,24,27.8,4.33,76,86,.469,3.98,162,162,155,7,9,4,37,1452.2,1443,701,643,162,474,34,1359,62,2,61,6181,98,3.82,1.320,8.9,1.0,2.9,8.4,2.87,1122
CIN,28,27.3,4.65,64,98,.395,4.33,162,162,160,2,8,1,35,1453.1,1436,754,700,177,544,42,1252,58,11,54,6271,92,4.24,1.362,8.9,1.1,3.4,7.8,2.30,1157
CLE,27,27.3,3.98,81,80,.503,3.67,161,161,150,11,10,1,38,1432.2,1274,640,584,161,425,27,1407,48,5,48,5904,115,3.62,1.186,8.0,1.0,2.7,8.8,3.31,966
COL,30,28.7,5.21,68,94,.420,5.04,162,162,158,4,4,1,36,1426.1,1579,844,799,183,579,42,1112,48,6,66,6308,94,4.56,1.513,10.0,1.2,3.7,7.0,1.92,1185
DET,27,28.7,4.99,74,87,.460,4.64,161,161,154,7,12,4,35,1447.0,1491,803,746,193,489,32,1100,46,8,60,6188,86,4.46,1.368,9.3,1.2,3.0,6.8,2.25,1044
HOU,24,29.4,3.81,86,76,.531,3.57,162,162,157,5,13,3,39,1441.0,1308,618,572,148,423,17,1280,43,2,61,5965,113,3.66,1.201,8.2,0.9,2.6,8.0,3.03,1024
KCR,24,30.0,3.96,95,67,.586,3.73,162,162,160,2,8,1,56,1452.0,1372,641,601,155,489,10,1160,52,2,62,6112,111,4.04,1.282,8.5,1.0,3.0,7.2,2.37,1115
LAA,24,28.3,4.17,85,77,.525,3.94,162,162,160,2,12,2,46,1440.2,1355,675,630,166,466,45,1221,71,4,61,6096,96,4.06,1.264,8.5,1.0,2.9,7.6,2.62,1099
LAD,31,28.1,3.67,92,70,.568,3.44,162,162,156,6,21,3,47,1445.2,1317,595,553,145,395,32,1396,38,10,52,5932,106,3.41,1.184,8.2,0.9,2.5,8.7,3.53,1000
MIA,29,27.3,4.19,71,91,.438,4.02,162,162,162,0,12,0,35,1427.0,1374,678,638,141,508,25,1152,52,3,53,6050,96,3.98,1.319,8.7,0.9,3.2,7.3,2.27,1091
MIL,26,28.4,4.55,68,94,.420,4.28,162,162,161,1,7,0,40,1435.0,1432,737,682,176,517,36,1260,55,5,71,6148,94,4.17,1.358,9.0,1.1,3.2,7.9,2.44,1106
MIN,24,29.1,4.32,83,79,.512,4.07,162,162,160,2,12,0,45,1443.0,1506,700,653,163,413,34,1046,41,2,54,6139,101,4.10,1.330,9.4,1.0,2.6,6.5,2.53,1110
NYM,26,28.2,3.78,90,72,.556,3.43,162,162,161,1,14,1,50,1462.2,1341,613,557,152,383,43,1337,44,2,46,6046,107,3.53,1.179,8.3,0.9,2.4,8.2,3.49,1045
NYY,33,27.4,4.31,87,75,.537,4.03,162,162,159,3,4,0,48,1457.2,1416,698,652,182,474,16,1370,56,4,78,6191,100,3.97,1.297,8.7,1.1,2.9,8.5,2.89,1120
OAK,30,27.8,4.50,68,94,.420,4.14,162,162,157,5,15,3,28,1444.2,1402,729,664,172,474,19,1179,47,4,62,6128,96,4.13,1.299,8.7,1.1,3.0,7.3,2.49,1065
PHI,30,28.5,4.99,63,99,.389,4.69,162,162,161,1,7,1,35,1436.1,1592,809,749,191,488,37,1153,61,7,60,6332,85,4.40,1.448,10.0,1.2,3.1,7.2,2.36,1214
PIT,21,29.6,3.68,98,64,.605,3.21,162,162,162,0,13,0,54,1489.2,1392,596,532,110,453,38,1338,75,4,67,6215,118,3.36,1.239,8.4,0.7,2.7,8.1,2.95,1150
SDP,26,29.1,4.51,74,88,.457,4.09,162,162,161,1,6,0,41,1440.1,1371,731,655,171,516,35,1393,54,3,54,6093,91,3.93,1.310,8.6,1.1,3.2,8.7,2.70,1041
SEA,28,28.6,4.48,76,86,.469,4.16,162,162,156,6,12,5,45,1463.0,1430,726,677,181,491,41,1283,70,5,72,6223,90,4.14,1.313,8.8,1.1,3.0,7.9,2.61,1108
SFG,21,31.5,3.87,84,78,.519,3.72,162,162,155,7,18,4,41,1444.1,1344,627,597,155,431,28,1165,50,4,40,6009,101,3.91,1.229,8.4,1.0,2.7,7.3,2.70,1049
STL,23,28.2,3.24,100,62,.617,2.94,162,162,161,1,15,0,62,1464.2,1359,525,478,123,477,37,1329,45,5,48,6134,133,3.47,1.254,8.4,0.8,2.9,8.2,2.79,1215
TBR,27,26.7,3.96,80,82,.494,3.74,162,162,161,1,12,1,60,1453.1,1314,642,604,175,477,23,1355,46,5,81,6069,105,3.91,1.232,8.1,1.1,3.0,8.4,2.84,1067
TEX,31,28.1,4.52,88,74,.543,4.24,162,162,157,5,9,3,45,1442.2,1459,733,680,171,508,29,1095,63,5,51,6215,102,4.34,1.363,9.1,1.1,3.2,6.8,2.16,1154
TOR,28,29.2,4.14,93,69,.574,3.80,162,162,155,7,10,2,34,1441.0,1353,670,609,173,397,20,1117,59,4,62,5984,105,4.09,1.214,8.5,1.1,2.5,7.0,2.81,991
WSN,26,28.6,3.92,83,79,.512,3.62,162,162,158,4,13,3,41,1434.2,1366,635,577,145,364,37,1342,55,4,39,5975,110,3.45,1.206,8.6,0.9,2.3,8.4,3.69,1036
LgAvg,25,28.4,4.25,81,81,.500,3.95,162,162,158,3,,,43,1447,1404,688,636,164,469,32,1248,53,5,59,6121,101,3.96,1.294,8.7,1.0,2.9,7.8,2.66,1092
Tm,#P,PAge,RA/G,W,L,W-L%,ERA,G,GS,GF,CG,tSho,cSho,SV,IP,H,R,ER,HR,BB,IBB,SO,HBP,BK,WP,BF,ERA+,FIP,WHIP,H9,HR9,BB9,SO9,SO/W,LOB
,735,28.4,4.25,2429,2429,.500,3.95,4858,4858,4754,104,,,1292,43407.2,42106,20647,19075,4909,14073,951,37446,1602,141,1758,183628,101,3.96,1.294,8.7,1.0,2.9,7.8,2.66,32758