
Tm,#P,PAge,RA/G,W,L,W-L%,ERA,G,GS,GF,CG,tSho,cSho,SV,IP,H,R,ER,HR,BB,IBB,SO,HBP,BK,WP,BF,ERA+,FIP,WHIP,H9,HR9,BB9,SO9,SO/W,LOB
ARI,20,29.4,4.36,82,80,.506,3.98,162,162,156,6,9,2,39,1434.2,1403,706,635,147,451,41,1229,68,3,59,6119,116,3.84,1.292,8.8,0.9,2.8,7.7,2.73,1109
ATL,28,28.6,4.80,72,90,.444,4.46,162,162,160,2,7,1,26,1440.2,1439,778,714,156,586,80,1076,42,5,42,6244,94,4.35,1.406,9.0,1.0,3.7,6.7,1.84,1144
BAL,26,27.9,5.40,68,93,.422,5.13,161,161,157,4,4,1,35,1422.0,1538,869,810,184,687,44,922,80,7,72,6414,87,5.14,1.565,9.7,1.2,4.3,5.8,1.34,1279
BOS,23,29.2,4.28,95,67,.586,4.01,162,162,157,5,16,2,47,1446.1,1369,694,645,147,548,17,1185,68,2,43,6180,116,4.09,1.325,8.5,0.9,3.4,7.4,2.16,1147
CHC,23,28.9,4.17,97,64,.602,3.87,161,161,159,2,8,1,44,1450.2,1329,671,624,160,548,45,1264,65,7,48,6194,118,4.09,1.294,8.2,1.0,3.4,7.8,2.31,1171
CHW,19,28.3,4.47,89,74,.546,4.06,163,163,159,4,10,0,34,1457.2,1471,729,658,156,460,42,1147,48,3,54,6218,112,4.00,1.325,9.1,1.0,2.8,7.1,2.49,1116
CIN,23,28.7,4.94,74,88,.457,4.55,162,162,160,2,6,1,34,1442.1,1542,800,729,201,557,40,1227,67,7,52,6352,97,4.54,1.455,9.6,1.3,3.5,7.7,2.20,1225
CLE,28,28.6,4.70,81,81,.500,4.45,162,162,152,10,13,5,31,1437.0,1530,761,711,170,444,28,986,51,5,44,6164,95,4.33,1.374,9.6,1.1,2.8,6.2,2.22,1092
COL,26,28.5,5.07,74,88,.457,4.77,162,162,159,3,8,1,36,1446.0,1547,822,766,148,562,49,1041,53,7,61,6338,99,4.30,1.459,9.6,0.9,3.5,6.5,1.85,1178
DET,25,29.9,5.29,74,88,.457,4.90,162,162,161,1,2,0,34,1445.0,1541,857,786,172,644,63,991,68,7,65,6411,91,4.79,1.512,9.6,1.1,4.0,6.2,1.54,1219
FLA,22,26.6,4.76,84,77,.522,4.43,161,161,159,2,8,1,36,1435.1,1421,767,707,161,586,66,1127,58,4,59,6271,98,4.37,1.398,8.9,1.0,3.7,7.1,1.92,1198
HOU,20,30.9,4.61,86,75,.534,4.36,161,161,157,4,13,3,48,1425.1,1453,743,691,197,492,53,1095,50,9,22,6125,96,4.53,1.365,9.2,1.2,3.1,6.9,2.23,1106
KCR,25,27.6,4.82,75,87,.463,4.48,162,162,160,2,8,0,44,1445.2,1473,781,720,159,515,15,1085,41,5,68,6214,96,4.21,1.375,9.2,1.0,3.2,6.8,2.11,1096
LAA,19,27.6,4.30,100,62,.617,3.99,162,162,155,7,10,1,66,1451.1,1455,697,644,160,457,32,1106,63,2,50,6161,112,4.12,1.317,9.0,1.0,2.8,6.9,2.42,1110
LAD,22,29.5,4.00,84,78,.519,3.68,162,162,157,5,11,4,35,1447.1,1381,648,591,123,480,58,1205,48,4,47,6127,114,3.67,1.286,8.6,0.8,3.0,7.5,2.51,1137
MIL,20,29.9,4.25,90,72,.556,3.85,162,162,150,12,10,6,45,1455.2,1415,689,623,175,528,32,1110,42,5,53,6209,109,4.34,1.335,8.7,1.1,3.3,6.9,2.10,1153
MIN,19,27.5,4.57,88,75,.540,4.16,163,163,158,5,10,2,42,1459.0,1568,745,675,183,406,38,995,31,4,45,6221,101,4.30,1.353,9.7,1.1,2.5,6.1,2.45,1099
NYM,24,29.0,4.41,89,73,.549,4.07,162,162,157,5,12,2,43,1464.1,1415,715,662,163,590,53,1181,70,4,55,6338,104,4.32,1.369,8.7,1.0,3.6,7.3,2.00,1230
NYY,27,30.6,4.49,89,73,.549,4.28,162,162,161,1,11,0,42,1441.2,1478,727,685,143,489,37,1141,51,5,55,6175,103,3.96,1.364,9.2,0.9,3.1,7.1,2.33,1123
OAK,24,26.5,4.29,75,86,.466,4.01,161,161,157,4,7,1,33,1435.0,1364,690,640,135,576,45,1061,54,4,30,6112,103,4.19,1.352,8.6,0.8,3.6,6.7,1.84,1117
PHI,18,30.6,4.20,92,70,.568,3.88,162,162,158,4,11,3,47,1449.2,1444,680,625,160,533,64,1081,57,3,34,6229,112,4.30,1.364,9.0,1.0,3.3,6.7,2.03,1200
PIT,26,26.5,5.46,67,95,.414,5.08,162,162,159,3,7,2,34,1455.0,1631,884,822,176,657,31,963,49,9,64,6528,82,4.84,1.573,10.1,1.1,4.1,6.0,1.47,1279
SDP,32,30.2,4.72,63,99,.389,4.41,162,162,159,3,6,0,30,1458.1,1466,764,714,165,561,61,1100,38,4,43,6286,87,4.33,1.390,9.0,1.0,3.5,6.8,1.96,1147
SEA,22,28.5,5.01,61,101,.377,4.73,162,162,158,4,4,0,36,1435.1,1544,811,754,161,626,37,1016,53,5,60,6368,90,4.59,1.512,9.7,1.0,3.9,6.4,1.62,1251
SFG,20,27.1,4.69,72,90,.444,4.38,162,162,158,4,12,2,41,1442.0,1416,759,701,147,652,59,1240,70,7,77,6341,101,4.24,1.434,8.8,0.9,4.1,7.7,1.90,1256
STL,24,30.2,4.48,86,76,.531,4.19,162,162,160,2,7,1,42,1454.0,1517,725,677,163,496,21,957,51,2,50,6264,101,4.40,1.384,9.4,1.0,3.1,5.9,1.93,1177
TBR,21,27.5,4.14,97,65,.599,3.82,162,162,155,7,12,5,52,1457.2,1349,671,618,166,526,29,1143,46,3,52,6145,116,4.22,1.286,8.3,1.0,3.2,7.1,2.17,1101
TEX,30,28.1,5.97,79,83,.488,5.37,162,162,156,6,8,2,36,1442.0,1647,967,860,176,625,44,963,72,9,62,6506,83,4.83,1.576,10.3,1.1,3.9,6.0,1.54,1213
TOR,19,28.6,3.77,86,76,.531,3.49,162,162,147,15,13,5,44,1446.2,1330,610,561,134,467,42,1184,67,4,51,6067,122,3.81,1.242,8.3,0.8,2.9,7.4,2.54,1117
WSN,25,27.3,5.12,59,102,.366,4.66,161,161,159,2,8,0,28,1434.0,1496,825,742,190,588,44,1063,51,8,59,6310,93,4.71,1.453,9.4,1.2,3.7,6.7,1.81,1183
LgAvg,22,28.6,4.65,81,81,.500,4.32,162,162,157,5,,,39,1445,1466,753,693,163,545,44,1096,56,5,53,6254,101,4.32,1.391,9.1,1.0,3.4,6.8,2.01,1166
Tm,#P,PAge,RA/G,W,L,W-L%,ERA,G,GS,GF,CG,tSho,cSho,SV,IP,H,R,ER,HR,BB,IBB,SO,HBP,BK,WP,BF,ERA+,FIP,WHIP,H9,HR9,BB9,SO9,SO/W,LOB
,651,28.6,4.65,2428,2428,.500,4.32,4856,4856,4720,136,,,1184,43357.2,43972,22585,20790,4878,16337,1310,32884,1672,153,1576,187631,101,4.32,1.391,9.1,1.0,3.4,6.8,2.01,34973