Date(MM/DD/YYYY),Team_Id,Dummy,Pitching,IP,H,R,ER,BB,SO,HR,ERA,BF,Pit,Str,Ctct,StS,StL,GB,FB,LD,Unk,GSc,IR,IS,WPA,aLI,RE24
01/04/2014,ArizonaDiamondbacksp,
01/04/2014,ArizonaDiamondbacksp,,Wade Miley, W (1-1), 7  ,6,4,4,1,5,1,5.25,28,92,65,35,12,18,11,11,5,0,53,,,-0.030, 1.18, -0.8
01/04/2014,ArizonaDiamondbacksp,,Will Harris, H (1), 1  ,0,0,0,1,2,0,0.00,4,17,10,4,1,5,1,0,0,0,,0,0,0.114, 2.15,  0.5
01/04/2014,ArizonaDiamondbacksp,,Addison Reed, S (1), 1  ,1,0,0,0,2,0,6.00,4,14,12,6,2,4,0,2,0,0,,0,0,0.151, 3.19,  0.5
01/04/2014,ArizonaDiamondbacksp,,Team Totals, 9  ,7,4,4,2,9,1, 4.00,36,123,87,45,15,27,12,13,5,0,53,0,0,0.235, 1.50,  0.1
01/04/2014,SanFranciscoGiantsp,
01/04/2014,SanFranciscoGiantsp,,Matt Cain, 5  ,7,3,2,2,2,0,3.60,23,99,57,35,5,17,12,7,4,0,43,,,0.002, 1.32, -0.7
01/04/2014,SanFranciscoGiantsp,,J.C. Gutierrez, BS (1), L (0-1), 2  ,4,2,2,1,1,0,9.00,10,37,22,13,3,6,4,4,3,0,,0,0,-0.294, 1.59, -1.1
01/04/2014,SanFranciscoGiantsp,,Santiago Casilla, 1  ,0,0,0,0,1,0,0.00,3,11,8,4,1,3,1,1,0,0,,0,0,0.027, 0.37,  0.5
01/04/2014,SanFranciscoGiantsp,,Team Totals, 8  ,11,5,4,3,4,0, 4.50,36,147,87,52,9,26,17,12,7,0,43,0,0,-0.265, 1.32, -1.4
02/04/2014,ArizonaDiamondbacksp,
02/04/2014,ArizonaDiamondbacksp,,Trevor Cahill, L (0-2), 6  ,4,2,2,3,3,0,6.30,25,93,55,32,7,16,9,10,5,0,56,,,0.013, 0.94,  0.7
02/04/2014,ArizonaDiamondbacksp,,Joe Thatcher, 1.1,1,0,0,0,2,0,0.00,5,29,23,14,5,4,1,2,1,0,,0,0,0.041, 0.49,  0.7
02/04/2014,ArizonaDiamondbacksp,,J.J. Putz, 0.2,0,0,0,0,0,0,0.00,2,4,3,2,0,1,2,0,0,0,,0,0,0.013, 0.28,  0.2
02/04/2014,ArizonaDiamondbacksp,,Ryan Rowland-Smith, 1  ,1,0,0,1,1,0,0.00,5,23,12,6,1,5,1,2,1,0,,0,0,0.014, 0.32,  0.5
02/04/2014,ArizonaDiamondbacksp,,Team Totals, 9  ,6,2,2,4,6,0, 2.00,37,149,93,54,13,26,13,14,7,0,56,0,0,0.081, 0.74,  2.1
02/04/2014,SanFranciscoGiantsp,
02/04/2014,SanFranciscoGiantsp,,Tim Hudson, W (1-0), 7.2,3,0,0,0,7,0,0.00,27,103,74,43,12,19,9,11,6,0,80,,,0.462, 1.26,  3.4
02/04/2014,SanFranciscoGiantsp,,Javier Lopez, H (1), 0.1,0,0,0,0,0,0,0.00,1,4,2,1,0,1,1,0,0,0,,1,0,0.039, 1.41,  0.2
02/04/2014,SanFranciscoGiantsp,,Sergio Romo, S (2), 1  ,0,0,0,0,1,0,4.50,3,16,10,5,0,5,0,2,0,0,,0,0,0.080, 1.09,  0.5
02/04/2014,SanFranciscoGiantsp,,Team Totals, 9  ,3,0,0,0,8,0, 0.00,31,123,86,49,12,25,10,13,6,0,80,1,0,0.581, 1.25,  4.1
02/04/2014,CincinnatiRedsp,
02/04/2014,CincinnatiRedsp,,Tony Cingrani, 7  ,2,0,0,2,9,0,0.00,24,92,57,29,12,16,5,8,4,0,80,,,0.420, 1.25,  3.1
02/04/2014,CincinnatiRedsp,,Manny Parra, 1  ,1,0,0,0,1,0,0.00,4,17,13,5,5,3,0,3,3,0,,0,0,0.100, 2.14,  0.4
02/04/2014,CincinnatiRedsp,,J.J. Hoover, W (1-0), 1  ,0,0,0,1,2,0,0.00,5,28,17,9,3,5,1,1,0,0,,0,0,0.126, 2.35,  0.4
02/04/2014,CincinnatiRedsp,,Team Totals, 9  ,3,0,0,3,12,0, 0.00,33,137,87,43,20,24,6,12,7,0,80,0,0,0.646, 1.52,  4.0
02/04/2014,KansasCityRoyalsp,
02/04/2014,KansasCityRoyalsp,,Jason Vargas, 7  ,5,1,1,1,6,1,1.29,26,106,69,33,15,21,6,13,5,0,68,,,0.191, 0.91,  2.3
02/04/2014,KansasCityRoyalsp,,Kelvin Herrera, 1  ,0,0,0,0,1,0,0.00,3,18,12,7,2,3,0,2,0,0,,0,0,0.028, 0.38,  0.5
02/04/2014,KansasCityRoyalsp,,Wade Davis, 1  ,0,0,0,0,1,0,3.86,3,14,9,6,1,2,1,1,0,0,,0,0,0.131, 1.77,  0.5
02/04/2014,KansasCityRoyalsp,,Tim Collins, L (0-1), 0.2,1,1,1,2,0,0,13.50,5,20,11,7,1,3,1,2,1,0,,0,0,-0.369, 3.45, -0.9
02/04/2014,KansasCityRoyalsp,,Team Totals, 9.2,6,2,2,3,8,1, 1.86,37,158,101,53,19,29,8,18,6,0,68,0,0,-0.019, 1.27,  2.3
02/04/2014,DetroitTigersp,
02/04/2014,DetroitTigersp,,Max Scherzer, 8  ,4,0,0,1,7,0,0.00,27,110,72,43,11,18,6,13,5,0,80,,,0.564, 1.41,  3.7
02/04/2014,DetroitTigersp,,Joe Nathan, BS (1), 1  ,1,1,1,2,0,0,4.50,6,22,12,6,1,5,2,2,1,0,,0,0,-0.214, 4.50, -0.5
02/04/2014,DetroitTigersp,,Al Alburquerque, W (1-0), 1  ,1,0,0,0,0,0,0.00,4,12,10,7,1,2,2,2,0,0,,0,0,0.131, 2.58,  0.5
02/04/2014,DetroitTigersp,,Team Totals,10  ,6,1,1,3,7,0, 0.90,37,144,94,56,13,25,10,17,6,0,80,0,0,0.481, 2.17,  3.7
01/04/2014,NewYorkYankeesp,
01/04/2014,NewYorkYankeesp,,CC Sabathia, L (0-1), 6  ,8,6,6,1,6,2,9.00,27,99,68,36,8,24,12,8,2,0,37,,,-0.353, 0.35, -3.2
01/04/2014,NewYorkYankeesp,,Dellin Betances, 1  ,0,0,0,0,2,0,0.00,3,10,9,3,1,5,1,0,0,0,,0,0,0.001, 0.02,  0.5
01/04/2014,NewYorkYankeesp,,Vidal Nuno, 1  ,1,0,0,0,3,0,0.00,4,18,13,7,1,5,1,0,0,0,,0,0,0.002, 0.03,  0.5
01/04/2014,NewYorkYankeesp,,Team Totals, 8  ,9,6,6,1,11,2, 6.75,34,127,90,46,10,34,14,8,2,0,37,0,0,-0.350, 0.28, -2.3
02/04/2014,NewYorkYankeesp,
02/04/2014,NewYorkYankeesp,,Hiroki Kuroda, L (0-1), 6  ,3,2,2,1,5,1,3.00,22,91,55,32,9,14,7,9,1,0,62,,,-0.003, 0.64,  0.8
02/04/2014,NewYorkYankeesp,,David Phelps, 1.1,1,1,1,2,2,1,6.75,7,30,17,7,0,10,1,2,1,0,,0,0,-0.085, 0.37, -0.9
02/04/2014,NewYorkYankeesp,,Matt Thornton, 0.1,0,0,0,1,0,0,0.00,2,5,1,1,0,0,1,0,0,0,,2,0,0.004, 0.47,  0.1
02/04/2014,NewYorkYankeesp,,Shawn Kelley, 0.1,0,0,0,0,0,0,0.00,1,3,3,1,1,1,1,0,0,0,,3,0,0.017, 0.68,  0.7
02/04/2014,NewYorkYankeesp,,Team Totals, 8  ,4,3,3,4,7,2, 3.38,32,129,76,41,10,25,10,11,2,0,62,5,0,-0.067, 0.56,  0.7
01/04/2014,MilwaukeeBrewersp,
01/04/2014,MilwaukeeBrewersp,,Kyle Lohse, L (0-1), 7  ,5,3,3,2,8,2,3.86,27,98,59,33,8,18,5,13,7,0,61,,,-0.099, 0.84,  0.2
01/04/2014,MilwaukeeBrewersp,,Zach Duke, 0.2,2,1,1,0,1,1,13.50,4,9,7,5,1,1,2,1,0,0,,0,0,-0.055, 0.27, -0.8
01/04/2014,MilwaukeeBrewersp,,Jim Henderson, 0.1,0,0,0,0,1,0,0.00,1,5,4,2,2,0,0,0,0,0,,1,0,0.006, 0.28,  0.2
01/04/2014,MilwaukeeBrewersp,,Tyler Thornburg, 1  ,2,1,1,0,1,0,9.00,5,13,10,6,2,2,0,4,4,0,,0,0,-0.031, 0.23, -0.5
01/04/2014,MilwaukeeBrewersp,,Team Totals, 9  ,9,5,5,2,11,3, 5.00,37,125,80,46,13,21,7,18,11,0,61,1,0,-0.179, 0.67, -0.9
02/04/2014,MilwaukeeBrewersp,
02/04/2014,MilwaukeeBrewersp,,Matt Garza, L (0-1), 8  ,2,1,1,1,7,1,1.13,27,90,65,43,14,8,10,9,5,0,80,,,0.231, 0.82,  2.6
02/04/2014,MilwaukeeBrewersp,,Will Smith, 0.2,1,0,0,1,2,0,0.00,4,20,12,5,4,3,0,1,1,0,,0,0,0.004, 0.78,  0.0
02/04/2014,MilwaukeeBrewersp,,Brandon Kintzler, 0.1,0,0,0,0,0,0,0.00,1,3,2,2,0,0,0,1,0,0,,2,0,0.029, 1.15,  0.4
02/04/2014,MilwaukeeBrewersp,,Team Totals, 9  ,3,1,1,2,9,1, 1.00,32,113,79,50,18,11,10,11,6,0,80,2,0,0.264, 0.82,  3.1
01/04/2014,AnaheimAngelsp,
01/04/2014,AnaheimAngelsp,,C.J. Wilson, L (0-1), 5.2,8,6,6,2,8,1,9.53,26,114,68,35,12,21,5,11,5,0,35,,,-0.362, 0.83, -3.7
01/04/2014,AnaheimAngelsp,,Matt Shoemaker, 2.1,1,0,0,0,2,0,0.00,8,37,21,9,3,9,4,2,1,0,,1,0,0.023, 0.13,  1.2
01/04/2014,AnaheimAngelsp,,Michael Kohn, 1  ,1,2,2,1,2,1,9.00,5,25,18,12,4,2,1,1,1,0,,0,0,-0.022, 0.14, -1.6
01/04/2014,AnaheimAngelsp,,Team Totals, 9  ,10,8,8,3,12,2, 8.00,39,176,107,56,19,32,10,14,7,0,35,1,0,-0.361, 0.60, -4.0
02/04/2014,AnaheimAngelsp,
02/04/2014,AnaheimAngelsp,,Hector Santiago, L (0-1), 5  ,7,4,4,3,4,0,7.20,23,83,46,23,7,16,7,9,5,0,38,,,-0.083, 1.05, -0.8
02/04/2014,AnaheimAngelsp,,Fernando Salas, 1  ,2,2,2,1,2,1,10.80,6,19,13,8,2,3,1,2,1,0,,2,2,-0.117, 0.42, -2.6
02/04/2014,AnaheimAngelsp,,Nick Maronde, 1  ,1,0,0,0,1,0,6.75,4,16,9,6,2,1,1,2,1,0,,0,0,0.002, 0.05,  0.4
02/04/2014,AnaheimAngelsp,,Joe Smith, 1  ,1,0,0,0,1,0,0.00,4,17,12,8,2,2,2,1,1,0,,0,0,0.001, 0.02,  0.4
02/04/2014,AnaheimAngelsp,,Ernesto Frieri, 1  ,2,2,2,0,1,2,18.00,5,20,15,11,2,2,0,4,0,0,,0,0,-0.002, 0.00, -1.6
02/04/2014,AnaheimAngelsp,,Team Totals, 9  ,13,8,8,4,9,3, 8.00,42,155,95,56,15,24,11,18,8,0,38,2,2,-0.199, 0.64, -4.0
